%!PS-Adobe-3.0 EPSF-3.0
%%Creator: MATLAB, The Mathworks, Inc. Version 7.5.0.338 (R2007b). Operating System: Linux 2.6.32-26-generic #48-Ubuntu SMP Wed Nov 24 09:00:03 UTC 2010 i686.
%%Title: ./foo.eps
%%CreationDate: 12/01/2010  20:44:30
%%DocumentNeededFonts: Helvetica
%%DocumentProcessColors: Cyan Magenta Yellow Black
%%LanguageLevel: 2
%%Pages: 1
%%BoundingBox:    22   179   558   616
%%EndComments

%%BeginProlog
% MathWorks dictionary
/MathWorks 160 dict begin
% definition operators
/bdef {bind def} bind def
/ldef {load def} bind def
/xdef {exch def} bdef
/xstore {exch store} bdef
% operator abbreviations
/c  /clip ldef
/cc /concat ldef
/cp /closepath ldef
/gr /grestore ldef
/gs /gsave ldef
/mt /moveto ldef
/np /newpath ldef
/cm /currentmatrix ldef
/sm /setmatrix ldef
/rm /rmoveto ldef
/rl /rlineto ldef
/s {show newpath} bdef
/sc {setcmykcolor} bdef
/sr /setrgbcolor ldef
/sg /setgray ldef
/w /setlinewidth ldef
/j /setlinejoin ldef
/cap /setlinecap ldef
/rc {rectclip} bdef
/rf {rectfill} bdef
% page state control
/pgsv () def
/bpage {/pgsv save def} bdef
/epage {pgsv restore} bdef
/bplot /gsave ldef
/eplot {stroke grestore} bdef
% orientation switch
/portraitMode 0 def /landscapeMode 1 def /rotateMode 2 def
% coordinate system mappings
/dpi2point 0 def
% font control
/FontSize 0 def
/FMS {/FontSize xstore findfont [FontSize 0 0 FontSize neg 0 0]
  makefont setfont} bdef
/reencode {exch dup where {pop load} {pop StandardEncoding} ifelse
  exch dup 3 1 roll findfont dup length dict begin
  { 1 index /FID ne {def}{pop pop} ifelse } forall
  /Encoding exch def currentdict end definefont pop} bdef
/isroman {findfont /CharStrings get /Agrave known} bdef
/FMSR {3 1 roll 1 index dup isroman {reencode} {pop pop} ifelse
  exch FMS} bdef
/csm {1 dpi2point div -1 dpi2point div scale neg translate
 dup landscapeMode eq {pop -90 rotate}
  {rotateMode eq {90 rotate} if} ifelse} bdef
% line types: solid, dotted, dashed, dotdash
/SO { [] 0 setdash } bdef
/DO { [.5 dpi2point mul 4 dpi2point mul] 0 setdash } bdef
/DA { [6 dpi2point mul] 0 setdash } bdef
/DD { [.5 dpi2point mul 4 dpi2point mul 6 dpi2point mul 4
  dpi2point mul] 0 setdash } bdef
% macros for lines and objects
/L {lineto stroke} bdef
/MP {3 1 roll moveto 1 sub {rlineto} repeat} bdef
/AP {{rlineto} repeat} bdef
/PDlw -1 def
/W {/PDlw currentlinewidth def setlinewidth} def
/PP {closepath eofill} bdef
/DP {closepath stroke} bdef
/MR {4 -2 roll moveto dup  0 exch rlineto exch 0 rlineto
  neg 0 exch rlineto closepath} bdef
/FR {MR stroke} bdef
/PR {MR fill} bdef
/L1i {{currentfile picstr readhexstring pop} image} bdef
/tMatrix matrix def
/MakeOval {newpath tMatrix currentmatrix pop translate scale
0 0 1 0 360 arc tMatrix setmatrix} bdef
/FO {MakeOval stroke} bdef
/PO {MakeOval fill} bdef
/PD {currentlinewidth 2 div 0 360 arc fill
   PDlw -1 eq not {PDlw w /PDlw -1 def} if} def
/FA {newpath tMatrix currentmatrix pop translate scale
  0 0 1 5 -2 roll arc tMatrix setmatrix stroke} bdef
/PA {newpath tMatrix currentmatrix pop	translate 0 0 moveto scale
  0 0 1 5 -2 roll arc closepath tMatrix setmatrix fill} bdef
/FAn {newpath tMatrix currentmatrix pop translate scale
  0 0 1 5 -2 roll arcn tMatrix setmatrix stroke} bdef
/PAn {newpath tMatrix currentmatrix pop translate 0 0 moveto scale
  0 0 1 5 -2 roll arcn closepath tMatrix setmatrix fill} bdef
/vradius 0 def /hradius 0 def /lry 0 def
/lrx 0 def /uly 0 def /ulx 0 def /rad 0 def
/MRR {/vradius xdef /hradius xdef /lry xdef /lrx xdef /uly xdef
  /ulx xdef newpath tMatrix currentmatrix pop ulx hradius add uly
  vradius add translate hradius vradius scale 0 0 1 180 270 arc 
  tMatrix setmatrix lrx hradius sub uly vradius add translate
  hradius vradius scale 0 0 1 270 360 arc tMatrix setmatrix
  lrx hradius sub lry vradius sub translate hradius vradius scale
  0 0 1 0 90 arc tMatrix setmatrix ulx hradius add lry vradius sub
  translate hradius vradius scale 0 0 1 90 180 arc tMatrix setmatrix
  closepath} bdef
/FRR {MRR stroke } bdef
/PRR {MRR fill } bdef
/MlrRR {/lry xdef /lrx xdef /uly xdef /ulx xdef /rad lry uly sub 2 div def
  newpath tMatrix currentmatrix pop ulx rad add uly rad add translate
  rad rad scale 0 0 1 90 270 arc tMatrix setmatrix lrx rad sub lry rad
  sub translate rad rad scale 0 0 1 270 90 arc tMatrix setmatrix
  closepath} bdef
/FlrRR {MlrRR stroke } bdef
/PlrRR {MlrRR fill } bdef
/MtbRR {/lry xdef /lrx xdef /uly xdef /ulx xdef /rad lrx ulx sub 2 div def
  newpath tMatrix currentmatrix pop ulx rad add uly rad add translate
  rad rad scale 0 0 1 180 360 arc tMatrix setmatrix lrx rad sub lry rad
  sub translate rad rad scale 0 0 1 0 180 arc tMatrix setmatrix
  closepath} bdef
/FtbRR {MtbRR stroke } bdef
/PtbRR {MtbRR fill } bdef
/stri 6 array def /dtri 6 array def
/smat 6 array def /dmat 6 array def
/tmat1 6 array def /tmat2 6 array def /dif 3 array def
/asub {/ind2 exch def /ind1 exch def dup dup
  ind1 get exch ind2 get sub exch } bdef
/tri_to_matrix {
  2 0 asub 3 1 asub 4 0 asub 5 1 asub
  dup 0 get exch 1 get 7 -1 roll astore } bdef
/compute_transform {
  dmat dtri tri_to_matrix tmat1 invertmatrix 
  smat stri tri_to_matrix tmat2 concatmatrix } bdef
/ds {stri astore pop} bdef
/dt {dtri astore pop} bdef
/db {2 copy /cols xdef /rows xdef mul dup 3 mul string
  currentfile 
  3 index 0 eq {/ASCIIHexDecode filter}
  {/ASCII85Decode filter 3 index 2 eq {/RunLengthDecode filter} if }
  ifelse exch readstring pop
  dup 0 3 index getinterval /rbmap xdef
  dup 2 index dup getinterval /gbmap xdef
  1 index dup 2 mul exch getinterval /bbmap xdef pop pop}bdef
/it {gs np dtri aload pop moveto lineto lineto cp c
  cols rows 8 compute_transform 
  rbmap gbmap bbmap true 3 colorimage gr}bdef
/il {newpath moveto lineto stroke}bdef
currentdict end def
%%EndProlog

%%BeginSetup
MathWorks begin

0 cap

end
%%EndSetup

%%Page: 1 1
%%BeginPageSetup
%%PageBoundingBox:    22   179   558   616
MathWorks begin
bpage
%%EndPageSetup

%%BeginObject: obj1
bplot

/dpi2point 12 def
portraitMode 0216 7344 csm

   59   -48  6422  5233 rc
85 dict begin %Colortable dictionary
/c0 { 0.000000 0.000000 0.000000 sr} bdef
/c1 { 1.000000 1.000000 1.000000 sr} bdef
/c2 { 0.900000 0.000000 0.000000 sr} bdef
/c3 { 0.000000 0.820000 0.000000 sr} bdef
/c4 { 0.000000 0.000000 0.800000 sr} bdef
/c5 { 0.910000 0.820000 0.320000 sr} bdef
/c6 { 1.000000 0.260000 0.820000 sr} bdef
/c7 { 0.000000 0.820000 0.820000 sr} bdef
c0
1 j
1 sg
   0    0 6913 5186 rf
6 w
0 4119 5356 0 0 -4119 899 4568 4 MP
PP
-5356 0 0 4119 5356 0 0 -4119 899 4568 5 MP stroke
4 w
DO
SO
6 w
0 sg
 899 4568 mt 6255 4568 L
 899  449 mt 6255  449 L
 899 4568 mt  899  449 L
6255 4568 mt 6255  449 L
 899 4568 mt 6255 4568 L
 899 4568 mt  899  449 L
 899 4568 mt  899 4541 L
 899  449 mt  899  475 L
 899 4568 mt  899 4514 L
 899  449 mt  899  502 L
%%IncludeResource: font Helvetica
/Helvetica /ISOLatin1Encoding 240 FMSR

 722 4898 mt 
(10) s
%%IncludeResource: font Helvetica
/Helvetica /ISOLatin1Encoding 160 FMSR

 988 4750 mt 
(0) s
2511 4568 mt 2511 4541 L
2511  449 mt 2511  475 L
3454 4568 mt 3454 4541 L
3454  449 mt 3454  475 L
4123 4568 mt 4123 4541 L
4123  449 mt 4123  475 L
4642 4568 mt 4642 4541 L
4642  449 mt 4642  475 L
5066 4568 mt 5066 4541 L
5066  449 mt 5066  475 L
5425 4568 mt 5425 4541 L
5425  449 mt 5425  475 L
5735 4568 mt 5735 4541 L
5735  449 mt 5735  475 L
6009 4568 mt 6009 4541 L
6009  449 mt 6009  475 L
6255 4568 mt 6255 4541 L
6255  449 mt 6255  475 L
6255 4568 mt 6255 4514 L
6255  449 mt 6255  502 L
%%IncludeResource: font Helvetica
/Helvetica /ISOLatin1Encoding 240 FMSR

6078 4898 mt 
(10) s
%%IncludeResource: font Helvetica
/Helvetica /ISOLatin1Encoding 160 FMSR

6344 4750 mt 
(1) s
 899 4346 mt  925 4346 L
6255 4346 mt 6228 4346 L
 899 4380 mt  925 4380 L
6255 4380 mt 6228 4380 L
 899 4417 mt  925 4417 L
6255 4417 mt 6228 4417 L
 899 4460 mt  925 4460 L
6255 4460 mt 6228 4460 L
 899 4509 mt  925 4509 L
6255 4509 mt 6228 4509 L
 899 4568 mt  925 4568 L
6255 4568 mt 6228 4568 L
 899 4346 mt  952 4346 L
6255 4346 mt 6201 4346 L
%%IncludeResource: font Helvetica
/Helvetica /ISOLatin1Encoding 240 FMSR

 416 4435 mt 
(10) s
%%IncludeResource: font Helvetica
/Helvetica /ISOLatin1Encoding 160 FMSR

 682 4287 mt 
(-5) s
 899 4125 mt  925 4125 L
6255 4125 mt 6228 4125 L
 899 3995 mt  925 3995 L
6255 3995 mt 6228 3995 L
 899 3903 mt  925 3903 L
6255 3903 mt 6228 3903 L
 899 3832 mt  925 3832 L
6255 3832 mt 6228 3832 L
 899 3774 mt  925 3774 L
6255 3774 mt 6228 3774 L
 899 3725 mt  925 3725 L
6255 3725 mt 6228 3725 L
 899 3682 mt  925 3682 L
6255 3682 mt 6228 3682 L
 899 3645 mt  925 3645 L
6255 3645 mt 6228 3645 L
 899 3611 mt  925 3611 L
6255 3611 mt 6228 3611 L
 899 3611 mt  952 3611 L
6255 3611 mt 6201 3611 L
%%IncludeResource: font Helvetica
/Helvetica /ISOLatin1Encoding 240 FMSR

 416 3700 mt 
(10) s
%%IncludeResource: font Helvetica
/Helvetica /ISOLatin1Encoding 160 FMSR

 682 3552 mt 
(-4) s
 899 3390 mt  925 3390 L
6255 3390 mt 6228 3390 L
 899 3260 mt  925 3260 L
6255 3260 mt 6228 3260 L
 899 3168 mt  925 3168 L
6255 3168 mt 6228 3168 L
 899 3097 mt  925 3097 L
6255 3097 mt 6228 3097 L
 899 3039 mt  925 3039 L
6255 3039 mt 6228 3039 L
 899 2990 mt  925 2990 L
6255 2990 mt 6228 2990 L
 899 2947 mt  925 2947 L
6255 2947 mt 6228 2947 L
 899 2909 mt  925 2909 L
6255 2909 mt 6228 2909 L
 899 2876 mt  925 2876 L
6255 2876 mt 6228 2876 L
 899 2876 mt  952 2876 L
6255 2876 mt 6201 2876 L
%%IncludeResource: font Helvetica
/Helvetica /ISOLatin1Encoding 240 FMSR

 416 2965 mt 
(10) s
%%IncludeResource: font Helvetica
/Helvetica /ISOLatin1Encoding 160 FMSR

 682 2817 mt 
(-3) s
 899 2654 mt  925 2654 L
6255 2654 mt 6228 2654 L
 899 2525 mt  925 2525 L
6255 2525 mt 6228 2525 L
 899 2433 mt  925 2433 L
6255 2433 mt 6228 2433 L
 899 2362 mt  925 2362 L
6255 2362 mt 6228 2362 L
 899 2303 mt  925 2303 L
6255 2303 mt 6228 2303 L
 899 2254 mt  925 2254 L
6255 2254 mt 6228 2254 L
 899 2212 mt  925 2212 L
6255 2212 mt 6228 2212 L
 899 2174 mt  925 2174 L
6255 2174 mt 6228 2174 L
 899 2140 mt  925 2140 L
6255 2140 mt 6228 2140 L
 899 2140 mt  952 2140 L
6255 2140 mt 6201 2140 L
%%IncludeResource: font Helvetica
/Helvetica /ISOLatin1Encoding 240 FMSR

 416 2229 mt 
(10) s
%%IncludeResource: font Helvetica
/Helvetica /ISOLatin1Encoding 160 FMSR

 682 2081 mt 
(-2) s
 899 1919 mt  925 1919 L
6255 1919 mt 6228 1919 L
 899 1790 mt  925 1790 L
6255 1790 mt 6228 1790 L
 899 1698 mt  925 1698 L
6255 1698 mt 6228 1698 L
 899 1626 mt  925 1626 L
6255 1626 mt 6228 1626 L
 899 1568 mt  925 1568 L
6255 1568 mt 6228 1568 L
 899 1519 mt  925 1519 L
6255 1519 mt 6228 1519 L
 899 1476 mt  925 1476 L
6255 1476 mt 6228 1476 L
 899 1439 mt  925 1439 L
6255 1439 mt 6228 1439 L
 899 1405 mt  925 1405 L
6255 1405 mt 6228 1405 L
 899 1405 mt  952 1405 L
6255 1405 mt 6201 1405 L
%%IncludeResource: font Helvetica
/Helvetica /ISOLatin1Encoding 240 FMSR

 416 1494 mt 
(10) s
%%IncludeResource: font Helvetica
/Helvetica /ISOLatin1Encoding 160 FMSR

 682 1346 mt 
(-1) s
 899 1184 mt  925 1184 L
6255 1184 mt 6228 1184 L
 899 1054 mt  925 1054 L
6255 1054 mt 6228 1054 L
 899  962 mt  925  962 L
6255  962 mt 6228  962 L
 899  891 mt  925  891 L
6255  891 mt 6228  891 L
 899  833 mt  925  833 L
6255  833 mt 6228  833 L
 899  784 mt  925  784 L
6255  784 mt 6228  784 L
 899  741 mt  925  741 L
6255  741 mt 6228  741 L
 899  703 mt  925  703 L
6255  703 mt 6228  703 L
 899  670 mt  925  670 L
6255  670 mt 6228  670 L
 899  670 mt  952  670 L
6255  670 mt 6201  670 L
%%IncludeResource: font Helvetica
/Helvetica /ISOLatin1Encoding 240 FMSR

 416  759 mt 
(10) s
%%IncludeResource: font Helvetica
/Helvetica /ISOLatin1Encoding 160 FMSR

 682  611 mt 
(0) s
 899  449 mt  925  449 L
6255  449 mt 6228  449 L
 899 4568 mt 6255 4568 L
 899  449 mt 6255  449 L
 899 4568 mt  899  449 L
6255 4568 mt 6255  449 L
gs 899 449 5357 4120 rc
36 w
/c8 { 0.000000 0.000000 1.000000 sr} bdef
c8
246 258 274 261 310 293 359 394 424 524 519 461 669 556 943 417 
1612 302 899 613 10 MP stroke
gr

36 w
c8
 863  613 mt  935  613 L
 899  577 mt  899  649 L
2475  915 mt 2547  915 L
2511  879 mt 2511  951 L
3418 1332 mt 3490 1332 L
3454 1296 mt 3454 1368 L
4087 1888 mt 4159 1888 L
4123 1852 mt 4123 1924 L
4606 2349 mt 4678 2349 L
4642 2313 mt 4642 2385 L
5030 2873 mt 5102 2873 L
5066 2837 mt 5066 2909 L
5389 3267 mt 5461 3267 L
5425 3231 mt 5425 3303 L
5699 3560 mt 5771 3560 L
5735 3524 mt 5735 3596 L
5973 3821 mt 6045 3821 L
6009 3785 mt 6009 3857 L
6219 4079 mt 6291 4079 L
6255 4043 mt 6255 4115 L
 874  588 mt  924  638 L
 924  588 mt  874  638 L
2486  890 mt 2536  940 L
2536  890 mt 2486  940 L
3429 1307 mt 3479 1357 L
3479 1307 mt 3429 1357 L
4098 1863 mt 4148 1913 L
4148 1863 mt 4098 1913 L
4617 2324 mt 4667 2374 L
4667 2324 mt 4617 2374 L
5041 2848 mt 5091 2898 L
5091 2848 mt 5041 2898 L
5400 3242 mt 5450 3292 L
5450 3242 mt 5400 3292 L
5710 3535 mt 5760 3585 L
5760 3535 mt 5710 3585 L
5984 3796 mt 6034 3846 L
6034 3796 mt 5984 3846 L
6230 4054 mt 6280 4104 L
6280 4054 mt 6230 4104 L
gs 899 449 5357 4120 rc
DA
/c9 { 0.000000 0.500000 0.000000 sr} bdef
c9
246 260 274 291 310 425 359 558 424 569 519 708 669 827 943 201 
1612 12 899 566 10 MP stroke
gr

c9
DA
SO
 863  566 mt  935  566 L
 899  530 mt  899  602 L
2475  578 mt 2547  578 L
2511  542 mt 2511  614 L
3418  779 mt 3490  779 L
3454  743 mt 3454  815 L
4087 1606 mt 4159 1606 L
4123 1570 mt 4123 1642 L
4606 2314 mt 4678 2314 L
4642 2278 mt 4642 2350 L
5030 2883 mt 5102 2883 L
5066 2847 mt 5066 2919 L
5389 3441 mt 5461 3441 L
5425 3405 mt 5425 3477 L
5699 3866 mt 5771 3866 L
5735 3830 mt 5735 3902 L
5973 4157 mt 6045 4157 L
6009 4121 mt 6009 4193 L
6219 4417 mt 6291 4417 L
6255 4381 mt 6255 4453 L
DA
gs 899 449 5357 4120 rc
DD
/c10 { 1.000000 0.000000 0.000000 sr} bdef
c10
359 650 424 898 519 1020 669 417 943 -13 1612 17 899 556 7 MP stroke
gr

c10
DD
SO
  36   36  899  556 FO
  36   36 2511  573 FO
  36   36 3454  560 FO
  36   36 4123  977 FO
  36   36 4642 1997 FO
  36   36 5066 2895 FO
  36   36 5425 3545 FO
DD
gs 899 449 5357 4120 rc
gr

0 sg
%%IncludeResource: font Helvetica
/Helvetica /ISOLatin1Encoding 240 FMSR

2497 5129 mt 
(polynomial degree p) s
 307 3966 mt  -90 rotate
(relative H1-seminorm error) s
90 rotate
1771  242 mt 
(singular solution, L = 10, ) s
%%IncludeResource: font Symbol
/Symbol /ISOLatin1Encoding 240 FMSR

4445  242 mt 
(s) s
%%IncludeResource: font Helvetica
/Helvetica /ISOLatin1Encoding 240 FMSR

4589  242 mt 
( =0.125) s
%%IncludeResource: font Helvetica
/Helvetica /ISOLatin1Encoding 120 FMSR

 882 4611 mt 
( ) s
6239  491 mt 
( ) s
SO
6 w
1 sg
0 897 2306 0 0 -897 959 4509 4 MP
PP
-2306 0 0 897 2306 0 0 -897 959 4509 5 MP stroke
4 w
DO
SO
6 w
0 sg
 959 4509 mt 3265 4509 L
 959 3612 mt 3265 3612 L
 959 4509 mt  959 3612 L
3265 4509 mt 3265 3612 L
 959 4509 mt 3265 4509 L
 959 4509 mt  959 3612 L
 959 4509 mt 3265 4509 L
 959 3612 mt 3265 3612 L
 959 4509 mt  959 3612 L
3265 4509 mt 3265 3612 L
%%IncludeResource: font Helvetica
/Helvetica /ISOLatin1Encoding 240 FMSR

1445 3858 mt 
(k=10, h=0.4) s
gs 959 3612 2307 898 rc
36 w
c8
374 0 1033 3772 2 MP stroke
gs 1110 3662 221 221 rc
1184 3772 mt 1256 3772 L
1220 3736 mt 1220 3808 L
1195 3747 mt 1245 3797 L
1245 3747 mt 1195 3797 L
gr

gr

36 w
c8
0 sg
1445 4146 mt 
(k=100, h=0.04) s
gs 959 3612 2307 898 rc
DA
c9
374 0 1033 4060 2 MP stroke
SO
gs 1110 3950 221 221 rc
1184 4060 mt 1256 4060 L
1220 4024 mt 1220 4096 L
gr

gr

c9
0 sg
1445 4434 mt 
(k=1000, h=0.004) s
gs 959 3612 2307 898 rc
DD
c10
374 0 1033 4348 2 MP stroke
SO
gs 1110 4238 221 221 rc
  36   36 1220 4348 FO
gr

6 w
gr

6 w
c10

end %%Color Dict

eplot
%%EndObject

epage
end

showpage

%%Trailer
%%EOF
