%!PS-Adobe-3.0 EPSF-3.0
%%Creator: MATLAB, The Mathworks, Inc. Version 7.5.0.338 (R2007b). Operating System: Linux 2.6.32-26-generic #48-Ubuntu SMP Wed Nov 24 09:00:03 UTC 2010 i686.
%%Title: ./foo1.eps
%%CreationDate: 12/01/2010  20:43:33
%%DocumentNeededFonts: Helvetica
%%DocumentProcessColors: Cyan Magenta Yellow Black
%%LanguageLevel: 2
%%Pages: 1
%%BoundingBox:    18   180   554   616
%%EndComments

%%BeginProlog
% MathWorks dictionary
/MathWorks 160 dict begin
% definition operators
/bdef {bind def} bind def
/ldef {load def} bind def
/xdef {exch def} bdef
/xstore {exch store} bdef
% operator abbreviations
/c  /clip ldef
/cc /concat ldef
/cp /closepath ldef
/gr /grestore ldef
/gs /gsave ldef
/mt /moveto ldef
/np /newpath ldef
/cm /currentmatrix ldef
/sm /setmatrix ldef
/rm /rmoveto ldef
/rl /rlineto ldef
/s {show newpath} bdef
/sc {setcmykcolor} bdef
/sr /setrgbcolor ldef
/sg /setgray ldef
/w /setlinewidth ldef
/j /setlinejoin ldef
/cap /setlinecap ldef
/rc {rectclip} bdef
/rf {rectfill} bdef
% page state control
/pgsv () def
/bpage {/pgsv save def} bdef
/epage {pgsv restore} bdef
/bplot /gsave ldef
/eplot {stroke grestore} bdef
% orientation switch
/portraitMode 0 def /landscapeMode 1 def /rotateMode 2 def
% coordinate system mappings
/dpi2point 0 def
% font control
/FontSize 0 def
/FMS {/FontSize xstore findfont [FontSize 0 0 FontSize neg 0 0]
  makefont setfont} bdef
/reencode {exch dup where {pop load} {pop StandardEncoding} ifelse
  exch dup 3 1 roll findfont dup length dict begin
  { 1 index /FID ne {def}{pop pop} ifelse } forall
  /Encoding exch def currentdict end definefont pop} bdef
/isroman {findfont /CharStrings get /Agrave known} bdef
/FMSR {3 1 roll 1 index dup isroman {reencode} {pop pop} ifelse
  exch FMS} bdef
/csm {1 dpi2point div -1 dpi2point div scale neg translate
 dup landscapeMode eq {pop -90 rotate}
  {rotateMode eq {90 rotate} if} ifelse} bdef
% line types: solid, dotted, dashed, dotdash
/SO { [] 0 setdash } bdef
/DO { [.5 dpi2point mul 4 dpi2point mul] 0 setdash } bdef
/DA { [6 dpi2point mul] 0 setdash } bdef
/DD { [.5 dpi2point mul 4 dpi2point mul 6 dpi2point mul 4
  dpi2point mul] 0 setdash } bdef
% macros for lines and objects
/L {lineto stroke} bdef
/MP {3 1 roll moveto 1 sub {rlineto} repeat} bdef
/AP {{rlineto} repeat} bdef
/PDlw -1 def
/W {/PDlw currentlinewidth def setlinewidth} def
/PP {closepath eofill} bdef
/DP {closepath stroke} bdef
/MR {4 -2 roll moveto dup  0 exch rlineto exch 0 rlineto
  neg 0 exch rlineto closepath} bdef
/FR {MR stroke} bdef
/PR {MR fill} bdef
/L1i {{currentfile picstr readhexstring pop} image} bdef
/tMatrix matrix def
/MakeOval {newpath tMatrix currentmatrix pop translate scale
0 0 1 0 360 arc tMatrix setmatrix} bdef
/FO {MakeOval stroke} bdef
/PO {MakeOval fill} bdef
/PD {currentlinewidth 2 div 0 360 arc fill
   PDlw -1 eq not {PDlw w /PDlw -1 def} if} def
/FA {newpath tMatrix currentmatrix pop translate scale
  0 0 1 5 -2 roll arc tMatrix setmatrix stroke} bdef
/PA {newpath tMatrix currentmatrix pop	translate 0 0 moveto scale
  0 0 1 5 -2 roll arc closepath tMatrix setmatrix fill} bdef
/FAn {newpath tMatrix currentmatrix pop translate scale
  0 0 1 5 -2 roll arcn tMatrix setmatrix stroke} bdef
/PAn {newpath tMatrix currentmatrix pop translate 0 0 moveto scale
  0 0 1 5 -2 roll arcn closepath tMatrix setmatrix fill} bdef
/vradius 0 def /hradius 0 def /lry 0 def
/lrx 0 def /uly 0 def /ulx 0 def /rad 0 def
/MRR {/vradius xdef /hradius xdef /lry xdef /lrx xdef /uly xdef
  /ulx xdef newpath tMatrix currentmatrix pop ulx hradius add uly
  vradius add translate hradius vradius scale 0 0 1 180 270 arc 
  tMatrix setmatrix lrx hradius sub uly vradius add translate
  hradius vradius scale 0 0 1 270 360 arc tMatrix setmatrix
  lrx hradius sub lry vradius sub translate hradius vradius scale
  0 0 1 0 90 arc tMatrix setmatrix ulx hradius add lry vradius sub
  translate hradius vradius scale 0 0 1 90 180 arc tMatrix setmatrix
  closepath} bdef
/FRR {MRR stroke } bdef
/PRR {MRR fill } bdef
/MlrRR {/lry xdef /lrx xdef /uly xdef /ulx xdef /rad lry uly sub 2 div def
  newpath tMatrix currentmatrix pop ulx rad add uly rad add translate
  rad rad scale 0 0 1 90 270 arc tMatrix setmatrix lrx rad sub lry rad
  sub translate rad rad scale 0 0 1 270 90 arc tMatrix setmatrix
  closepath} bdef
/FlrRR {MlrRR stroke } bdef
/PlrRR {MlrRR fill } bdef
/MtbRR {/lry xdef /lrx xdef /uly xdef /ulx xdef /rad lrx ulx sub 2 div def
  newpath tMatrix currentmatrix pop ulx rad add uly rad add translate
  rad rad scale 0 0 1 180 360 arc tMatrix setmatrix lrx rad sub lry rad
  sub translate rad rad scale 0 0 1 0 180 arc tMatrix setmatrix
  closepath} bdef
/FtbRR {MtbRR stroke } bdef
/PtbRR {MtbRR fill } bdef
/stri 6 array def /dtri 6 array def
/smat 6 array def /dmat 6 array def
/tmat1 6 array def /tmat2 6 array def /dif 3 array def
/asub {/ind2 exch def /ind1 exch def dup dup
  ind1 get exch ind2 get sub exch } bdef
/tri_to_matrix {
  2 0 asub 3 1 asub 4 0 asub 5 1 asub
  dup 0 get exch 1 get 7 -1 roll astore } bdef
/compute_transform {
  dmat dtri tri_to_matrix tmat1 invertmatrix 
  smat stri tri_to_matrix tmat2 concatmatrix } bdef
/ds {stri astore pop} bdef
/dt {dtri astore pop} bdef
/db {2 copy /cols xdef /rows xdef mul dup 3 mul string
  currentfile 
  3 index 0 eq {/ASCIIHexDecode filter}
  {/ASCII85Decode filter 3 index 2 eq {/RunLengthDecode filter} if }
  ifelse exch readstring pop
  dup 0 3 index getinterval /rbmap xdef
  dup 2 index dup getinterval /gbmap xdef
  1 index dup 2 mul exch getinterval /bbmap xdef pop pop}bdef
/it {gs np dtri aload pop moveto lineto lineto cp c
  cols rows 8 compute_transform 
  rbmap gbmap bbmap true 3 colorimage gr}bdef
/il {newpath moveto lineto stroke}bdef
currentdict end def
%%EndProlog

%%BeginSetup
MathWorks begin

0 cap

end
%%EndSetup

%%Page: 1 1
%%BeginPageSetup
%%PageBoundingBox:    18   180   554   616
MathWorks begin
bpage
%%EndPageSetup

%%BeginObject: obj1
bplot

/dpi2point 12 def
portraitMode 0216 7344 csm

    0   -48  6437  5230 rc
85 dict begin %Colortable dictionary
/c0 { 0.000000 0.000000 0.000000 sr} bdef
/c1 { 1.000000 1.000000 1.000000 sr} bdef
/c2 { 0.900000 0.000000 0.000000 sr} bdef
/c3 { 0.000000 0.820000 0.000000 sr} bdef
/c4 { 0.000000 0.000000 0.800000 sr} bdef
/c5 { 0.910000 0.820000 0.320000 sr} bdef
/c6 { 1.000000 0.260000 0.820000 sr} bdef
/c7 { 0.000000 0.820000 0.820000 sr} bdef
c0
1 j
1 sg
   0    0 6913 5186 rf
6 w
0 4166 5356 0 0 -4166 899 4615 4 MP
PP
-5356 0 0 4166 5356 0 0 -4166 899 4615 5 MP stroke
4 w
DO
SO
6 w
0 sg
 899 4615 mt 6255 4615 L
 899  449 mt 6255  449 L
 899 4615 mt  899  449 L
6255 4615 mt 6255  449 L
 899 4615 mt 6255 4615 L
 899 4615 mt  899  449 L
1494 4615 mt 1494 4561 L
1494  449 mt 1494  502 L
%%IncludeResource: font Helvetica
/Helvetica /ISOLatin1Encoding 240 FMSR

1428 4872 mt 
(2) s
2684 4615 mt 2684 4561 L
2684  449 mt 2684  502 L
2618 4872 mt 
(4) s
3874 4615 mt 3874 4561 L
3874  449 mt 3874  502 L
3808 4872 mt 
(6) s
5064 4615 mt 5064 4561 L
5064  449 mt 5064  502 L
4998 4872 mt 
(8) s
6255 4615 mt 6255 4561 L
6255  449 mt 6255  502 L
6122 4872 mt 
(10) s
 899 4615 mt  899 4615 L
 899 4615 mt  899 4615 L
 899 4615 mt  899 4615 L
 899 4615 mt  899 4615 L
 899 4615 mt  899 4615 L
 899 4615 mt  899 4615 L
 899 4615 mt  899 4615 L
 899 4615 mt  899 4615 L
 899 4615 mt  899 4615 L
 899 4615 mt  899 4615 L
 899 4615 mt  899 4615 L
 899 4615 mt  899 4615 L
 899 4615 mt  899 4615 L
 899 4615 mt  899 4615 L
 899 4615 mt  899 4615 L
 899 4615 mt  899 4615 L
 899 4615 mt  899 4615 L
 899 4615 mt  899 4615 L
 899 4615 mt  952 4615 L
6255 4615 mt 6201 4615 L
 416 4704 mt 
(10) s
%%IncludeResource: font Helvetica
/Helvetica /ISOLatin1Encoding 160 FMSR

 682 4556 mt 
(-8) s
 899 4615 mt  899 4615 L
 899 4615 mt  899 4615 L
 899 4615 mt  899 4615 L
 899 4615 mt  899 4615 L
 899 4615 mt  899 4615 L
 899 4615 mt  899 4615 L
 899 4615 mt  899 4615 L
 899 4615 mt  899 4615 L
 899 4615 mt  899 4615 L
 899 4615 mt  899 4615 L
 899 4615 mt  899 4615 L
 899 4615 mt  899 4615 L
 899 4615 mt  899 4615 L
 899 4615 mt  899 4615 L
 899 4615 mt  899 4615 L
 899 4615 mt  899 4615 L
 899 4615 mt  899 4615 L
 899 4615 mt  899 4615 L
 899 3657 mt  952 3657 L
6255 3657 mt 6201 3657 L
%%IncludeResource: font Helvetica
/Helvetica /ISOLatin1Encoding 240 FMSR

 416 3746 mt 
(10) s
%%IncludeResource: font Helvetica
/Helvetica /ISOLatin1Encoding 160 FMSR

 682 3598 mt 
(-6) s
 899 4615 mt  899 4615 L
 899 4615 mt  899 4615 L
 899 4615 mt  899 4615 L
 899 4615 mt  899 4615 L
 899 4615 mt  899 4615 L
 899 4615 mt  899 4615 L
 899 4615 mt  899 4615 L
 899 4615 mt  899 4615 L
 899 4615 mt  899 4615 L
 899 4615 mt  899 4615 L
 899 4615 mt  899 4615 L
 899 4615 mt  899 4615 L
 899 4615 mt  899 4615 L
 899 4615 mt  899 4615 L
 899 4615 mt  899 4615 L
 899 4615 mt  899 4615 L
 899 4615 mt  899 4615 L
 899 4615 mt  899 4615 L
 899 2699 mt  952 2699 L
6255 2699 mt 6201 2699 L
%%IncludeResource: font Helvetica
/Helvetica /ISOLatin1Encoding 240 FMSR

 416 2788 mt 
(10) s
%%IncludeResource: font Helvetica
/Helvetica /ISOLatin1Encoding 160 FMSR

 682 2640 mt 
(-4) s
 899 4615 mt  899 4615 L
 899 4615 mt  899 4615 L
 899 4615 mt  899 4615 L
 899 4615 mt  899 4615 L
 899 4615 mt  899 4615 L
 899 4615 mt  899 4615 L
 899 4615 mt  899 4615 L
 899 4615 mt  899 4615 L
 899 4615 mt  899 4615 L
 899 4615 mt  899 4615 L
 899 4615 mt  899 4615 L
 899 4615 mt  899 4615 L
 899 4615 mt  899 4615 L
 899 4615 mt  899 4615 L
 899 4615 mt  899 4615 L
 899 4615 mt  899 4615 L
 899 4615 mt  899 4615 L
 899 4615 mt  899 4615 L
 899 1741 mt  952 1741 L
6255 1741 mt 6201 1741 L
%%IncludeResource: font Helvetica
/Helvetica /ISOLatin1Encoding 240 FMSR

 416 1830 mt 
(10) s
%%IncludeResource: font Helvetica
/Helvetica /ISOLatin1Encoding 160 FMSR

 682 1682 mt 
(-2) s
 899 4615 mt  899 4615 L
 899 4615 mt  899 4615 L
 899 4615 mt  899 4615 L
 899 4615 mt  899 4615 L
 899 4615 mt  899 4615 L
 899 4615 mt  899 4615 L
 899 4615 mt  899 4615 L
 899 4615 mt  899 4615 L
 899 4615 mt  899 4615 L
 899 4615 mt  899 4615 L
 899 4615 mt  899 4615 L
 899 4615 mt  899 4615 L
 899 4615 mt  899 4615 L
 899 4615 mt  899 4615 L
 899 4615 mt  899 4615 L
 899 4615 mt  899 4615 L
 899 4615 mt  899 4615 L
 899 4615 mt  899 4615 L
 899  783 mt  952  783 L
6255  783 mt 6201  783 L
%%IncludeResource: font Helvetica
/Helvetica /ISOLatin1Encoding 240 FMSR

 416  872 mt 
(10) s
%%IncludeResource: font Helvetica
/Helvetica /ISOLatin1Encoding 160 FMSR

 682  724 mt 
(0) s
 899 4615 mt  899 4615 L
 899 4615 mt  899 4615 L
 899 4615 mt  899 4615 L
 899 4615 mt  899 4615 L
 899 4615 mt  899 4615 L
 899 4615 mt  899 4615 L
 899 4615 mt  899 4615 L
 899 4615 mt  899 4615 L
 899 4615 mt  899 4615 L
 899 4615 mt  899 4615 L
 899 4615 mt  899 4615 L
 899 4615 mt  899 4615 L
 899 4615 mt  899 4615 L
 899 4615 mt  899 4615 L
 899 4615 mt  899 4615 L
 899 4615 mt  899 4615 L
 899 4615 mt  899 4615 L
 899 4615 mt  899 4615 L
 899 4615 mt 6255 4615 L
 899  449 mt 6255  449 L
 899 4615 mt  899  449 L
6255 4615 mt 6255  449 L
gs 899 449 5357 4167 rc
36 w
/c8 { 0.000000 0.000000 1.000000 sr} bdef
c8
596 474 595 455 595 435 595 411 595 386 595 354 595 338 595 334 
595 195 899 736 10 MP stroke
gr

36 w
c8
 863  736 mt  935  736 L
 899  700 mt  899  772 L
1458  931 mt 1530  931 L
1494  895 mt 1494  967 L
2053 1265 mt 2125 1265 L
2089 1229 mt 2089 1301 L
2648 1603 mt 2720 1603 L
2684 1567 mt 2684 1639 L
3243 1957 mt 3315 1957 L
3279 1921 mt 3279 1993 L
3838 2343 mt 3910 2343 L
3874 2307 mt 3874 2379 L
4433 2754 mt 4505 2754 L
4469 2718 mt 4469 2790 L
5028 3189 mt 5100 3189 L
5064 3153 mt 5064 3225 L
5623 3644 mt 5695 3644 L
5659 3608 mt 5659 3680 L
6219 4118 mt 6291 4118 L
6255 4082 mt 6255 4154 L
 874  711 mt  924  761 L
 924  711 mt  874  761 L
1469  906 mt 1519  956 L
1519  906 mt 1469  956 L
2064 1240 mt 2114 1290 L
2114 1240 mt 2064 1290 L
2659 1578 mt 2709 1628 L
2709 1578 mt 2659 1628 L
3254 1932 mt 3304 1982 L
3304 1932 mt 3254 1982 L
3849 2318 mt 3899 2368 L
3899 2318 mt 3849 2368 L
4444 2729 mt 4494 2779 L
4494 2729 mt 4444 2779 L
5039 3164 mt 5089 3214 L
5089 3164 mt 5039 3214 L
5634 3619 mt 5684 3669 L
5684 3619 mt 5634 3669 L
6230 4093 mt 6280 4143 L
6280 4093 mt 6230 4143 L
gs 899 449 5357 4167 rc
DA
/c9 { 0.000000 0.500000 0.000000 sr} bdef
c9
596 425 595 412 595 398 595 381 595 374 595 449 595 529 595 154 
595 102 899 607 10 MP stroke
gr

c9
DA
SO
 863  607 mt  935  607 L
 899  571 mt  899  643 L
1458  709 mt 1530  709 L
1494  673 mt 1494  745 L
2053  863 mt 2125  863 L
2089  827 mt 2089  899 L
2648 1392 mt 2720 1392 L
2684 1356 mt 2684 1428 L
3243 1841 mt 3315 1841 L
3279 1805 mt 3279 1877 L
3838 2215 mt 3910 2215 L
3874 2179 mt 3874 2251 L
4433 2596 mt 4505 2596 L
4469 2560 mt 4469 2632 L
5028 2994 mt 5100 2994 L
5064 2958 mt 5064 3030 L
5623 3406 mt 5695 3406 L
5659 3370 mt 5659 3442 L
6219 3831 mt 6291 3831 L
6255 3795 mt 6255 3867 L
DA
gs 899 449 5357 4167 rc
DD
/c10 { 1.000000 0.000000 0.000000 sr} bdef
c10
595 585 595 648 595 312 595 -88 595 171 899 594 6 MP stroke
gr

c10
DD
SO
  36   36  899  594 FO
  36   36 1494  765 FO
  36   36 2089  677 FO
  36   36 2684  989 FO
  36   36 3279 1637 FO
  36   36 3874 2222 FO
DD
gs 899 449 5357 4167 rc
gr

0 sg
%%IncludeResource: font Helvetica
/Helvetica /ISOLatin1Encoding 240 FMSR

2497 5103 mt 
(polynomial degree p) s
 307 3876 mt  -90 rotate
(rel. error in H) s
90 rotate
%%IncludeResource: font Helvetica
/Helvetica /ISOLatin1Encoding 192 FMSR

 187 2491 mt  -90 rotate
(1) s
90 rotate
%%IncludeResource: font Helvetica
/Helvetica /ISOLatin1Encoding 240 FMSR

 307 2385 mt  -90 rotate
(-seminorm) s
90 rotate
1551  242 mt 
(plane wave solution, L = 10, ) s
%%IncludeResource: font Symbol
/Symbol /ISOLatin1Encoding 240 FMSR

4585  242 mt 
(s) s
%%IncludeResource: font Helvetica
/Helvetica /ISOLatin1Encoding 240 FMSR

4729  242 mt 
( = 0.125) s
%%IncludeResource: font Helvetica
/Helvetica /ISOLatin1Encoding 120 FMSR

 882 4658 mt 
( ) s
6239  491 mt 
( ) s
SO
6 w
1 sg
0 897 1299 0 0 -897 959 4556 4 MP
PP
-1299 0 0 897 1299 0 0 -897 959 4556 5 MP stroke
4 w
DO
SO
6 w
0 sg
 959 4556 mt 2258 4556 L
 959 3659 mt 2258 3659 L
 959 4556 mt  959 3659 L
2258 4556 mt 2258 3659 L
 959 4556 mt 2258 4556 L
 959 4556 mt  959 3659 L
 959 4556 mt 2258 4556 L
 959 3659 mt 2258 3659 L
 959 4556 mt  959 3659 L
2258 4556 mt 2258 3659 L
%%IncludeResource: font Helvetica
/Helvetica /ISOLatin1Encoding 240 FMSR

1434 3905 mt 
(k=10) s
gs 959 3659 1300 898 rc
36 w
c8
365 0 1031 3819 2 MP stroke
gs 1104 3709 221 221 rc
1178 3819 mt 1250 3819 L
1214 3783 mt 1214 3855 L
1189 3794 mt 1239 3844 L
1239 3794 mt 1189 3844 L
gr

gr

36 w
c8
0 sg
1434 4193 mt 
(k=100) s
gs 959 3659 1300 898 rc
DA
c9
365 0 1031 4107 2 MP stroke
SO
gs 1104 3997 221 221 rc
1178 4107 mt 1250 4107 L
1214 4071 mt 1214 4143 L
gr

gr

c9
0 sg
1434 4481 mt 
(k=1000) s
gs 959 3659 1300 898 rc
DD
c10
365 0 1031 4395 2 MP stroke
SO
gs 1104 4285 221 221 rc
  36   36 1214 4395 FO
gr

6 w
gr

6 w
c10

end %%Color Dict

eplot
%%EndObject

epage
end

showpage

%%Trailer
%%EOF
