%!PS-Adobe-3.0 EPSF-3.0
%%Creator: MATLAB, The Mathworks, Inc. Version 7.5.0.338 (R2007b). Operating System: Linux 2.6.32-26-generic #48-Ubuntu SMP Wed Nov 24 09:00:03 UTC 2010 i686.
%%Title: ./foo2.eps
%%CreationDate: 12/01/2010  22:36:50
%%DocumentNeededFonts: Helvetica
%%+ Helvetica-Bold
%%DocumentProcessColors: Cyan Magenta Yellow Black
%%LanguageLevel: 2
%%Pages: 1
%%BoundingBox:    18   179   546   614
%%EndComments

%%BeginProlog
% MathWorks dictionary
/MathWorks 160 dict begin
% definition operators
/bdef {bind def} bind def
/ldef {load def} bind def
/xdef {exch def} bdef
/xstore {exch store} bdef
% operator abbreviations
/c  /clip ldef
/cc /concat ldef
/cp /closepath ldef
/gr /grestore ldef
/gs /gsave ldef
/mt /moveto ldef
/np /newpath ldef
/cm /currentmatrix ldef
/sm /setmatrix ldef
/rm /rmoveto ldef
/rl /rlineto ldef
/s {show newpath} bdef
/sc {setcmykcolor} bdef
/sr /setrgbcolor ldef
/sg /setgray ldef
/w /setlinewidth ldef
/j /setlinejoin ldef
/cap /setlinecap ldef
/rc {rectclip} bdef
/rf {rectfill} bdef
% page state control
/pgsv () def
/bpage {/pgsv save def} bdef
/epage {pgsv restore} bdef
/bplot /gsave ldef
/eplot {stroke grestore} bdef
% orientation switch
/portraitMode 0 def /landscapeMode 1 def /rotateMode 2 def
% coordinate system mappings
/dpi2point 0 def
% font control
/FontSize 0 def
/FMS {/FontSize xstore findfont [FontSize 0 0 FontSize neg 0 0]
  makefont setfont} bdef
/reencode {exch dup where {pop load} {pop StandardEncoding} ifelse
  exch dup 3 1 roll findfont dup length dict begin
  { 1 index /FID ne {def}{pop pop} ifelse } forall
  /Encoding exch def currentdict end definefont pop} bdef
/isroman {findfont /CharStrings get /Agrave known} bdef
/FMSR {3 1 roll 1 index dup isroman {reencode} {pop pop} ifelse
  exch FMS} bdef
/csm {1 dpi2point div -1 dpi2point div scale neg translate
 dup landscapeMode eq {pop -90 rotate}
  {rotateMode eq {90 rotate} if} ifelse} bdef
% line types: solid, dotted, dashed, dotdash
/SO { [] 0 setdash } bdef
/DO { [.5 dpi2point mul 4 dpi2point mul] 0 setdash } bdef
/DA { [6 dpi2point mul] 0 setdash } bdef
/DD { [.5 dpi2point mul 4 dpi2point mul 6 dpi2point mul 4
  dpi2point mul] 0 setdash } bdef
% macros for lines and objects
/L {lineto stroke} bdef
/MP {3 1 roll moveto 1 sub {rlineto} repeat} bdef
/AP {{rlineto} repeat} bdef
/PDlw -1 def
/W {/PDlw currentlinewidth def setlinewidth} def
/PP {closepath eofill} bdef
/DP {closepath stroke} bdef
/MR {4 -2 roll moveto dup  0 exch rlineto exch 0 rlineto
  neg 0 exch rlineto closepath} bdef
/FR {MR stroke} bdef
/PR {MR fill} bdef
/L1i {{currentfile picstr readhexstring pop} image} bdef
/tMatrix matrix def
/MakeOval {newpath tMatrix currentmatrix pop translate scale
0 0 1 0 360 arc tMatrix setmatrix} bdef
/FO {MakeOval stroke} bdef
/PO {MakeOval fill} bdef
/PD {currentlinewidth 2 div 0 360 arc fill
   PDlw -1 eq not {PDlw w /PDlw -1 def} if} def
/FA {newpath tMatrix currentmatrix pop translate scale
  0 0 1 5 -2 roll arc tMatrix setmatrix stroke} bdef
/PA {newpath tMatrix currentmatrix pop	translate 0 0 moveto scale
  0 0 1 5 -2 roll arc closepath tMatrix setmatrix fill} bdef
/FAn {newpath tMatrix currentmatrix pop translate scale
  0 0 1 5 -2 roll arcn tMatrix setmatrix stroke} bdef
/PAn {newpath tMatrix currentmatrix pop translate 0 0 moveto scale
  0 0 1 5 -2 roll arcn closepath tMatrix setmatrix fill} bdef
/vradius 0 def /hradius 0 def /lry 0 def
/lrx 0 def /uly 0 def /ulx 0 def /rad 0 def
/MRR {/vradius xdef /hradius xdef /lry xdef /lrx xdef /uly xdef
  /ulx xdef newpath tMatrix currentmatrix pop ulx hradius add uly
  vradius add translate hradius vradius scale 0 0 1 180 270 arc 
  tMatrix setmatrix lrx hradius sub uly vradius add translate
  hradius vradius scale 0 0 1 270 360 arc tMatrix setmatrix
  lrx hradius sub lry vradius sub translate hradius vradius scale
  0 0 1 0 90 arc tMatrix setmatrix ulx hradius add lry vradius sub
  translate hradius vradius scale 0 0 1 90 180 arc tMatrix setmatrix
  closepath} bdef
/FRR {MRR stroke } bdef
/PRR {MRR fill } bdef
/MlrRR {/lry xdef /lrx xdef /uly xdef /ulx xdef /rad lry uly sub 2 div def
  newpath tMatrix currentmatrix pop ulx rad add uly rad add translate
  rad rad scale 0 0 1 90 270 arc tMatrix setmatrix lrx rad sub lry rad
  sub translate rad rad scale 0 0 1 270 90 arc tMatrix setmatrix
  closepath} bdef
/FlrRR {MlrRR stroke } bdef
/PlrRR {MlrRR fill } bdef
/MtbRR {/lry xdef /lrx xdef /uly xdef /ulx xdef /rad lrx ulx sub 2 div def
  newpath tMatrix currentmatrix pop ulx rad add uly rad add translate
  rad rad scale 0 0 1 180 360 arc tMatrix setmatrix lrx rad sub lry rad
  sub translate rad rad scale 0 0 1 0 180 arc tMatrix setmatrix
  closepath} bdef
/FtbRR {MtbRR stroke } bdef
/PtbRR {MtbRR fill } bdef
/stri 6 array def /dtri 6 array def
/smat 6 array def /dmat 6 array def
/tmat1 6 array def /tmat2 6 array def /dif 3 array def
/asub {/ind2 exch def /ind1 exch def dup dup
  ind1 get exch ind2 get sub exch } bdef
/tri_to_matrix {
  2 0 asub 3 1 asub 4 0 asub 5 1 asub
  dup 0 get exch 1 get 7 -1 roll astore } bdef
/compute_transform {
  dmat dtri tri_to_matrix tmat1 invertmatrix 
  smat stri tri_to_matrix tmat2 concatmatrix } bdef
/ds {stri astore pop} bdef
/dt {dtri astore pop} bdef
/db {2 copy /cols xdef /rows xdef mul dup 3 mul string
  currentfile 
  3 index 0 eq {/ASCIIHexDecode filter}
  {/ASCII85Decode filter 3 index 2 eq {/RunLengthDecode filter} if }
  ifelse exch readstring pop
  dup 0 3 index getinterval /rbmap xdef
  dup 2 index dup getinterval /gbmap xdef
  1 index dup 2 mul exch getinterval /bbmap xdef pop pop}bdef
/it {gs np dtri aload pop moveto lineto lineto cp c
  cols rows 8 compute_transform 
  rbmap gbmap bbmap true 3 colorimage gr}bdef
/il {newpath moveto lineto stroke}bdef
currentdict end def
%%EndProlog

%%BeginSetup
MathWorks begin

0 cap

end
%%EndSetup

%%Page: 1 1
%%BeginPageSetup
%%PageBoundingBox:    18   179   546   614
MathWorks begin
bpage
%%EndPageSetup

%%BeginObject: obj1
bplot

/dpi2point 12 def
portraitMode 0216 7344 csm

    0   -34  6345  5219 rc
85 dict begin %Colortable dictionary
/c0 { 0.000000 0.000000 0.000000 sr} bdef
/c1 { 1.000000 1.000000 1.000000 sr} bdef
/c2 { 0.900000 0.000000 0.000000 sr} bdef
/c3 { 0.000000 0.820000 0.000000 sr} bdef
/c4 { 0.000000 0.000000 0.800000 sr} bdef
/c5 { 0.910000 0.820000 0.320000 sr} bdef
/c6 { 1.000000 0.260000 0.820000 sr} bdef
/c7 { 0.000000 0.820000 0.820000 sr} bdef
c0
1 j
1 sg
   0    0 6913 5186 rf
6 w
0 4160 5338 0 0 -4160 917 4549 4 MP
PP
-5338 0 0 4160 5338 0 0 -4160 917 4549 5 MP stroke
4 w
DO
SO
6 w
0 sg
 917 4549 mt 6255 4549 L
 917  389 mt 6255  389 L
 917 4549 mt  917  389 L
6255 4549 mt 6255  389 L
 917 4549 mt 6255 4549 L
 917 4549 mt  917  389 L
 917 4549 mt  917 4522 L
 917  389 mt  917  415 L
 917 4549 mt  917 4495 L
 917  389 mt  917  442 L
%%IncludeResource: font Helvetica
/Helvetica /ISOLatin1Encoding 216 FMSR

 757 4851 mt 
(10) s
%%IncludeResource: font Helvetica
/Helvetica /ISOLatin1Encoding 144 FMSR

 997 4717 mt 
(0) s
1615 4549 mt 1615 4522 L
1615  389 mt 1615  415 L
2023 4549 mt 2023 4522 L
2023  389 mt 2023  415 L
2313 4549 mt 2313 4522 L
2313  389 mt 2313  415 L
2538 4549 mt 2538 4522 L
2538  389 mt 2538  415 L
2722 4549 mt 2722 4522 L
2722  389 mt 2722  415 L
2877 4549 mt 2877 4522 L
2877  389 mt 2877  415 L
3012 4549 mt 3012 4522 L
3012  389 mt 3012  415 L
3130 4549 mt 3130 4522 L
3130  389 mt 3130  415 L
3236 4549 mt 3236 4522 L
3236  389 mt 3236  415 L
3236 4549 mt 3236 4495 L
3236  389 mt 3236  442 L
%%IncludeResource: font Helvetica
/Helvetica /ISOLatin1Encoding 216 FMSR

3076 4851 mt 
(10) s
%%IncludeResource: font Helvetica
/Helvetica /ISOLatin1Encoding 144 FMSR

3316 4717 mt 
(1) s
3935 4549 mt 3935 4522 L
3935  389 mt 3935  415 L
4343 4549 mt 4343 4522 L
4343  389 mt 4343  415 L
4633 4549 mt 4633 4522 L
4633  389 mt 4633  415 L
4858 4549 mt 4858 4522 L
4858  389 mt 4858  415 L
5042 4549 mt 5042 4522 L
5042  389 mt 5042  415 L
5197 4549 mt 5197 4522 L
5197  389 mt 5197  415 L
5331 4549 mt 5331 4522 L
5331  389 mt 5331  415 L
5450 4549 mt 5450 4522 L
5450  389 mt 5450  415 L
5556 4549 mt 5556 4522 L
5556  389 mt 5556  415 L
5556 4549 mt 5556 4495 L
5556  389 mt 5556  442 L
%%IncludeResource: font Helvetica
/Helvetica /ISOLatin1Encoding 216 FMSR

5396 4851 mt 
(10) s
%%IncludeResource: font Helvetica
/Helvetica /ISOLatin1Encoding 144 FMSR

5636 4717 mt 
(2) s
6255 4549 mt 6255 4522 L
6255  389 mt 6255  415 L
 917 4549 mt  943 4549 L
6255 4549 mt 6228 4549 L
 917 4549 mt  970 4549 L
6255 4549 mt 6201 4549 L
%%IncludeResource: font Helvetica
/Helvetica /ISOLatin1Encoding 216 FMSR

 478 4629 mt 
(10) s
%%IncludeResource: font Helvetica
/Helvetica /ISOLatin1Encoding 144 FMSR

 718 4495 mt 
(-4) s
 917 4257 mt  943 4257 L
6255 4257 mt 6228 4257 L
 917 4087 mt  943 4087 L
6255 4087 mt 6228 4087 L
 917 3966 mt  943 3966 L
6255 3966 mt 6228 3966 L
 917 3872 mt  943 3872 L
6255 3872 mt 6228 3872 L
 917 3796 mt  943 3796 L
6255 3796 mt 6228 3796 L
 917 3731 mt  943 3731 L
6255 3731 mt 6228 3731 L
 917 3675 mt  943 3675 L
6255 3675 mt 6228 3675 L
 917 3626 mt  943 3626 L
6255 3626 mt 6228 3626 L
 917 3581 mt  943 3581 L
6255 3581 mt 6228 3581 L
 917 3581 mt  970 3581 L
6255 3581 mt 6201 3581 L
%%IncludeResource: font Helvetica
/Helvetica /ISOLatin1Encoding 216 FMSR

 478 3661 mt 
(10) s
%%IncludeResource: font Helvetica
/Helvetica /ISOLatin1Encoding 144 FMSR

 718 3527 mt 
(-3) s
 917 3290 mt  943 3290 L
6255 3290 mt 6228 3290 L
 917 3120 mt  943 3120 L
6255 3120 mt 6228 3120 L
 917 2999 mt  943 2999 L
6255 2999 mt 6228 2999 L
 917 2905 mt  943 2905 L
6255 2905 mt 6228 2905 L
 917 2829 mt  943 2829 L
6255 2829 mt 6228 2829 L
 917 2764 mt  943 2764 L
6255 2764 mt 6228 2764 L
 917 2708 mt  943 2708 L
6255 2708 mt 6228 2708 L
 917 2658 mt  943 2658 L
6255 2658 mt 6228 2658 L
 917 2614 mt  943 2614 L
6255 2614 mt 6228 2614 L
 917 2614 mt  970 2614 L
6255 2614 mt 6201 2614 L
%%IncludeResource: font Helvetica
/Helvetica /ISOLatin1Encoding 216 FMSR

 478 2694 mt 
(10) s
%%IncludeResource: font Helvetica
/Helvetica /ISOLatin1Encoding 144 FMSR

 718 2560 mt 
(-2) s
 917 2323 mt  943 2323 L
6255 2323 mt 6228 2323 L
 917 2153 mt  943 2153 L
6255 2153 mt 6228 2153 L
 917 2032 mt  943 2032 L
6255 2032 mt 6228 2032 L
 917 1938 mt  943 1938 L
6255 1938 mt 6228 1938 L
 917 1861 mt  943 1861 L
6255 1861 mt 6228 1861 L
 917 1797 mt  943 1797 L
6255 1797 mt 6228 1797 L
 917 1741 mt  943 1741 L
6255 1741 mt 6228 1741 L
 917 1691 mt  943 1691 L
6255 1691 mt 6228 1691 L
 917 1647 mt  943 1647 L
6255 1647 mt 6228 1647 L
 917 1647 mt  970 1647 L
6255 1647 mt 6201 1647 L
%%IncludeResource: font Helvetica
/Helvetica /ISOLatin1Encoding 216 FMSR

 478 1727 mt 
(10) s
%%IncludeResource: font Helvetica
/Helvetica /ISOLatin1Encoding 144 FMSR

 718 1593 mt 
(-1) s
 917 1356 mt  943 1356 L
6255 1356 mt 6228 1356 L
 917 1185 mt  943 1185 L
6255 1185 mt 6228 1185 L
 917 1065 mt  943 1065 L
6255 1065 mt 6228 1065 L
 917  971 mt  943  971 L
6255  971 mt 6228  971 L
 917  894 mt  943  894 L
6255  894 mt 6228  894 L
 917  829 mt  943  829 L
6255  829 mt 6228  829 L
 917  773 mt  943  773 L
6255  773 mt 6228  773 L
 917  724 mt  943  724 L
6255  724 mt 6228  724 L
 917  680 mt  943  680 L
6255  680 mt 6228  680 L
 917  680 mt  970  680 L
6255  680 mt 6201  680 L
%%IncludeResource: font Helvetica
/Helvetica /ISOLatin1Encoding 216 FMSR

 478  760 mt 
(10) s
%%IncludeResource: font Helvetica
/Helvetica /ISOLatin1Encoding 144 FMSR

 718  626 mt 
(0) s
 917  389 mt  943  389 L
6255  389 mt 6228  389 L
 917 4549 mt 6255 4549 L
 917  389 mt 6255  389 L
 917 4549 mt  917  389 L
6255 4549 mt 6255  389 L
gs 917 389 5339 4161 rc
36 w
/c8 { 0.000000 0.000000 1.000000 sr} bdef
c8
131 109 688 581 678 579 659 575 626 562 569 556 2905 1346 7 MP stroke
gr

36 w
c8
2869 1346 mt 2941 1346 L
2905 1310 mt 2905 1382 L
3438 1902 mt 3510 1902 L
3474 1866 mt 3474 1938 L
4064 2464 mt 4136 2464 L
4100 2428 mt 4100 2500 L
4723 3039 mt 4795 3039 L
4759 3003 mt 4759 3075 L
5401 3618 mt 5473 3618 L
5437 3582 mt 5437 3654 L
6089 4199 mt 6161 4199 L
6125 4163 mt 6125 4235 L
2880 1321 mt 2930 1371 L
2930 1321 mt 2880 1371 L
3449 1877 mt 3499 1927 L
3499 1877 mt 3449 1927 L
4075 2439 mt 4125 2489 L
4125 2439 mt 4075 2489 L
4734 3014 mt 4784 3064 L
4784 3014 mt 4734 3064 L
5412 3593 mt 5462 3643 L
5462 3593 mt 5412 3643 L
6100 4174 mt 6150 4224 L
6150 4174 mt 6100 4224 L
gs 917 389 5339 4161 rc
DA
/c9 { 0.000000 0.500000 0.000000 sr} bdef
c9
641 533 696 581 696 581 693 610 687 767 676 552 2167 655 7 MP stroke
gr

c9
DA
SO
2142  630 mt 2192  680 L
2192  630 mt 2142  680 L
2818 1182 mt 2868 1232 L
2868 1182 mt 2818 1232 L
3505 1949 mt 3555 1999 L
3555 1949 mt 3505 1999 L
4198 2559 mt 4248 2609 L
4248 2559 mt 4198 2609 L
4894 3140 mt 4944 3190 L
4944 3140 mt 4894 3190 L
5590 3721 mt 5640 3771 L
5640 3721 mt 5590 3771 L
DA
gs 917 389 5339 4161 rc
DD
/c10 { 1.000000 0.000000 0.000000 sr} bdef
c10
697 583 698 600 696 756 694 927 690 190 2158 626 6 MP stroke
gr

c10
DD
SO
  36   36 2158  626 FO
  36   36 2848  816 FO
  36   36 3542 1743 FO
  36   36 4238 2499 FO
  36   36 4936 3099 FO
  36   36 5633 3682 FO
DD
gs 917 389 5339 4161 rc
SO
/c11 { 0.000000 0.750000 0.750000 sr} bdef
c11
698 782 697 1043 698 722 696 -97 2143 644 5 MP stroke
gr

c11
SO
0 j
0 82 -71 -41 71 -41 2119 685 4 MP
DP
0 82 -71 -41 71 -41 2815 588 4 MP
DP
0 82 -71 -41 71 -41 3513 1310 4 MP
DP
0 82 -71 -41 71 -41 4210 2353 4 MP
DP
0 82 -71 -41 71 -41 4908 3135 4 MP
DP
gs 917 389 5339 4161 rc
gr

0 sg
%%IncludeResource: font Helvetica-Bold
/Helvetica-Bold /ISOLatin1Encoding 288 FMSR

2195 5118 mt 
(DOF per wavelength) s
%%IncludeResource: font Helvetica
/Helvetica /ISOLatin1Encoding 288 FMSR

 359 3932 mt  -90 rotate
(rel. H) s
90 rotate
%%IncludeResource: font Helvetica
/Helvetica /ISOLatin1Encoding 228 FMSR

 215 3262 mt  -90 rotate
(1) s
90 rotate
%%IncludeResource: font Helvetica
/Helvetica /ISOLatin1Encoding 288 FMSR

 359 3136 mt  -90 rotate
(-seminorm error) s
90 rotate
%%IncludeResource: font Helvetica-Bold
/Helvetica-Bold /ISOLatin1Encoding 192 FMSR

1890  223 mt 
(p=2, plane wave solution, unit square) s
%%IncludeResource: font Helvetica
/Helvetica /ISOLatin1Encoding 120 FMSR

 900 4592 mt 
( ) s
6239  431 mt 
( ) s
6 w
1 sg
0 1070 1101 0 0 -1070 976 4490 4 MP
PP
-1101 0 0 1070 1101 0 0 -1070 976 4490 5 MP stroke
4 w
DO
SO
6 w
0 sg
 976 4490 mt 2077 4490 L
 976 3420 mt 2077 3420 L
 976 4490 mt  976 3420 L
2077 4490 mt 2077 3420 L
 976 4490 mt 2077 4490 L
 976 4490 mt  976 3420 L
 976 4490 mt 2077 4490 L
 976 3420 mt 2077 3420 L
 976 4490 mt  976 3420 L
2077 4490 mt 2077 3420 L
%%IncludeResource: font Helvetica
/Helvetica /ISOLatin1Encoding 216 FMSR

1422 3642 mt 
(k=4) s
gs 976 3420 1102 1071 rc
36 w
c8
343 0 1044 3564 2 MP stroke
gs 1105 3454 221 221 rc
1179 3564 mt 1251 3564 L
1215 3528 mt 1215 3600 L
1190 3539 mt 1240 3589 L
1240 3539 mt 1190 3589 L
gr

gr

36 w
c8
0 sg
1422 3902 mt 
(k=40) s
gs 976 3420 1102 1071 rc
DA
c9
343 0 1044 3824 2 MP stroke
SO
gs 1105 3714 221 221 rc
1190 3799 mt 1240 3849 L
1240 3799 mt 1190 3849 L
gr

gr

c9
0 sg
1422 4163 mt 
(k=100) s
gs 976 3420 1102 1071 rc
DD
c10
343 0 1044 4085 2 MP stroke
SO
gs 1105 3975 221 221 rc
  36   36 1215 4085 FO
gr

gr

c10
0 sg
1422 4423 mt 
(k=400) s
gs 976 3420 1102 1071 rc
c11
343 0 1044 4345 2 MP stroke
gs 1105 4235 221 221 rc
0 82 -71 -41 71 -41 1191 4386 4 MP
DP
gr

6 w
gr

6 w
c11

end %%Color Dict

eplot
%%EndObject

epage
end

showpage

%%Trailer
%%EOF
