%!PS-Adobe-3.0 EPSF-3.0
%%Creator: MATLAB, The Mathworks, Inc. Version 7.5.0.338 (R2007b). Operating System: Linux 2.6.32-26-generic #48-Ubuntu SMP Wed Nov 24 09:00:03 UTC 2010 i686.
%%Title: ./foo3.eps
%%CreationDate: 12/01/2010  22:37:27
%%DocumentNeededFonts: Helvetica
%%+ Helvetica-Bold
%%DocumentProcessColors: Cyan Magenta Yellow Black
%%LanguageLevel: 2
%%Pages: 1
%%BoundingBox:    18   179   546   614
%%EndComments

%%BeginProlog
% MathWorks dictionary
/MathWorks 160 dict begin
% definition operators
/bdef {bind def} bind def
/ldef {load def} bind def
/xdef {exch def} bdef
/xstore {exch store} bdef
% operator abbreviations
/c  /clip ldef
/cc /concat ldef
/cp /closepath ldef
/gr /grestore ldef
/gs /gsave ldef
/mt /moveto ldef
/np /newpath ldef
/cm /currentmatrix ldef
/sm /setmatrix ldef
/rm /rmoveto ldef
/rl /rlineto ldef
/s {show newpath} bdef
/sc {setcmykcolor} bdef
/sr /setrgbcolor ldef
/sg /setgray ldef
/w /setlinewidth ldef
/j /setlinejoin ldef
/cap /setlinecap ldef
/rc {rectclip} bdef
/rf {rectfill} bdef
% page state control
/pgsv () def
/bpage {/pgsv save def} bdef
/epage {pgsv restore} bdef
/bplot /gsave ldef
/eplot {stroke grestore} bdef
% orientation switch
/portraitMode 0 def /landscapeMode 1 def /rotateMode 2 def
% coordinate system mappings
/dpi2point 0 def
% font control
/FontSize 0 def
/FMS {/FontSize xstore findfont [FontSize 0 0 FontSize neg 0 0]
  makefont setfont} bdef
/reencode {exch dup where {pop load} {pop StandardEncoding} ifelse
  exch dup 3 1 roll findfont dup length dict begin
  { 1 index /FID ne {def}{pop pop} ifelse } forall
  /Encoding exch def currentdict end definefont pop} bdef
/isroman {findfont /CharStrings get /Agrave known} bdef
/FMSR {3 1 roll 1 index dup isroman {reencode} {pop pop} ifelse
  exch FMS} bdef
/csm {1 dpi2point div -1 dpi2point div scale neg translate
 dup landscapeMode eq {pop -90 rotate}
  {rotateMode eq {90 rotate} if} ifelse} bdef
% line types: solid, dotted, dashed, dotdash
/SO { [] 0 setdash } bdef
/DO { [.5 dpi2point mul 4 dpi2point mul] 0 setdash } bdef
/DA { [6 dpi2point mul] 0 setdash } bdef
/DD { [.5 dpi2point mul 4 dpi2point mul 6 dpi2point mul 4
  dpi2point mul] 0 setdash } bdef
% macros for lines and objects
/L {lineto stroke} bdef
/MP {3 1 roll moveto 1 sub {rlineto} repeat} bdef
/AP {{rlineto} repeat} bdef
/PDlw -1 def
/W {/PDlw currentlinewidth def setlinewidth} def
/PP {closepath eofill} bdef
/DP {closepath stroke} bdef
/MR {4 -2 roll moveto dup  0 exch rlineto exch 0 rlineto
  neg 0 exch rlineto closepath} bdef
/FR {MR stroke} bdef
/PR {MR fill} bdef
/L1i {{currentfile picstr readhexstring pop} image} bdef
/tMatrix matrix def
/MakeOval {newpath tMatrix currentmatrix pop translate scale
0 0 1 0 360 arc tMatrix setmatrix} bdef
/FO {MakeOval stroke} bdef
/PO {MakeOval fill} bdef
/PD {currentlinewidth 2 div 0 360 arc fill
   PDlw -1 eq not {PDlw w /PDlw -1 def} if} def
/FA {newpath tMatrix currentmatrix pop translate scale
  0 0 1 5 -2 roll arc tMatrix setmatrix stroke} bdef
/PA {newpath tMatrix currentmatrix pop	translate 0 0 moveto scale
  0 0 1 5 -2 roll arc closepath tMatrix setmatrix fill} bdef
/FAn {newpath tMatrix currentmatrix pop translate scale
  0 0 1 5 -2 roll arcn tMatrix setmatrix stroke} bdef
/PAn {newpath tMatrix currentmatrix pop translate 0 0 moveto scale
  0 0 1 5 -2 roll arcn closepath tMatrix setmatrix fill} bdef
/vradius 0 def /hradius 0 def /lry 0 def
/lrx 0 def /uly 0 def /ulx 0 def /rad 0 def
/MRR {/vradius xdef /hradius xdef /lry xdef /lrx xdef /uly xdef
  /ulx xdef newpath tMatrix currentmatrix pop ulx hradius add uly
  vradius add translate hradius vradius scale 0 0 1 180 270 arc 
  tMatrix setmatrix lrx hradius sub uly vradius add translate
  hradius vradius scale 0 0 1 270 360 arc tMatrix setmatrix
  lrx hradius sub lry vradius sub translate hradius vradius scale
  0 0 1 0 90 arc tMatrix setmatrix ulx hradius add lry vradius sub
  translate hradius vradius scale 0 0 1 90 180 arc tMatrix setmatrix
  closepath} bdef
/FRR {MRR stroke } bdef
/PRR {MRR fill } bdef
/MlrRR {/lry xdef /lrx xdef /uly xdef /ulx xdef /rad lry uly sub 2 div def
  newpath tMatrix currentmatrix pop ulx rad add uly rad add translate
  rad rad scale 0 0 1 90 270 arc tMatrix setmatrix lrx rad sub lry rad
  sub translate rad rad scale 0 0 1 270 90 arc tMatrix setmatrix
  closepath} bdef
/FlrRR {MlrRR stroke } bdef
/PlrRR {MlrRR fill } bdef
/MtbRR {/lry xdef /lrx xdef /uly xdef /ulx xdef /rad lrx ulx sub 2 div def
  newpath tMatrix currentmatrix pop ulx rad add uly rad add translate
  rad rad scale 0 0 1 180 360 arc tMatrix setmatrix lrx rad sub lry rad
  sub translate rad rad scale 0 0 1 0 180 arc tMatrix setmatrix
  closepath} bdef
/FtbRR {MtbRR stroke } bdef
/PtbRR {MtbRR fill } bdef
/stri 6 array def /dtri 6 array def
/smat 6 array def /dmat 6 array def
/tmat1 6 array def /tmat2 6 array def /dif 3 array def
/asub {/ind2 exch def /ind1 exch def dup dup
  ind1 get exch ind2 get sub exch } bdef
/tri_to_matrix {
  2 0 asub 3 1 asub 4 0 asub 5 1 asub
  dup 0 get exch 1 get 7 -1 roll astore } bdef
/compute_transform {
  dmat dtri tri_to_matrix tmat1 invertmatrix 
  smat stri tri_to_matrix tmat2 concatmatrix } bdef
/ds {stri astore pop} bdef
/dt {dtri astore pop} bdef
/db {2 copy /cols xdef /rows xdef mul dup 3 mul string
  currentfile 
  3 index 0 eq {/ASCIIHexDecode filter}
  {/ASCII85Decode filter 3 index 2 eq {/RunLengthDecode filter} if }
  ifelse exch readstring pop
  dup 0 3 index getinterval /rbmap xdef
  dup 2 index dup getinterval /gbmap xdef
  1 index dup 2 mul exch getinterval /bbmap xdef pop pop}bdef
/it {gs np dtri aload pop moveto lineto lineto cp c
  cols rows 8 compute_transform 
  rbmap gbmap bbmap true 3 colorimage gr}bdef
/il {newpath moveto lineto stroke}bdef
currentdict end def
%%EndProlog

%%BeginSetup
MathWorks begin

0 cap

end
%%EndSetup

%%Page: 1 1
%%BeginPageSetup
%%PageBoundingBox:    18   179   546   614
MathWorks begin
bpage
%%EndPageSetup

%%BeginObject: obj1
bplot

/dpi2point 12 def
portraitMode 0216 7344 csm

    0   -34  6345  5219 rc
85 dict begin %Colortable dictionary
/c0 { 0.000000 0.000000 0.000000 sr} bdef
/c1 { 1.000000 1.000000 1.000000 sr} bdef
/c2 { 0.900000 0.000000 0.000000 sr} bdef
/c3 { 0.000000 0.820000 0.000000 sr} bdef
/c4 { 0.000000 0.000000 0.800000 sr} bdef
/c5 { 0.910000 0.820000 0.320000 sr} bdef
/c6 { 1.000000 0.260000 0.820000 sr} bdef
/c7 { 0.000000 0.820000 0.820000 sr} bdef
c0
1 j
1 sg
   0    0 6913 5186 rf
6 w
0 4160 5338 0 0 -4160 917 4549 4 MP
PP
-5338 0 0 4160 5338 0 0 -4160 917 4549 5 MP stroke
4 w
DO
SO
6 w
0 sg
 917 4549 mt 6255 4549 L
 917  389 mt 6255  389 L
 917 4549 mt  917  389 L
6255 4549 mt 6255  389 L
 917 4549 mt 6255 4549 L
 917 4549 mt  917  389 L
 917 4549 mt  917 4522 L
 917  389 mt  917  415 L
 917 4549 mt  917 4495 L
 917  389 mt  917  442 L
%%IncludeResource: font Helvetica
/Helvetica /ISOLatin1Encoding 216 FMSR

 757 4851 mt 
(10) s
%%IncludeResource: font Helvetica
/Helvetica /ISOLatin1Encoding 144 FMSR

 997 4717 mt 
(0) s
1615 4549 mt 1615 4522 L
1615  389 mt 1615  415 L
2023 4549 mt 2023 4522 L
2023  389 mt 2023  415 L
2313 4549 mt 2313 4522 L
2313  389 mt 2313  415 L
2538 4549 mt 2538 4522 L
2538  389 mt 2538  415 L
2722 4549 mt 2722 4522 L
2722  389 mt 2722  415 L
2877 4549 mt 2877 4522 L
2877  389 mt 2877  415 L
3012 4549 mt 3012 4522 L
3012  389 mt 3012  415 L
3130 4549 mt 3130 4522 L
3130  389 mt 3130  415 L
3236 4549 mt 3236 4522 L
3236  389 mt 3236  415 L
3236 4549 mt 3236 4495 L
3236  389 mt 3236  442 L
%%IncludeResource: font Helvetica
/Helvetica /ISOLatin1Encoding 216 FMSR

3076 4851 mt 
(10) s
%%IncludeResource: font Helvetica
/Helvetica /ISOLatin1Encoding 144 FMSR

3316 4717 mt 
(1) s
3935 4549 mt 3935 4522 L
3935  389 mt 3935  415 L
4343 4549 mt 4343 4522 L
4343  389 mt 4343  415 L
4633 4549 mt 4633 4522 L
4633  389 mt 4633  415 L
4858 4549 mt 4858 4522 L
4858  389 mt 4858  415 L
5042 4549 mt 5042 4522 L
5042  389 mt 5042  415 L
5197 4549 mt 5197 4522 L
5197  389 mt 5197  415 L
5331 4549 mt 5331 4522 L
5331  389 mt 5331  415 L
5450 4549 mt 5450 4522 L
5450  389 mt 5450  415 L
5556 4549 mt 5556 4522 L
5556  389 mt 5556  415 L
5556 4549 mt 5556 4495 L
5556  389 mt 5556  442 L
%%IncludeResource: font Helvetica
/Helvetica /ISOLatin1Encoding 216 FMSR

5396 4851 mt 
(10) s
%%IncludeResource: font Helvetica
/Helvetica /ISOLatin1Encoding 144 FMSR

5636 4717 mt 
(2) s
6255 4549 mt 6255 4522 L
6255  389 mt 6255  415 L
 917 4549 mt  943 4549 L
6255 4549 mt 6228 4549 L
 917 4549 mt  970 4549 L
6255 4549 mt 6201 4549 L
%%IncludeResource: font Helvetica
/Helvetica /ISOLatin1Encoding 216 FMSR

 478 4629 mt 
(10) s
%%IncludeResource: font Helvetica
/Helvetica /ISOLatin1Encoding 144 FMSR

 718 4495 mt 
(-5) s
 917 4312 mt  943 4312 L
6255 4312 mt 6228 4312 L
 917 4174 mt  943 4174 L
6255 4174 mt 6228 4174 L
 917 4076 mt  943 4076 L
6255 4076 mt 6228 4076 L
 917 4000 mt  943 4000 L
6255 4000 mt 6228 4000 L
 917 3938 mt  943 3938 L
6255 3938 mt 6228 3938 L
 917 3885 mt  943 3885 L
6255 3885 mt 6228 3885 L
 917 3840 mt  943 3840 L
6255 3840 mt 6228 3840 L
 917 3800 mt  943 3800 L
6255 3800 mt 6228 3800 L
 917 3764 mt  943 3764 L
6255 3764 mt 6228 3764 L
 917 3764 mt  970 3764 L
6255 3764 mt 6201 3764 L
%%IncludeResource: font Helvetica
/Helvetica /ISOLatin1Encoding 216 FMSR

 478 3844 mt 
(10) s
%%IncludeResource: font Helvetica
/Helvetica /ISOLatin1Encoding 144 FMSR

 718 3710 mt 
(-4) s
 917 3528 mt  943 3528 L
6255 3528 mt 6228 3528 L
 917 3389 mt  943 3389 L
6255 3389 mt 6228 3389 L
 917 3291 mt  943 3291 L
6255 3291 mt 6228 3291 L
 917 3215 mt  943 3215 L
6255 3215 mt 6228 3215 L
 917 3153 mt  943 3153 L
6255 3153 mt 6228 3153 L
 917 3101 mt  943 3101 L
6255 3101 mt 6228 3101 L
 917 3055 mt  943 3055 L
6255 3055 mt 6228 3055 L
 917 3015 mt  943 3015 L
6255 3015 mt 6228 3015 L
 917 2979 mt  943 2979 L
6255 2979 mt 6228 2979 L
 917 2979 mt  970 2979 L
6255 2979 mt 6201 2979 L
%%IncludeResource: font Helvetica
/Helvetica /ISOLatin1Encoding 216 FMSR

 478 3059 mt 
(10) s
%%IncludeResource: font Helvetica
/Helvetica /ISOLatin1Encoding 144 FMSR

 718 2925 mt 
(-3) s
 917 2743 mt  943 2743 L
6255 2743 mt 6228 2743 L
 917 2605 mt  943 2605 L
6255 2605 mt 6228 2605 L
 917 2507 mt  943 2507 L
6255 2507 mt 6228 2507 L
 917 2430 mt  943 2430 L
6255 2430 mt 6228 2430 L
 917 2368 mt  943 2368 L
6255 2368 mt 6228 2368 L
 917 2316 mt  943 2316 L
6255 2316 mt 6228 2316 L
 917 2270 mt  943 2270 L
6255 2270 mt 6228 2270 L
 917 2230 mt  943 2230 L
6255 2230 mt 6228 2230 L
 917 2194 mt  943 2194 L
6255 2194 mt 6228 2194 L
 917 2194 mt  970 2194 L
6255 2194 mt 6201 2194 L
%%IncludeResource: font Helvetica
/Helvetica /ISOLatin1Encoding 216 FMSR

 478 2274 mt 
(10) s
%%IncludeResource: font Helvetica
/Helvetica /ISOLatin1Encoding 144 FMSR

 718 2140 mt 
(-2) s
 917 1958 mt  943 1958 L
6255 1958 mt 6228 1958 L
 917 1820 mt  943 1820 L
6255 1820 mt 6228 1820 L
 917 1722 mt  943 1722 L
6255 1722 mt 6228 1722 L
 917 1646 mt  943 1646 L
6255 1646 mt 6228 1646 L
 917 1584 mt  943 1584 L
6255 1584 mt 6228 1584 L
 917 1531 mt  943 1531 L
6255 1531 mt 6228 1531 L
 917 1486 mt  943 1486 L
6255 1486 mt 6228 1486 L
 917 1445 mt  943 1445 L
6255 1445 mt 6228 1445 L
 917 1409 mt  943 1409 L
6255 1409 mt 6228 1409 L
 917 1409 mt  970 1409 L
6255 1409 mt 6201 1409 L
%%IncludeResource: font Helvetica
/Helvetica /ISOLatin1Encoding 216 FMSR

 478 1489 mt 
(10) s
%%IncludeResource: font Helvetica
/Helvetica /ISOLatin1Encoding 144 FMSR

 718 1355 mt 
(-1) s
 917 1173 mt  943 1173 L
6255 1173 mt 6228 1173 L
 917 1035 mt  943 1035 L
6255 1035 mt 6228 1035 L
 917  937 mt  943  937 L
6255  937 mt 6228  937 L
 917  861 mt  943  861 L
6255  861 mt 6228  861 L
 917  799 mt  943  799 L
6255  799 mt 6228  799 L
 917  746 mt  943  746 L
6255  746 mt 6228  746 L
 917  701 mt  943  701 L
6255  701 mt 6228  701 L
 917  661 mt  943  661 L
6255  661 mt 6228  661 L
 917  625 mt  943  625 L
6255  625 mt 6228  625 L
 917  625 mt  970  625 L
6255  625 mt 6201  625 L
%%IncludeResource: font Helvetica
/Helvetica /ISOLatin1Encoding 216 FMSR

 478  705 mt 
(10) s
%%IncludeResource: font Helvetica
/Helvetica /ISOLatin1Encoding 144 FMSR

 718  571 mt 
(0) s
 917  389 mt  943  389 L
6255  389 mt 6228  389 L
 917 4549 mt 6255 4549 L
 917  389 mt 6255  389 L
 917 4549 mt  917  389 L
6255 4549 mt 6255  389 L
gs 917 389 5339 4161 rc
36 w
/c8 { 0.000000 0.000000 1.000000 sr} bdef
c8
61 63 685 709 671 709 648 705 605 691 3230 1673 6 MP stroke
gr

36 w
c8
3194 1673 mt 3266 1673 L
3230 1637 mt 3230 1709 L
3799 2364 mt 3871 2364 L
3835 2328 mt 3835 2400 L
4447 3069 mt 4519 3069 L
4483 3033 mt 4483 3105 L
5118 3778 mt 5190 3778 L
5154 3742 mt 5154 3814 L
5803 4487 mt 5875 4487 L
5839 4451 mt 5839 4523 L
3205 1648 mt 3255 1698 L
3255 1648 mt 3205 1698 L
3810 2339 mt 3860 2389 L
3860 2339 mt 3810 2389 L
4458 3044 mt 4508 3094 L
4508 3044 mt 4458 3094 L
5129 3753 mt 5179 3803 L
5179 3753 mt 5129 3803 L
5814 4462 mt 5864 4512 L
5864 4462 mt 5814 4512 L
gs 917 389 5339 4161 rc
DA
/c9 { 0.000000 0.500000 0.000000 sr} bdef
c9
620 630 696 709 695 708 691 714 683 650 2561 1139 6 MP stroke
gr

c9
DA
SO
2536 1114 mt 2586 1164 L
2586 1114 mt 2536 1164 L
3219 1764 mt 3269 1814 L
3269 1764 mt 3219 1814 L
3910 2478 mt 3960 2528 L
3960 2478 mt 3910 2528 L
4605 3186 mt 4655 3236 L
4655 3186 mt 4605 3236 L
5301 3895 mt 5351 3945 L
5351 3895 mt 5301 3945 L
DA
gs 917 389 5339 4161 rc
DD
/c10 { 1.000000 0.000000 0.000000 sr} bdef
c10
698 709 697 711 695 818 693 608 2561 1003 5 MP stroke
gr

c10
DD
SO
  36   36 2561 1003 FO
  36   36 3254 1611 FO
  36   36 3949 2429 FO
  36   36 4646 3140 FO
  36   36 5344 3849 FO
DD
gs 917 389 5339 4161 rc
SO
/c11 { 0.000000 0.750000 0.750000 sr} bdef
c11
698 754 698 1131 697 677 2550 594 4 MP stroke
gr

c11
SO
0 j
0 82 -71 -41 71 -41 2526 635 4 MP
DP
0 82 -71 -41 71 -41 3223 1312 4 MP
DP
0 82 -71 -41 71 -41 3921 2443 4 MP
DP
0 82 -71 -41 71 -41 4619 3197 4 MP
DP
gs 917 389 5339 4161 rc
gr

0 sg
%%IncludeResource: font Helvetica-Bold
/Helvetica-Bold /ISOLatin1Encoding 288 FMSR

2195 5118 mt 
(DOF per wavelength) s
%%IncludeResource: font Helvetica
/Helvetica /ISOLatin1Encoding 288 FMSR

 359 3932 mt  -90 rotate
(rel. H) s
90 rotate
%%IncludeResource: font Helvetica
/Helvetica /ISOLatin1Encoding 228 FMSR

 215 3262 mt  -90 rotate
(1) s
90 rotate
%%IncludeResource: font Helvetica
/Helvetica /ISOLatin1Encoding 288 FMSR

 359 3136 mt  -90 rotate
(-seminorm error) s
90 rotate
%%IncludeResource: font Helvetica-Bold
/Helvetica-Bold /ISOLatin1Encoding 192 FMSR

1890  223 mt 
(p=3, plane wave solution, unit square) s
%%IncludeResource: font Helvetica
/Helvetica /ISOLatin1Encoding 120 FMSR

 900 4592 mt 
( ) s
6239  431 mt 
( ) s
6 w
1 sg
0 1070 1101 0 0 -1070 976 4490 4 MP
PP
-1101 0 0 1070 1101 0 0 -1070 976 4490 5 MP stroke
4 w
DO
SO
6 w
0 sg
 976 4490 mt 2077 4490 L
 976 3420 mt 2077 3420 L
 976 4490 mt  976 3420 L
2077 4490 mt 2077 3420 L
 976 4490 mt 2077 4490 L
 976 4490 mt  976 3420 L
 976 4490 mt 2077 4490 L
 976 3420 mt 2077 3420 L
 976 4490 mt  976 3420 L
2077 4490 mt 2077 3420 L
%%IncludeResource: font Helvetica
/Helvetica /ISOLatin1Encoding 216 FMSR

1422 3642 mt 
(k=4) s
gs 976 3420 1102 1071 rc
36 w
c8
343 0 1044 3564 2 MP stroke
gs 1105 3454 221 221 rc
1179 3564 mt 1251 3564 L
1215 3528 mt 1215 3600 L
1190 3539 mt 1240 3589 L
1240 3539 mt 1190 3589 L
gr

gr

36 w
c8
0 sg
1422 3902 mt 
(k=40) s
gs 976 3420 1102 1071 rc
DA
c9
343 0 1044 3824 2 MP stroke
SO
gs 1105 3714 221 221 rc
1190 3799 mt 1240 3849 L
1240 3799 mt 1190 3849 L
gr

gr

c9
0 sg
1422 4163 mt 
(k=100) s
gs 976 3420 1102 1071 rc
DD
c10
343 0 1044 4085 2 MP stroke
SO
gs 1105 3975 221 221 rc
  36   36 1215 4085 FO
gr

gr

c10
0 sg
1422 4423 mt 
(k=400) s
gs 976 3420 1102 1071 rc
c11
343 0 1044 4345 2 MP stroke
gs 1105 4235 221 221 rc
0 82 -71 -41 71 -41 1191 4386 4 MP
DP
gr

6 w
gr

6 w
c11

end %%Color Dict

eplot
%%EndObject

epage
end

showpage

%%Trailer
%%EOF
