%!PS-Adobe-3.0 EPSF-3.0
%%Creator: MATLAB, The Mathworks, Inc. Version 7.5.0.338 (R2007b). Operating System: Linux 2.6.32-26-generic #48-Ubuntu SMP Wed Nov 24 09:00:03 UTC 2010 i686.
%%Title: ./foo1.eps
%%CreationDate: 12/01/2010  22:37:52
%%DocumentNeededFonts: Helvetica
%%+ Helvetica-Bold
%%DocumentProcessColors: Cyan Magenta Yellow Black
%%LanguageLevel: 2
%%Pages: 1
%%BoundingBox:    18   179   546   614
%%EndComments

%%BeginProlog
% MathWorks dictionary
/MathWorks 160 dict begin
% definition operators
/bdef {bind def} bind def
/ldef {load def} bind def
/xdef {exch def} bdef
/xstore {exch store} bdef
% operator abbreviations
/c  /clip ldef
/cc /concat ldef
/cp /closepath ldef
/gr /grestore ldef
/gs /gsave ldef
/mt /moveto ldef
/np /newpath ldef
/cm /currentmatrix ldef
/sm /setmatrix ldef
/rm /rmoveto ldef
/rl /rlineto ldef
/s {show newpath} bdef
/sc {setcmykcolor} bdef
/sr /setrgbcolor ldef
/sg /setgray ldef
/w /setlinewidth ldef
/j /setlinejoin ldef
/cap /setlinecap ldef
/rc {rectclip} bdef
/rf {rectfill} bdef
% page state control
/pgsv () def
/bpage {/pgsv save def} bdef
/epage {pgsv restore} bdef
/bplot /gsave ldef
/eplot {stroke grestore} bdef
% orientation switch
/portraitMode 0 def /landscapeMode 1 def /rotateMode 2 def
% coordinate system mappings
/dpi2point 0 def
% font control
/FontSize 0 def
/FMS {/FontSize xstore findfont [FontSize 0 0 FontSize neg 0 0]
  makefont setfont} bdef
/reencode {exch dup where {pop load} {pop StandardEncoding} ifelse
  exch dup 3 1 roll findfont dup length dict begin
  { 1 index /FID ne {def}{pop pop} ifelse } forall
  /Encoding exch def currentdict end definefont pop} bdef
/isroman {findfont /CharStrings get /Agrave known} bdef
/FMSR {3 1 roll 1 index dup isroman {reencode} {pop pop} ifelse
  exch FMS} bdef
/csm {1 dpi2point div -1 dpi2point div scale neg translate
 dup landscapeMode eq {pop -90 rotate}
  {rotateMode eq {90 rotate} if} ifelse} bdef
% line types: solid, dotted, dashed, dotdash
/SO { [] 0 setdash } bdef
/DO { [.5 dpi2point mul 4 dpi2point mul] 0 setdash } bdef
/DA { [6 dpi2point mul] 0 setdash } bdef
/DD { [.5 dpi2point mul 4 dpi2point mul 6 dpi2point mul 4
  dpi2point mul] 0 setdash } bdef
% macros for lines and objects
/L {lineto stroke} bdef
/MP {3 1 roll moveto 1 sub {rlineto} repeat} bdef
/AP {{rlineto} repeat} bdef
/PDlw -1 def
/W {/PDlw currentlinewidth def setlinewidth} def
/PP {closepath eofill} bdef
/DP {closepath stroke} bdef
/MR {4 -2 roll moveto dup  0 exch rlineto exch 0 rlineto
  neg 0 exch rlineto closepath} bdef
/FR {MR stroke} bdef
/PR {MR fill} bdef
/L1i {{currentfile picstr readhexstring pop} image} bdef
/tMatrix matrix def
/MakeOval {newpath tMatrix currentmatrix pop translate scale
0 0 1 0 360 arc tMatrix setmatrix} bdef
/FO {MakeOval stroke} bdef
/PO {MakeOval fill} bdef
/PD {currentlinewidth 2 div 0 360 arc fill
   PDlw -1 eq not {PDlw w /PDlw -1 def} if} def
/FA {newpath tMatrix currentmatrix pop translate scale
  0 0 1 5 -2 roll arc tMatrix setmatrix stroke} bdef
/PA {newpath tMatrix currentmatrix pop	translate 0 0 moveto scale
  0 0 1 5 -2 roll arc closepath tMatrix setmatrix fill} bdef
/FAn {newpath tMatrix currentmatrix pop translate scale
  0 0 1 5 -2 roll arcn tMatrix setmatrix stroke} bdef
/PAn {newpath tMatrix currentmatrix pop translate 0 0 moveto scale
  0 0 1 5 -2 roll arcn closepath tMatrix setmatrix fill} bdef
/vradius 0 def /hradius 0 def /lry 0 def
/lrx 0 def /uly 0 def /ulx 0 def /rad 0 def
/MRR {/vradius xdef /hradius xdef /lry xdef /lrx xdef /uly xdef
  /ulx xdef newpath tMatrix currentmatrix pop ulx hradius add uly
  vradius add translate hradius vradius scale 0 0 1 180 270 arc 
  tMatrix setmatrix lrx hradius sub uly vradius add translate
  hradius vradius scale 0 0 1 270 360 arc tMatrix setmatrix
  lrx hradius sub lry vradius sub translate hradius vradius scale
  0 0 1 0 90 arc tMatrix setmatrix ulx hradius add lry vradius sub
  translate hradius vradius scale 0 0 1 90 180 arc tMatrix setmatrix
  closepath} bdef
/FRR {MRR stroke } bdef
/PRR {MRR fill } bdef
/MlrRR {/lry xdef /lrx xdef /uly xdef /ulx xdef /rad lry uly sub 2 div def
  newpath tMatrix currentmatrix pop ulx rad add uly rad add translate
  rad rad scale 0 0 1 90 270 arc tMatrix setmatrix lrx rad sub lry rad
  sub translate rad rad scale 0 0 1 270 90 arc tMatrix setmatrix
  closepath} bdef
/FlrRR {MlrRR stroke } bdef
/PlrRR {MlrRR fill } bdef
/MtbRR {/lry xdef /lrx xdef /uly xdef /ulx xdef /rad lrx ulx sub 2 div def
  newpath tMatrix currentmatrix pop ulx rad add uly rad add translate
  rad rad scale 0 0 1 180 360 arc tMatrix setmatrix lrx rad sub lry rad
  sub translate rad rad scale 0 0 1 0 180 arc tMatrix setmatrix
  closepath} bdef
/FtbRR {MtbRR stroke } bdef
/PtbRR {MtbRR fill } bdef
/stri 6 array def /dtri 6 array def
/smat 6 array def /dmat 6 array def
/tmat1 6 array def /tmat2 6 array def /dif 3 array def
/asub {/ind2 exch def /ind1 exch def dup dup
  ind1 get exch ind2 get sub exch } bdef
/tri_to_matrix {
  2 0 asub 3 1 asub 4 0 asub 5 1 asub
  dup 0 get exch 1 get 7 -1 roll astore } bdef
/compute_transform {
  dmat dtri tri_to_matrix tmat1 invertmatrix 
  smat stri tri_to_matrix tmat2 concatmatrix } bdef
/ds {stri astore pop} bdef
/dt {dtri astore pop} bdef
/db {2 copy /cols xdef /rows xdef mul dup 3 mul string
  currentfile 
  3 index 0 eq {/ASCIIHexDecode filter}
  {/ASCII85Decode filter 3 index 2 eq {/RunLengthDecode filter} if }
  ifelse exch readstring pop
  dup 0 3 index getinterval /rbmap xdef
  dup 2 index dup getinterval /gbmap xdef
  1 index dup 2 mul exch getinterval /bbmap xdef pop pop}bdef
/it {gs np dtri aload pop moveto lineto lineto cp c
  cols rows 8 compute_transform 
  rbmap gbmap bbmap true 3 colorimage gr}bdef
/il {newpath moveto lineto stroke}bdef
currentdict end def
%%EndProlog

%%BeginSetup
MathWorks begin

0 cap

end
%%EndSetup

%%Page: 1 1
%%BeginPageSetup
%%PageBoundingBox:    18   179   546   614
MathWorks begin
bpage
%%EndPageSetup

%%BeginObject: obj1
bplot

/dpi2point 12 def
portraitMode 0216 7344 csm

    0   -35  6345  5220 rc
85 dict begin %Colortable dictionary
/c0 { 0.000000 0.000000 0.000000 sr} bdef
/c1 { 1.000000 1.000000 1.000000 sr} bdef
/c2 { 0.900000 0.000000 0.000000 sr} bdef
/c3 { 0.000000 0.820000 0.000000 sr} bdef
/c4 { 0.000000 0.000000 0.800000 sr} bdef
/c5 { 0.910000 0.820000 0.320000 sr} bdef
/c6 { 1.000000 0.260000 0.820000 sr} bdef
/c7 { 0.000000 0.820000 0.820000 sr} bdef
c0
1 j
1 sg
   0    0 6913 5186 rf
6 w
0 4160 5338 0 0 -4160 917 4549 4 MP
PP
-5338 0 0 4160 5338 0 0 -4160 917 4549 5 MP stroke
4 w
DO
SO
6 w
0 sg
 917 4549 mt 6255 4549 L
 917  389 mt 6255  389 L
 917 4549 mt  917  389 L
6255 4549 mt 6255  389 L
 917 4549 mt 6255 4549 L
 917 4549 mt  917  389 L
 917 4549 mt  917 4522 L
 917  389 mt  917  415 L
 917 4549 mt  917 4495 L
 917  389 mt  917  442 L
%%IncludeResource: font Helvetica
/Helvetica /ISOLatin1Encoding 216 FMSR

 757 4851 mt 
(10) s
%%IncludeResource: font Helvetica
/Helvetica /ISOLatin1Encoding 144 FMSR

 997 4717 mt 
(0) s
1615 4549 mt 1615 4522 L
1615  389 mt 1615  415 L
2023 4549 mt 2023 4522 L
2023  389 mt 2023  415 L
2313 4549 mt 2313 4522 L
2313  389 mt 2313  415 L
2538 4549 mt 2538 4522 L
2538  389 mt 2538  415 L
2722 4549 mt 2722 4522 L
2722  389 mt 2722  415 L
2877 4549 mt 2877 4522 L
2877  389 mt 2877  415 L
3012 4549 mt 3012 4522 L
3012  389 mt 3012  415 L
3130 4549 mt 3130 4522 L
3130  389 mt 3130  415 L
3236 4549 mt 3236 4522 L
3236  389 mt 3236  415 L
3236 4549 mt 3236 4495 L
3236  389 mt 3236  442 L
%%IncludeResource: font Helvetica
/Helvetica /ISOLatin1Encoding 216 FMSR

3076 4851 mt 
(10) s
%%IncludeResource: font Helvetica
/Helvetica /ISOLatin1Encoding 144 FMSR

3316 4717 mt 
(1) s
3935 4549 mt 3935 4522 L
3935  389 mt 3935  415 L
4343 4549 mt 4343 4522 L
4343  389 mt 4343  415 L
4633 4549 mt 4633 4522 L
4633  389 mt 4633  415 L
4858 4549 mt 4858 4522 L
4858  389 mt 4858  415 L
5042 4549 mt 5042 4522 L
5042  389 mt 5042  415 L
5197 4549 mt 5197 4522 L
5197  389 mt 5197  415 L
5331 4549 mt 5331 4522 L
5331  389 mt 5331  415 L
5450 4549 mt 5450 4522 L
5450  389 mt 5450  415 L
5556 4549 mt 5556 4522 L
5556  389 mt 5556  415 L
5556 4549 mt 5556 4495 L
5556  389 mt 5556  442 L
%%IncludeResource: font Helvetica
/Helvetica /ISOLatin1Encoding 216 FMSR

5396 4851 mt 
(10) s
%%IncludeResource: font Helvetica
/Helvetica /ISOLatin1Encoding 144 FMSR

5636 4717 mt 
(2) s
6255 4549 mt 6255 4522 L
6255  389 mt 6255  415 L
 917 4549 mt  943 4549 L
6255 4549 mt 6228 4549 L
 917 4549 mt  970 4549 L
6255 4549 mt 6201 4549 L
%%IncludeResource: font Helvetica
/Helvetica /ISOLatin1Encoding 216 FMSR

 478 4629 mt 
(10) s
%%IncludeResource: font Helvetica
/Helvetica /ISOLatin1Encoding 144 FMSR

 718 4495 mt 
(-2) s
 917 4004 mt  943 4004 L
6255 4004 mt 6228 4004 L
 917 3686 mt  943 3686 L
6255 3686 mt 6228 3686 L
 917 3460 mt  943 3460 L
6255 3460 mt 6228 3460 L
 917 3285 mt  943 3285 L
6255 3285 mt 6228 3285 L
 917 3142 mt  943 3142 L
6255 3142 mt 6228 3142 L
 917 3021 mt  943 3021 L
6255 3021 mt 6228 3021 L
 917 2916 mt  943 2916 L
6255 2916 mt 6228 2916 L
 917 2823 mt  943 2823 L
6255 2823 mt 6228 2823 L
 917 2741 mt  943 2741 L
6255 2741 mt 6228 2741 L
 917 2741 mt  970 2741 L
6255 2741 mt 6201 2741 L
%%IncludeResource: font Helvetica
/Helvetica /ISOLatin1Encoding 216 FMSR

 478 2821 mt 
(10) s
%%IncludeResource: font Helvetica
/Helvetica /ISOLatin1Encoding 144 FMSR

 718 2687 mt 
(-1) s
 917 2196 mt  943 2196 L
6255 2196 mt 6228 2196 L
 917 1878 mt  943 1878 L
6255 1878 mt 6228 1878 L
 917 1652 mt  943 1652 L
6255 1652 mt 6228 1652 L
 917 1477 mt  943 1477 L
6255 1477 mt 6228 1477 L
 917 1334 mt  943 1334 L
6255 1334 mt 6228 1334 L
 917 1213 mt  943 1213 L
6255 1213 mt 6228 1213 L
 917 1108 mt  943 1108 L
6255 1108 mt 6228 1108 L
 917 1015 mt  943 1015 L
6255 1015 mt 6228 1015 L
 917  933 mt  943  933 L
6255  933 mt 6228  933 L
 917  933 mt  970  933 L
6255  933 mt 6201  933 L
%%IncludeResource: font Helvetica
/Helvetica /ISOLatin1Encoding 216 FMSR

 478 1013 mt 
(10) s
%%IncludeResource: font Helvetica
/Helvetica /ISOLatin1Encoding 144 FMSR

 718  879 mt 
(0) s
 917  389 mt  943  389 L
6255  389 mt 6228  389 L
 917 4549 mt 6255 4549 L
 917  389 mt 6255  389 L
 917 4549 mt  917  389 L
6255 4549 mt 6255  389 L
gs 917 388 5339 4162 rc
36 w
/c8 { 0.000000 0.000000 1.000000 sr} bdef
c8
102 80 688 545 678 545 659 545 626 546 569 535 486 473 2419 1281 8 MP stroke
gr

36 w
c8
2383 1281 mt 2455 1281 L
2419 1245 mt 2419 1317 L
2869 1754 mt 2941 1754 L
2905 1718 mt 2905 1790 L
3438 2289 mt 3510 2289 L
3474 2253 mt 3474 2325 L
4064 2835 mt 4136 2835 L
4100 2799 mt 4100 2871 L
4723 3380 mt 4795 3380 L
4759 3344 mt 4759 3416 L
5401 3925 mt 5473 3925 L
5437 3889 mt 5437 3961 L
6089 4470 mt 6161 4470 L
6125 4434 mt 6125 4506 L
2394 1256 mt 2444 1306 L
2444 1256 mt 2394 1306 L
2880 1729 mt 2930 1779 L
2930 1729 mt 2880 1779 L
3449 2264 mt 3499 2314 L
3499 2264 mt 3449 2314 L
4075 2810 mt 4125 2860 L
4125 2810 mt 4075 2860 L
4734 3355 mt 4784 3405 L
4784 3355 mt 4734 3405 L
5412 3900 mt 5462 3950 L
5462 3900 mt 5412 3950 L
6100 4445 mt 6150 4495 L
6150 4445 mt 6100 4495 L
gs 917 388 5339 4162 rc
DA
/c9 { 0.000000 0.500000 0.000000 sr} bdef
c9
636 510 697 595 696 696 693 843 687 835 676 318 656 -60 1511 813 8 MP stroke
gr

c9
DA
SO
1486  788 mt 1536  838 L
1536  788 mt 1486  838 L
2142  728 mt 2192  778 L
2192  728 mt 2142  778 L
2818 1046 mt 2868 1096 L
2868 1046 mt 2818 1096 L
3505 1881 mt 3555 1931 L
3555 1881 mt 3505 1931 L
4198 2724 mt 4248 2774 L
4248 2724 mt 4198 2774 L
4894 3420 mt 4944 3470 L
4944 3420 mt 4894 3470 L
5591 4015 mt 5641 4065 L
5641 4015 mt 5591 4065 L
DA
gs 917 388 5339 4162 rc
DD
/c10 { 1.000000 0.000000 0.000000 sr} bdef
c10
697 764 698 928 696 964 694 531 690 1 681 5 1477 693 7 MP stroke
gr

c10
DD
SO
  36   36 1477  693 FO
  36   36 2158  698 FO
  36   36 2848  699 FO
  36   36 3542 1230 FO
  36   36 4238 2194 FO
  36   36 4936 3122 FO
  36   36 5633 3886 FO
DD
gs 917 388 5339 4162 rc
SO
/c11 { 0.000000 0.750000 0.750000 sr} bdef
c11
698 1030 697 570 698 -20 696 74 694 12 1449 599 6 MP stroke
gr

c11
SO
0 j
0 82 -71 -41 71 -41 1425 640 4 MP
DP
0 82 -71 -41 71 -41 2119 652 4 MP
DP
0 82 -71 -41 71 -41 2815 726 4 MP
DP
0 82 -71 -41 71 -41 3513 706 4 MP
DP
0 82 -71 -41 71 -41 4210 1276 4 MP
DP
0 82 -71 -41 71 -41 4908 2306 4 MP
DP
gs 917 388 5339 4162 rc
gr

0 sg
%%IncludeResource: font Helvetica-Bold
/Helvetica-Bold /ISOLatin1Encoding 288 FMSR

2195 5118 mt 
(DOF per wavelength) s
%%IncludeResource: font Helvetica
/Helvetica /ISOLatin1Encoding 288 FMSR

 359 3932 mt  -90 rotate
(rel. H) s
90 rotate
%%IncludeResource: font Helvetica
/Helvetica /ISOLatin1Encoding 228 FMSR

 215 3262 mt  -90 rotate
(1) s
90 rotate
%%IncludeResource: font Helvetica
/Helvetica /ISOLatin1Encoding 288 FMSR

 359 3136 mt  -90 rotate
(-seminorm error) s
90 rotate
%%IncludeResource: font Helvetica-Bold
/Helvetica-Bold /ISOLatin1Encoding 192 FMSR

1890  222 mt 
(p=1, plane wave solution, unit square) s
%%IncludeResource: font Helvetica
/Helvetica /ISOLatin1Encoding 120 FMSR

 900 4592 mt 
( ) s
6239  430 mt 
( ) s
6 w
1 sg
0 1070 1101 0 0 -1070 976 4490 4 MP
PP
-1101 0 0 1070 1101 0 0 -1070 976 4490 5 MP stroke
4 w
DO
SO
6 w
0 sg
 976 4490 mt 2077 4490 L
 976 3420 mt 2077 3420 L
 976 4490 mt  976 3420 L
2077 4490 mt 2077 3420 L
 976 4490 mt 2077 4490 L
 976 4490 mt  976 3420 L
 976 4490 mt 2077 4490 L
 976 3420 mt 2077 3420 L
 976 4490 mt  976 3420 L
2077 4490 mt 2077 3420 L
%%IncludeResource: font Helvetica
/Helvetica /ISOLatin1Encoding 216 FMSR

1422 3642 mt 
(k=4) s
gs 976 3420 1102 1071 rc
36 w
c8
343 0 1044 3564 2 MP stroke
gs 1105 3454 221 221 rc
1179 3564 mt 1251 3564 L
1215 3528 mt 1215 3600 L
1190 3539 mt 1240 3589 L
1240 3539 mt 1190 3589 L
gr

gr

36 w
c8
0 sg
1422 3902 mt 
(k=40) s
gs 976 3420 1102 1071 rc
DA
c9
343 0 1044 3824 2 MP stroke
SO
gs 1105 3714 221 221 rc
1190 3799 mt 1240 3849 L
1240 3799 mt 1190 3849 L
gr

gr

c9
0 sg
1422 4163 mt 
(k=100) s
gs 976 3420 1102 1071 rc
DD
c10
343 0 1044 4085 2 MP stroke
SO
gs 1105 3975 221 221 rc
  36   36 1215 4085 FO
gr

gr

c10
0 sg
1422 4423 mt 
(k=400) s
gs 976 3420 1102 1071 rc
c11
343 0 1044 4345 2 MP stroke
gs 1105 4235 221 221 rc
0 82 -71 -41 71 -41 1191 4386 4 MP
DP
gr

6 w
gr

6 w
c11

end %%Color Dict

eplot
%%EndObject

epage
end

showpage

%%Trailer
%%EOF
