\relax 
\immediate\closeout\minitoc
\let \MiniTOC =N
\@writefile{toc}{\contentsline {title}{On stability of discretizations of the Helmholtz equation (extended version)}{1}}
\@writefile{toc}{\authcount {1}}
\@writefile{toc}{\contentsline {author}{S.\nobreakspace  {}Esterhazy and J.M. Melenk}{1}}
\@writefile{toc}{\contentsline {section}{\numberline {1}Introduction}{1}}
\newlabel{eq:helmholtz}{{1}{1}}
\newlabel{item:I}{{I}{2}}
\newlabel{item:II}{{II}{2}}
\newlabel{ex:1d-pollution}{{1.1}{2}}
\newlabel{eq:1D-model}{{2}{2}}
\newlabel{eq:1D-example:asymptotic-regime}{{3}{2}}
\citation{ihlenburg-babuska97,ihlenburg98,deraemaeker-babuska-bouillard99,ainsworth-monk-muniz06}
\citation{ainsworth-monk-muniz06,ainsworth04,ainsworth-wajid09}
\citation{melenk-sauter10,melenk-sauter09}
\@writefile{lof}{\contentsline {figure}{\numberline {1}{\ignorespaces  Performance of $h$-FEM for (2\hbox {}). Top: $p=1$, $p=2$. Bottom: $p=3$, $p=4$ (see Example\nobreakspace  {}1.1\hbox {}).}}{3}}
\newlabel{fig:1D-example}{{1}{3}}
\citation{babuska-sauter00}
\citation{harari-hughes92,harari06}
\citation{babuska-paik-sauter94}
\citation{feng-wu09,feng-wu10,feng-xing10}
\citation{melenk95,babuska-melenk96b,laghrouche-bettes00,laghrouche-bettess-astley02,perrey-debain-laghrouche-bettes-trevelyan04,astley-gamallo05,ortiz04,strouboulis-babuska-hidajat06,huttunen-gamallo-astley09}
\citation{stojek98,monk-wang99,li07,betcke-barnett10,desmet07}
\citation{farhat-harari-hetmaniuk03,farhat-tezaur-weidemann04,farhat-tezaur06}
\citation{cessenat-despres98,cessenat-despres03,huttunen-monk07,luostari-huttunen-monk09,buffa-monk07,gittelson-hiptmair-perugia09,hiptmair-moiola-perugia09a,hiptmair-moiola-perugia09b,moiola09,monk-schoeberl-sinwel10}
\citation{buffa-monk07,gittelson-hiptmair-perugia09}
\citation{melenk-sauter10,melenk-sauter09}
\citation{melenk10a,melenk-loehndorf10}
\newlabel{eq:scale-resolution}{{4}{4}}
\@writefile{toc}{\contentsline {subsection}{\numberline {1.1}Non-standard FEM}{4}}
\citation{monk-wang99,buffa-monk07,gittelson-hiptmair-perugia09,hiptmair-moiola-perugia09b}
\citation{chandler-wilde-graham09}
\citation{givoli92}
\citation{collino-monk98,bramble-pasciak08}
\citation{demkowicz-gerdes98}
\citation{hohage-nannen09}
\citation{erlangga08,engquist-ying10}
\citation{engquist-runborg03,ihlenburg98,ihlenburg09,thompson05}
\citation{adams75a,necas67,brenner-scott94,schwab98}
\@writefile{toc}{\contentsline {subsection}{\numberline {1.2}Scope of the article}{5}}
\@writefile{toc}{\contentsline {subsection}{\numberline {1.3}Some notation}{5}}
\newlabel{eq:norm}{{5}{5}}
\citation{melenk-sauter10}
\newlabel{eq:k0}{{6}{6}}
\@writefile{toc}{\contentsline {subsection}{\numberline {1.4}A model problem}{6}}
\newlabel{sec:model-problem}{{1.4}{6}}
\newlabel{eq:problem}{{7}{6}}
\newlabel{eq:problem-a}{{7a}{6}}
\newlabel{eq:problem-b}{{7b}{6}}
\newlabel{eq:problem-weak}{{8}{6}}
\newlabel{eq:B}{{9}{6}}
\newlabel{eq:CB}{{10}{6}}
\citation{leis86}
\citation{leis86}
\citation{betcke-chandler-wilde-graham-langdon-lindner10}
\citation{necas67}
\citation{pohozaev65}
\citation{melenk95}
\citation{cummings-feng06}
\citation{hetmaniuk07}
\citation{monk-chandler-wilde08}
\citation{morawetz-ludwig68}
\citation{spence-chandler-wilde-graham-smyshlyaev10}
\@writefile{toc}{\contentsline {section}{\numberline {2}Stability of the continuous problem}{7}}
\newlabel{sec:stability-continuous-problem}{{2}{7}}
\newlabel{eq:garding-inequality}{{11}{7}}
\newlabel{example:uniqueness}{{2.1}{7}}
\newlabel{eq:a-priori-star-shaped}{{12}{7}}
\citation{betcke-chandler-wilde-graham-langdon-lindner10}
\citation{melenk10a}
\citation{melenk10a}
\@writefile{toc}{\contentsline {subsection}{\numberline {2.1}Polynomial well-posedness for the model problem (7\hbox {})}{8}}
\newlabel{sec:polynomial-well-posedness}{{2.1}{8}}
\newlabel{lemma:a-priori}{{2.2}{8}}
\newlabel{lemma:use-of-potentials}{{2.3}{8}}
\citation{melenk-sauter10}
\newlabel{thm:a-priori}{{2.4}{9}}
\newlabel{eq:thm:a-priori-10}{{13}{9}}
\newlabel{eq:thm:a-priori-100}{{14}{9}}
\newlabel{eq:thm:a-priori-200}{{15}{9}}
\newlabel{eq:thm:a-priori-2000}{{18}{10}}
\newlabel{thm:inf-sup}{{2.5}{10}}
\newlabel{eq:thm:inf-sup-1}{{19}{10}}
\newlabel{eq:thm:inf-sup-2}{{20}{10}}
\newlabel{eq:thm:inf-sup-100}{{21}{10}}
\citation{melenk-sauter10,melenk-sauter09}
\citation{melenk-loehndorf10,melenk10a}
\citation{melenk-sauter09}
\citation{melenk-sauter10}
\citation{melenk-sauter10}
\@writefile{toc}{\contentsline {section}{\numberline {3}$k$-explicit regularity theory}{11}}
\newlabel{sec:regularity}{{3}{11}}
\@writefile{toc}{\contentsline {subsection}{\numberline {3.1}Regularity by decomposition}{11}}
\newlabel{lemma:decomposition-lemma}{{3.1}{11}}
\newlabel{item:decomposition-i}{{i}{11}}
\newlabel{item:decomposition-ii}{{ii}{11}}
\citation{melenk-sauter10}
\citation{melenk-sauter09}
\citation{melenk10a,melenk-loehndorf10}
\citation{melenk-sauter09}
\citation{melenk02}
\@writefile{toc}{\contentsline {subsection}{\numberline {3.2}Setting and main result}{12}}
\citation{melenk95}
\newlabel{eq:weight-fct-polygon}{{22}{13}}
\newlabel{eq:def-Csol}{{23}{13}}
\newlabel{thm:decomposition-polygon}{{3.2}{13}}
\newlabel{cor:H2-regularity}{{3.3}{13}}
\citation{stein70}
\@writefile{toc}{\contentsline {subsection}{\numberline {3.3}Auxiliary results}{14}}
\@writefile{toc}{\contentsline {subsubsection}{\numberline {3.3.1}High and low pass filters, auxiliary results}{14}}
\newlabel{lemma:filters}{{3.4}{14}}
\citation{grisvard85a}
\@writefile{toc}{\contentsline {subsubsection}{\numberline {3.3.2}Corner singularities}{15}}
\newlabel{lemma:corner-singularities-laplacian}{{3.5}{15}}
\newlabel{eq:Si}{{24}{15}}
\newlabel{eq:lemma:corner-singularities-laplacian-10}{{25}{15}}
\citation{melenk-sauter09}
\@writefile{toc}{\contentsline {subsubsection}{\numberline {3.3.3}The modified Helmholtz equation}{16}}
\newlabel{eq:yukawa}{{26}{16}}
\newlabel{eq:yukawa-fullspace}{{27}{16}}
\newlabel{lemma:S+Omega}{{3.6}{16}}
\newlabel{eq:lemma:S+Omega-1}{{28}{16}}
\newlabel{eq:lemma:S+Omega-2}{{29}{16}}
\newlabel{lemma:S+R2}{{3.7}{16}}
\citation{melenk-sauter09}
\citation{melenk02}
\citation{melenk02}
\citation{melenk02}
\@writefile{toc}{\contentsline {subsection}{\numberline {3.4}Proof of Theorem\nobreakspace  {}3.2\hbox {}}{17}}
\newlabel{sec:proof-thm-decomposition-polygon}{{3.4}{17}}
\newlabel{lemma:analytic-regularity}{{3.8}{17}}
\newlabel{eq:analytic-data}{{30}{17}}
\newlabel{eq:lemma:analytic-regularity-1}{{31}{17}}
\newlabel{eq:lemma:analytic-regularity-2}{{32}{17}}
\newlabel{cor:analytic-regularity}{{3.9}{18}}
\newlabel{lemma:contraction-lemma}{{3.10}{18}}
\newlabel{lemma:bbeta-regularity-singularity-fcts}{{3.11}{20}}
\citation{sauter-schwab10}
\citation{schatz74}
\citation{schatz74,aziz-kellogg-stephens88,melenk95,melenk-sauter10,melenk-sauter09,banjai-sauter07,sauter05}
\citation{schatz74}
\citation{melenk-sauter09}
\@writefile{toc}{\contentsline {section}{\numberline {4}Stability of Galerkin discretizations}{21}}
\newlabel{sec:discrete-stability-H1-conforming}{{4}{21}}
\@writefile{toc}{\contentsline {subsection}{\numberline {4.1}Abstract results}{21}}
\newlabel{eq:problem-weak-discrete}{{35}{21}}
\newlabel{eq:quasi-optimality-soft}{{36}{21}}
\newlabel{lemma:abstract-quasi-optimality}{{4.1}{21}}
\newlabel{eq:adjoint-problem}{{37}{21}}
\newlabel{eq:cond-for-stability}{{38}{21}}
\citation{melenk-loehndorf10}
\citation{schwab98}
\newlabel{eq:lemma:abstract-quasi-optimality-10}{{39}{22}}
\newlabel{eq:problem-adjoint}{{40}{22}}
\@writefile{toc}{\contentsline {subsection}{\numberline {4.2}Stability of $hp$-FEM}{22}}
\citation{melenk-sauter09}
\citation{melenk-sauter09}
\newlabel{eq:Sp}{{41}{23}}
\newlabel{thm:discrete-stability-polygon}{{4.2}{23}}
\newlabel{eq:scale-resolution-polygon}{{42}{23}}
\newlabel{eq:quasi-optimality-estimate}{{43}{23}}
\citation{melenk-sauter09}
\citation{babuska-sauter00}
\citation{schoeberl97,schoeberl-ngsolve}
\@writefile{toc}{\contentsline {subsection}{\numberline {4.3}Numerical examples: $hp$-FEM}{25}}
\newlabel{sec:numerics}{{4.3}{25}}
\newlabel{ex:square}{{4.5}{25}}
\@writefile{lof}{\contentsline {figure}{\numberline {2}{\ignorespaces  Top: $h$-FEM with $p=1$ (left) and $p=2$ (right) as described in Example\nobreakspace  {}4.5\hbox {}. Bottom left: $h$-FEM with $p=3$ as described in Example\nobreakspace  {}4.5\hbox {}. Bottom right: $p$-FEM for singular solution on quasi-uniform mesh as described in Example\nobreakspace  {}4.7\hbox {}.}}{25}}
\newlabel{fig:square}{{2}{25}}
\newlabel{ex:Lshaped-smooth}{{4.6}{25}}
\citation{melenk95,babuska-melenk96b}
\newlabel{eq:model-numerics}{{44}{26}}
\newlabel{ex:Lshaped-singular}{{4.7}{26}}
\@writefile{lof}{\contentsline {figure}{\numberline {3}{\ignorespaces  $p$-FEM for plane wave solution as described in Example\nobreakspace  {}4.6\hbox {}. Left: quasiuniform mesh ${\mathcal  T}_h$ with $kh \approx 4$. Right: Mesh ${\mathcal  T}^{geo}$ obtained from ${\mathcal  T}$ by strong geometric refinement near origin.}}{26}}
\newlabel{fig:numerics}{{3}{26}}
\citation{brenner-scott94}
\@writefile{toc}{\contentsline {subsection}{\numberline {4.4}Stability of Partition of Unity Method/Generalized FEM}{27}}
\newlabel{sec:pum}{{4.4}{27}}
\newlabel{lemma:PUM-approximation}{{4.8}{27}}
\newlabel{eq:bounds-for-psi_i}{{45}{27}}
\newlabel{eq:approximation-brenner-scott}{{46}{27}}
\citation{melenk95}
\newlabel{rem:pum-approximation}{{4.9}{28}}
\newlabel{cor:gFEM-stability}{{4.10}{28}}
\citation{melenk95}
\citation{melenk95}
\citation{melenk05a}
\citation{melenk95}
\citation{melenk05a}
\citation{hiptmair-moiola-perugia09a}
\citation{hiptmair-moiola-perugia09a}
\citation{hiptmair-moiola-perugia09a}
\citation{hiptmair-moiola-perugia09a}
\@writefile{toc}{\contentsline {section}{\numberline {5}Approximation with plane, cylindrical, and spherical waves}{29}}
\newlabel{sec:approximation-properties-Trefftz-fcts}{{5}{29}}
\newlabel{eq:generalized-harmonic-polynomials}{{47}{29}}
\newlabel{eq:plane-waves}{{48}{29}}
\newlabel{lemma:exponential-convergence-plane-waves}{{5.1}{29}}
\newlabel{prop:h-convergence-plane-waves}{{5.3}{29}}
\citation{hiptmair-moiola-perugia09a}
\citation{cessenat-despres98}
\citation{betcke-barnett10}
\citation{betcke-barnett10}
\@writefile{toc}{\contentsline {section}{\numberline {6}Stability of Least Squares and DG methods}{30}}
\citation{stojek98,monk-wang99,li07,betcke-barnett10,desmet07}
\@writefile{toc}{\contentsline {subsection}{\numberline {6.1}Some notation for spaces of piecewise smooth functions}{31}}
\newlabel{lemma:DG-magic-formula}{{6.1}{31}}
\@writefile{toc}{\contentsline {subsection}{\numberline {6.2}Stability of least squares methods}{31}}
\newlabel{sec:least-squares}{{6.2}{31}}
\newlabel{eq:VN-least-squares}{{49}{31}}
\citation{buffa-monk07,hiptmair-moiola-perugia09a,hiptmair-moiola-perugia09b,moiola09}
\citation{monk-wang99}
\newlabel{eq:minimization}{{50}{32}}
\newlabel{eq:least-squares-quasioptimality}{{51}{32}}
\newlabel{lemma:monk-wang}{{6.2}{32}}
\newlabel{item:lemma:monk-wang-i}{{i}{32}}
\newlabel{item:lemma:monk-wang-ii}{{ii}{32}}
\citation{monk-wang99}
\citation{hiptmair-moiola-perugia09b}
\citation{brenner-scott94}
\newlabel{eq:monk-wang-a-priori-for-v}{{52}{33}}
\newlabel{eq:trace-1}{{53}{33}}
\newlabel{eq:trace-2}{{54}{33}}
\newlabel{eq:trace-3}{{55}{33}}
\newlabel{eq:lemma:monk-wang-200}{{56}{34}}
\citation{feng-wu09,feng-wu10,feng-xing10}
\citation{monk-schoeberl-sinwel10}
\citation{gittelson-hiptmair-perugia09,hiptmair-moiola-perugia09b,moiola09}
\citation{cessenat-despres98,cessenat-despres03,huttunen-monk07,luostari-huttunen-monk09,buffa-monk07}
\citation{buffa-monk07,gittelson-hiptmair-perugia09}
\newlabel{rem:monk-wang}{{6.3}{35}}
\@writefile{toc}{\contentsline {subsection}{\numberline {6.3}Stability of plane wave DG and UWVF}{35}}
\newlabel{sec:DG}{{6.3}{35}}
\newlabel{eq:flux-formulation-1}{{57}{35}}
\newlabel{eq:flux-formulation-2}{{58}{35}}
\newlabel{eq:flux-formulation-3}{{59}{35}}
\citation{cessenat-despres98,cessenat-despres03,huttunen-monk07,luostari-huttunen-monk09,buffa-monk07}
\citation{hiptmair-moiola-perugia09b,moiola09}
\newlabel{eq:dg-flux-formulation-1}{{60}{36}}
\newlabel{eq:dg-flux-formulation-2}{{60}{36}}
\newlabel{eq:DG-formulation-elementwise}{{60}{36}}
\newlabel{eq:plane-wave-DG}{{61}{36}}
\newlabel{eq:flux-choices}{{62}{36}}
\newlabel{eq:DG-formulation}{{63}{36}}
\citation{buffa-monk07,hiptmair-moiola-perugia09b}
\newlabel{eq:AN-first-version}{{64}{37}}
\newlabel{prop:DG-quasi-optimality}{{6.4}{37}}
\citation{cessenat-despres98}
\citation{hiptmair-moiola-perugia09a,hiptmair-moiola-perugia09b,moiola09}
\citation{cessenat-despres98}
\citation{buffa-monk07}
\citation{buffa-monk07}
\citation{hiptmair-moiola-perugia09a,hiptmair-moiola-perugia09b,moiola09}
\citation{gittelson-hiptmair-perugia09}
\citation{gittelson-hiptmair-perugia09}
\citation{moiola09}
\citation{gittelson-hiptmair-perugia09}
\newlabel{eq:DG-quasi-optimality}{{65}{38}}
\@writefile{toc}{\contentsline {section}{\numberline {7}Remarks on 1D}{39}}
\newlabel{sec:1D}{{7}{39}}
\newlabel{eq:model-problem-1d}{{66}{39}}
\newlabel{eq:pollution-free-1D-FEM}{{67}{39}}
\newlabel{lemma:1d-optimal}{{7.1}{39}}
\newlabel{item:lemma:1d-optimal-i}{{i}{39}}
\newlabel{item:lemma:1d-optimal-ii}{{ii}{39}}
\newlabel{item:lemma:1d-optimal-iii}{{iii}{39}}
\citation{babuska-sauter00}
\citation{brenner-scott94}
\citation{babuska-osborn91}
\citation{babuska-kellogg79a}
\newlabel{eq:stabilized-bilinear-form}{{68}{40}}
\@writefile{toc}{\contentsline {section}{Appendix}{40}}
\newlabel{lemma:besov-space-embedding}{{A.2}{40}}
\citation{melenk02}
\citation{babuska-kellogg79a}
\citation{babuska-kellogg79a}
\citation{babuska-kellogg79a}
\newlabel{eq:lemma:besov-space-embedding-1}{{A.1}{41}}
\newlabel{eq:lemma:besov-space-embedding-2}{{A.2}{41}}
\newlabel{lemma:trace-inequality-H11beta}{{A.3}{41}}
\newlabel{eq:rem-pum-approximation-10}{{A.3}{42}}
\citation{melenk-sauter10}
\citation{melenk-sauter10}
\citation{melenk-sauter10}
\newlabel{lemma:approximation-of-H^22beta-fcts}{{A.5}{43}}
\newlabel{eq:lemma:approximation-of-H^22beta-fcts-1}{{A.4}{43}}
\newlabel{eq:lemma:approximation-of-H^22beta-fcts-2}{{A.5}{43}}
\citation{schwab98}
\citation{ihlenburg98}
\bibstyle{plain}
\bibdata{nummech}
\bibcite{adams75a}{1}
\newlabel{eq:lemma:approximation-of-H^22beta-fcts-3}{{A.6}{44}}
\newlabel{eq:lemma:1d-optimal-10}{{A.7}{44}}
\newlabel{eq:lemma:1d-optimal-20}{{A.8}{44}}
\newlabel{eq:lemma:1d-optimal-30}{{A.9}{44}}
\bibcite{ainsworth-monk-muniz06}{2}
\bibcite{ainsworth04}{3}
\bibcite{ainsworth-wajid09}{4}
\bibcite{astley-gamallo05}{5}
\bibcite{aziz-kellogg-stephens88}{6}
\bibcite{babuska-paik-sauter94}{7}
\bibcite{babuska-kellogg79a}{8}
\bibcite{babuska-osborn91}{9}
\bibcite{babuska-sauter00}{10}
\bibcite{banjai-sauter07}{11}
\bibcite{betcke-barnett10}{12}
\bibcite{betcke-chandler-wilde-graham-langdon-lindner10}{13}
\bibcite{bramble-pasciak08}{14}
\bibcite{brenner-scott94}{15}
\bibcite{buffa-monk07}{16}
\bibcite{cessenat-despres98}{17}
\bibcite{cessenat-despres03}{18}
\bibcite{chandler-wilde-graham09}{19}
\bibcite{monk-chandler-wilde08}{20}
\bibcite{collino-monk98}{21}
\bibcite{cummings-feng06}{22}
\bibcite{demkowicz-gerdes98}{23}
\bibcite{deraemaeker-babuska-bouillard99}{24}
\@writefile{toc}{\contentsline {section}{References}{45}}
\@mtwritefile{\contentsline {mtchap}{References}{45}}
\bibcite{engquist-ying10}{25}
\bibcite{engquist-runborg03}{26}
\bibcite{erlangga08}{27}
\bibcite{farhat-harari-hetmaniuk03}{28}
\bibcite{farhat-tezaur-weidemann04}{29}
\bibcite{feng-wu09}{30}
\bibcite{feng-wu10}{31}
\bibcite{feng-xing10}{32}
\bibcite{gittelson-hiptmair-perugia09}{33}
\bibcite{givoli92}{34}
\bibcite{grisvard85a}{35}
\bibcite{harari06}{36}
\bibcite{harari-hughes92}{37}
\bibcite{hetmaniuk07}{38}
\bibcite{hiptmair-moiola-perugia09a}{39}
\bibcite{hiptmair-moiola-perugia09b}{40}
\bibcite{hohage-nannen09}{41}
\bibcite{huttunen-gamallo-astley09}{42}
\bibcite{huttunen-monk07}{43}
\bibcite{ihlenburg98}{44}
\bibcite{ihlenburg09}{45}
\bibcite{ihlenburg-babuska97}{46}
\bibcite{laghrouche-bettes00}{47}
\bibcite{laghrouche-bettess-astley02}{48}
\bibcite{leis86}{49}
\bibcite{li07}{50}
\bibcite{melenk-loehndorf10}{51}
\bibcite{luostari-huttunen-monk09}{52}
\bibcite{melenk95}{53}
\bibcite{melenk02}{54}
\bibcite{melenk05a}{55}
\bibcite{melenk10a}{56}
\bibcite{babuska-melenk96b}{57}
\bibcite{melenk-sauter09}{58}
\bibcite{melenk-sauter10}{59}
\bibcite{moiola09}{60}
\bibcite{monk-schoeberl-sinwel10}{61}
\bibcite{monk-wang99}{62}
\bibcite{morawetz-ludwig68}{63}
\bibcite{necas67}{64}
\bibcite{ortiz04}{65}
\bibcite{perrey-debain-laghrouche-bettes-trevelyan04}{66}
\bibcite{desmet07}{67}
\bibcite{pohozaev65}{68}
\bibcite{sauter-schwab10}{69}
\bibcite{sauter05}{70}
\bibcite{schatz74}{71}
\bibcite{schoeberl-ngsolve}{72}
\bibcite{schoeberl97}{73}
\bibcite{schwab98}{74}
\bibcite{spence-chandler-wilde-graham-smyshlyaev10}{75}
\bibcite{stein70}{76}
\bibcite{stojek98}{77}
\bibcite{strouboulis-babuska-hidajat06}{78}
\bibcite{farhat-tezaur06}{79}
\bibcite{thompson05}{80}
\immediate\closeout\minitoc
