%!PS-Adobe-3.0 EPSF-3.0
%%Creator: MATLAB, The Mathworks, Inc. Version 7.10.0.499 (R2010a). Operating System: Linux 2.6.32-25-generic #45-Ubuntu SMP Sat Oct 16 19:52:42 UTC 2010 x86_64.
%%Title: ./p1.eps
%%CreationDate: 11/23/2010  08:36:24
%%DocumentNeededFonts: Helvetica
%%DocumentProcessColors: Cyan Magenta Yellow Black
%%LanguageLevel: 2
%%Pages: 1
%%BoundingBox:    18   179   558   616
%%EndComments

%%BeginProlog
% MathWorks dictionary
/MathWorks 160 dict begin
% definition operators
/bdef {bind def} bind def
/ldef {load def} bind def
/xdef {exch def} bdef
/xstore {exch store} bdef
% operator abbreviations
/c  /clip ldef
/cc /concat ldef
/cp /closepath ldef
/gr /grestore ldef
/gs /gsave ldef
/mt /moveto ldef
/np /newpath ldef
/cm /currentmatrix ldef
/sm /setmatrix ldef
/rm /rmoveto ldef
/rl /rlineto ldef
/s {show newpath} bdef
/sc {setcmykcolor} bdef
/sr /setrgbcolor ldef
/sg /setgray ldef
/w /setlinewidth ldef
/j /setlinejoin ldef
/cap /setlinecap ldef
/rc {rectclip} bdef
/rf {rectfill} bdef
% page state control
/pgsv () def
/bpage {/pgsv save def} bdef
/epage {pgsv restore} bdef
/bplot /gsave ldef
/eplot {stroke grestore} bdef
% orientation switch
/portraitMode 0 def /landscapeMode 1 def /rotateMode 2 def
% coordinate system mappings
/dpi2point 0 def
% font control
/FontSize 0 def
/FMS {/FontSize xstore findfont [FontSize 0 0 FontSize neg 0 0]
  makefont setfont} bdef
/reencode {exch dup where {pop load} {pop StandardEncoding} ifelse
  exch dup 3 1 roll findfont dup length dict begin
  { 1 index /FID ne {def}{pop pop} ifelse } forall
  /Encoding exch def currentdict end definefont pop} bdef
/isroman {findfont /CharStrings get /Agrave known} bdef
/FMSR {3 1 roll 1 index dup isroman {reencode} {pop pop} ifelse
  exch FMS} bdef
/csm {1 dpi2point div -1 dpi2point div scale neg translate
 dup landscapeMode eq {pop -90 rotate}
  {rotateMode eq {90 rotate} if} ifelse} bdef
% line types: solid, dotted, dashed, dotdash
/SO { [] 0 setdash } bdef
/DO { [.5 dpi2point mul 4 dpi2point mul] 0 setdash } bdef
/DA { [6 dpi2point mul] 0 setdash } bdef
/DD { [.5 dpi2point mul 4 dpi2point mul 6 dpi2point mul 4
  dpi2point mul] 0 setdash } bdef
% macros for lines and objects
/L {lineto stroke} bdef
/MP {3 1 roll moveto 1 sub {rlineto} repeat} bdef
/AP {{rlineto} repeat} bdef
/PDlw -1 def
/W {/PDlw currentlinewidth def setlinewidth} def
/PP {closepath eofill} bdef
/DP {closepath stroke} bdef
/MR {4 -2 roll moveto dup  0 exch rlineto exch 0 rlineto
  neg 0 exch rlineto closepath} bdef
/FR {MR stroke} bdef
/PR {MR fill} bdef
/L1i {{currentfile picstr readhexstring pop} image} bdef
/tMatrix matrix def
/MakeOval {newpath tMatrix currentmatrix pop translate scale
0 0 1 0 360 arc tMatrix setmatrix} bdef
/FO {MakeOval stroke} bdef
/PO {MakeOval fill} bdef
/PD {currentlinewidth 2 div 0 360 arc fill
   PDlw -1 eq not {PDlw w /PDlw -1 def} if} def
/FA {newpath tMatrix currentmatrix pop translate scale
  0 0 1 5 -2 roll arc tMatrix setmatrix stroke} bdef
/PA {newpath tMatrix currentmatrix pop	translate 0 0 moveto scale
  0 0 1 5 -2 roll arc closepath tMatrix setmatrix fill} bdef
/FAn {newpath tMatrix currentmatrix pop translate scale
  0 0 1 5 -2 roll arcn tMatrix setmatrix stroke} bdef
/PAn {newpath tMatrix currentmatrix pop translate 0 0 moveto scale
  0 0 1 5 -2 roll arcn closepath tMatrix setmatrix fill} bdef
/vradius 0 def /hradius 0 def /lry 0 def
/lrx 0 def /uly 0 def /ulx 0 def /rad 0 def
/MRR {/vradius xdef /hradius xdef /lry xdef /lrx xdef /uly xdef
  /ulx xdef newpath tMatrix currentmatrix pop ulx hradius add uly
  vradius add translate hradius vradius scale 0 0 1 180 270 arc 
  tMatrix setmatrix lrx hradius sub uly vradius add translate
  hradius vradius scale 0 0 1 270 360 arc tMatrix setmatrix
  lrx hradius sub lry vradius sub translate hradius vradius scale
  0 0 1 0 90 arc tMatrix setmatrix ulx hradius add lry vradius sub
  translate hradius vradius scale 0 0 1 90 180 arc tMatrix setmatrix
  closepath} bdef
/FRR {MRR stroke } bdef
/PRR {MRR fill } bdef
/MlrRR {/lry xdef /lrx xdef /uly xdef /ulx xdef /rad lry uly sub 2 div def
  newpath tMatrix currentmatrix pop ulx rad add uly rad add translate
  rad rad scale 0 0 1 90 270 arc tMatrix setmatrix lrx rad sub lry rad
  sub translate rad rad scale 0 0 1 270 90 arc tMatrix setmatrix
  closepath} bdef
/FlrRR {MlrRR stroke } bdef
/PlrRR {MlrRR fill } bdef
/MtbRR {/lry xdef /lrx xdef /uly xdef /ulx xdef /rad lrx ulx sub 2 div def
  newpath tMatrix currentmatrix pop ulx rad add uly rad add translate
  rad rad scale 0 0 1 180 360 arc tMatrix setmatrix lrx rad sub lry rad
  sub translate rad rad scale 0 0 1 0 180 arc tMatrix setmatrix
  closepath} bdef
/FtbRR {MtbRR stroke } bdef
/PtbRR {MtbRR fill } bdef
/stri 6 array def /dtri 6 array def
/smat 6 array def /dmat 6 array def
/tmat1 6 array def /tmat2 6 array def /dif 3 array def
/asub {/ind2 exch def /ind1 exch def dup dup
  ind1 get exch ind2 get sub exch } bdef
/tri_to_matrix {
  2 0 asub 3 1 asub 4 0 asub 5 1 asub
  dup 0 get exch 1 get 7 -1 roll astore } bdef
/compute_transform {
  dmat dtri tri_to_matrix tmat1 invertmatrix 
  smat stri tri_to_matrix tmat2 concatmatrix } bdef
/ds {stri astore pop} bdef
/dt {dtri astore pop} bdef
/db {2 copy /cols xdef /rows xdef mul dup 3 mul string
  currentfile 
  3 index 0 eq {/ASCIIHexDecode filter}
  {/ASCII85Decode filter 3 index 2 eq {/RunLengthDecode filter} if }
  ifelse exch readstring pop
  dup 0 3 index getinterval /rbmap xdef
  dup 2 index dup getinterval /gbmap xdef
  1 index dup 2 mul exch getinterval /bbmap xdef pop pop}bdef
/it {gs np dtri aload pop moveto lineto lineto cp c
  cols rows 8 compute_transform 
  rbmap gbmap bbmap true 3 colorimage gr}bdef
/il {newpath moveto lineto stroke}bdef
currentdict end def
%%EndProlog

%%BeginSetup
MathWorks begin

0 cap

end
%%EndSetup

%%Page: 1 1
%%BeginPageSetup
%%PageBoundingBox:    18   179   558   616
MathWorks begin
bpage
%%EndPageSetup

%%BeginObject: obj1
bplot

/dpi2point 12 def
portraitMode 0216 7344 csm

    0   -48  6485  5233 rc
85 dict begin %Colortable dictionary
/c0 { 0.000000 0.000000 0.000000 sr} bdef
/c1 { 1.000000 1.000000 1.000000 sr} bdef
/c2 { 0.900000 0.000000 0.000000 sr} bdef
/c3 { 0.000000 0.820000 0.000000 sr} bdef
/c4 { 0.000000 0.000000 0.800000 sr} bdef
/c5 { 0.910000 0.820000 0.320000 sr} bdef
/c6 { 1.000000 0.260000 0.820000 sr} bdef
/c7 { 0.000000 0.820000 0.820000 sr} bdef
c0
1 j
1 sg
   0    0 6917 5186 rf
6 w
0 4065 5360 0 0 -4065 899 4568 4 MP
PP
-5360 0 0 4065 5360 0 0 -4065 899 4568 5 MP stroke
4 w
DO
SO
6 w
0 sg
 899 4568 mt 6259 4568 L
 899  503 mt 6259  503 L
 899 4568 mt  899  503 L
6259 4568 mt 6259  503 L
 899 4568 mt 6259 4568 L
 899 4568 mt  899  503 L
 899 4568 mt  899 4541 L
 899  503 mt  899  530 L
 899 4568 mt  899 4514 L
 899  503 mt  899  557 L
%%IncludeResource: font Helvetica
/Helvetica /ISOLatin1Encoding 240 FMSR

 722 4898 mt 
(10) s
%%IncludeResource: font Helvetica
/Helvetica /ISOLatin1Encoding 160 FMSR

 988 4750 mt 
(0) s
1436 4568 mt 1436 4541 L
1436  503 mt 1436  530 L
1751 4568 mt 1751 4541 L
1751  503 mt 1751  530 L
1974 4568 mt 1974 4541 L
1974  503 mt 1974  530 L
2147 4568 mt 2147 4541 L
2147  503 mt 2147  530 L
2289 4568 mt 2289 4541 L
2289  503 mt 2289  530 L
2408 4568 mt 2408 4541 L
2408  503 mt 2408  530 L
2512 4568 mt 2512 4541 L
2512  503 mt 2512  530 L
2603 4568 mt 2603 4541 L
2603  503 mt 2603  530 L
2685 4568 mt 2685 4541 L
2685  503 mt 2685  530 L
2685 4568 mt 2685 4514 L
2685  503 mt 2685  557 L
%%IncludeResource: font Helvetica
/Helvetica /ISOLatin1Encoding 240 FMSR

2508 4898 mt 
(10) s
%%IncludeResource: font Helvetica
/Helvetica /ISOLatin1Encoding 160 FMSR

2774 4750 mt 
(1) s
3223 4568 mt 3223 4541 L
3223  503 mt 3223  530 L
3538 4568 mt 3538 4541 L
3538  503 mt 3538  530 L
3761 4568 mt 3761 4541 L
3761  503 mt 3761  530 L
3934 4568 mt 3934 4541 L
3934  503 mt 3934  530 L
4075 4568 mt 4075 4541 L
4075  503 mt 4075  530 L
4195 4568 mt 4195 4541 L
4195  503 mt 4195  530 L
4299 4568 mt 4299 4541 L
4299  503 mt 4299  530 L
4390 4568 mt 4390 4541 L
4390  503 mt 4390  530 L
4472 4568 mt 4472 4541 L
4472  503 mt 4472  530 L
4472 4568 mt 4472 4514 L
4472  503 mt 4472  557 L
%%IncludeResource: font Helvetica
/Helvetica /ISOLatin1Encoding 240 FMSR

4295 4898 mt 
(10) s
%%IncludeResource: font Helvetica
/Helvetica /ISOLatin1Encoding 160 FMSR

4561 4750 mt 
(2) s
5010 4568 mt 5010 4541 L
5010  503 mt 5010  530 L
5324 4568 mt 5324 4541 L
5324  503 mt 5324  530 L
5548 4568 mt 5548 4541 L
5548  503 mt 5548  530 L
5721 4568 mt 5721 4541 L
5721  503 mt 5721  530 L
5862 4568 mt 5862 4541 L
5862  503 mt 5862  530 L
5982 4568 mt 5982 4541 L
5982  503 mt 5982  530 L
6085 4568 mt 6085 4541 L
6085  503 mt 6085  530 L
6177 4568 mt 6177 4541 L
6177  503 mt 6177  530 L
6259 4568 mt 6259 4541 L
6259  503 mt 6259  530 L
6259 4568 mt 6259 4514 L
6259  503 mt 6259  557 L
%%IncludeResource: font Helvetica
/Helvetica /ISOLatin1Encoding 240 FMSR

6082 4898 mt 
(10) s
%%IncludeResource: font Helvetica
/Helvetica /ISOLatin1Encoding 160 FMSR

6348 4750 mt 
(3) s
 899 4568 mt  925 4568 L
6259 4568 mt 6232 4568 L
 899 4568 mt  952 4568 L
6259 4568 mt 6205 4568 L
%%IncludeResource: font Helvetica
/Helvetica /ISOLatin1Encoding 240 FMSR

 416 4657 mt 
(10) s
%%IncludeResource: font Helvetica
/Helvetica /ISOLatin1Encoding 160 FMSR

 682 4509 mt 
(-3) s
 899 4262 mt  925 4262 L
6259 4262 mt 6232 4262 L
 899 4083 mt  925 4083 L
6259 4083 mt 6232 4083 L
 899 3956 mt  925 3956 L
6259 3956 mt 6232 3956 L
 899 3857 mt  925 3857 L
6259 3857 mt 6232 3857 L
 899 3777 mt  925 3777 L
6259 3777 mt 6232 3777 L
 899 3709 mt  925 3709 L
6259 3709 mt 6232 3709 L
 899 3650 mt  925 3650 L
6259 3650 mt 6232 3650 L
 899 3598 mt  925 3598 L
6259 3598 mt 6232 3598 L
 899 3552 mt  925 3552 L
6259 3552 mt 6232 3552 L
 899 3552 mt  952 3552 L
6259 3552 mt 6205 3552 L
%%IncludeResource: font Helvetica
/Helvetica /ISOLatin1Encoding 240 FMSR

 416 3641 mt 
(10) s
%%IncludeResource: font Helvetica
/Helvetica /ISOLatin1Encoding 160 FMSR

 682 3493 mt 
(-2) s
 899 3246 mt  925 3246 L
6259 3246 mt 6232 3246 L
 899 3067 mt  925 3067 L
6259 3067 mt 6232 3067 L
 899 2940 mt  925 2940 L
6259 2940 mt 6232 2940 L
 899 2841 mt  925 2841 L
6259 2841 mt 6232 2841 L
 899 2761 mt  925 2761 L
6259 2761 mt 6232 2761 L
 899 2693 mt  925 2693 L
6259 2693 mt 6232 2693 L
 899 2634 mt  925 2634 L
6259 2634 mt 6232 2634 L
 899 2582 mt  925 2582 L
6259 2582 mt 6232 2582 L
 899 2536 mt  925 2536 L
6259 2536 mt 6232 2536 L
 899 2536 mt  952 2536 L
6259 2536 mt 6205 2536 L
%%IncludeResource: font Helvetica
/Helvetica /ISOLatin1Encoding 240 FMSR

 416 2625 mt 
(10) s
%%IncludeResource: font Helvetica
/Helvetica /ISOLatin1Encoding 160 FMSR

 682 2477 mt 
(-1) s
 899 2230 mt  925 2230 L
6259 2230 mt 6232 2230 L
 899 2051 mt  925 2051 L
6259 2051 mt 6232 2051 L
 899 1924 mt  925 1924 L
6259 1924 mt 6232 1924 L
 899 1825 mt  925 1825 L
6259 1825 mt 6232 1825 L
 899 1745 mt  925 1745 L
6259 1745 mt 6232 1745 L
 899 1677 mt  925 1677 L
6259 1677 mt 6232 1677 L
 899 1618 mt  925 1618 L
6259 1618 mt 6232 1618 L
 899 1566 mt  925 1566 L
6259 1566 mt 6232 1566 L
 899 1519 mt  925 1519 L
6259 1519 mt 6232 1519 L
 899 1519 mt  952 1519 L
6259 1519 mt 6205 1519 L
%%IncludeResource: font Helvetica
/Helvetica /ISOLatin1Encoding 240 FMSR

 416 1608 mt 
(10) s
%%IncludeResource: font Helvetica
/Helvetica /ISOLatin1Encoding 160 FMSR

 682 1460 mt 
(0) s
 899 1214 mt  925 1214 L
6259 1214 mt 6232 1214 L
 899 1035 mt  925 1035 L
6259 1035 mt 6232 1035 L
 899  908 mt  925  908 L
6259  908 mt 6232  908 L
 899  809 mt  925  809 L
6259  809 mt 6232  809 L
 899  729 mt  925  729 L
6259  729 mt 6232  729 L
 899  661 mt  925  661 L
6259  661 mt 6232  661 L
 899  602 mt  925  602 L
6259  602 mt 6232  602 L
 899  550 mt  925  550 L
6259  550 mt 6232  550 L
 899  503 mt  925  503 L
6259  503 mt 6232  503 L
 899  503 mt  952  503 L
6259  503 mt 6205  503 L
%%IncludeResource: font Helvetica
/Helvetica /ISOLatin1Encoding 240 FMSR

 416  592 mt 
(10) s
%%IncludeResource: font Helvetica
/Helvetica /ISOLatin1Encoding 160 FMSR

 682  444 mt 
(1) s
 899 4568 mt 6259 4568 L
 899  503 mt 6259  503 L
 899 4568 mt  899  503 L
6259 4568 mt 6259  503 L
gs 899 504 5361 4065 rc
36 w
/c8 { 0.000000 0.000000 1.000000 sr} bdef
c8
343 195 537 306 536 306 535 308 532 311 526 325 515 364 493 422 
456 307 397 -41 1390 1517 11 MP stroke
gr

36 w
c8
gs 1280 1366 5091 3065 rc
1354 1517 mt 1426 1517 L
1390 1481 mt 1390 1553 L
1751 1476 mt 1823 1476 L
1787 1440 mt 1787 1512 L
2207 1783 mt 2279 1783 L
2243 1747 mt 2243 1819 L
2700 2205 mt 2772 2205 L
2736 2169 mt 2736 2241 L
3215 2569 mt 3287 2569 L
3251 2533 mt 3251 2605 L
3741 2894 mt 3813 2894 L
3777 2858 mt 3777 2930 L
4273 3205 mt 4345 3205 L
4309 3169 mt 4309 3241 L
4808 3513 mt 4880 3513 L
4844 3477 mt 4844 3549 L
5344 3819 mt 5416 3819 L
5380 3783 mt 5380 3855 L
5881 4125 mt 5953 4125 L
5917 4089 mt 5917 4161 L
1365 1492 mt 1415 1542 L
1415 1492 mt 1365 1542 L
1762 1451 mt 1812 1501 L
1812 1451 mt 1762 1501 L
2218 1758 mt 2268 1808 L
2268 1758 mt 2218 1808 L
2711 2180 mt 2761 2230 L
2761 2180 mt 2711 2230 L
3226 2544 mt 3276 2594 L
3276 2544 mt 3226 2594 L
3752 2869 mt 3802 2919 L
3802 2869 mt 3752 2919 L
4284 3180 mt 4334 3230 L
4334 3180 mt 4284 3230 L
4819 3488 mt 4869 3538 L
4869 3488 mt 4819 3538 L
5355 3794 mt 5405 3844 L
5405 3794 mt 5355 3844 L
5892 4100 mt 5942 4150 L
5942 4100 mt 5892 4150 L
gr

gs 899 504 5361 4065 rc
DA
/c9 { 0.000000 0.500000 0.000000 sr} bdef
c9
517 295 537 315 538 337 538 403 537 513 536 624 535 622 532 -76 
526 -115 514 -257 51 14 899 1631 12 MP stroke
gr

c9
DA
gs 789 1087 5582 3330 rc
SO
 914 1645 mt  986 1645 L
 950 1609 mt  950 1681 L
1428 1388 mt 1500 1388 L
1464 1352 mt 1464 1424 L
1954 1273 mt 2026 1273 L
1990 1237 mt 1990 1309 L
2486 1197 mt 2558 1197 L
2522 1161 mt 2522 1233 L
3021 1819 mt 3093 1819 L
3057 1783 mt 3057 1855 L
3557 2443 mt 3629 2443 L
3593 2407 mt 3593 2479 L
4094 2956 mt 4166 2956 L
4130 2920 mt 4130 2992 L
4632 3359 mt 4704 3359 L
4668 3323 mt 4668 3395 L
5170 3696 mt 5242 3696 L
5206 3660 mt 5206 3732 L
5707 4011 mt 5779 4011 L
5743 3975 mt 5743 4047 L
DA
gr

gs 899 504 5361 4065 rc
DD
/c10 { 1.000000 0.000000 0.000000 sr} bdef
c10
152 109 538 481 538 558 538 579 537 522 538 433 538 256 537 26 
537 -43 537 -229 371 0 899 1520 12 MP stroke
gr

c10
DD
gs 789 1138 5582 3185 rc
SO
  36   36 1270 1520 FO
  36   36 1807 1291 FO
  36   36 2344 1248 FO
  36   36 2881 1274 FO
  36   36 3419 1530 FO
  36   36 3957 1963 FO
  36   36 4494 2485 FO
  36   36 5032 3064 FO
  36   36 5570 3622 FO
  36   36 6108 4103 FO
DD
gr

gs 899 504 5361 4065 rc
gr

0 sg
%%IncludeResource: font Helvetica
/Helvetica /ISOLatin1Encoding 240 FMSR

2574  313 mt 
(p=1; -u) s
%%IncludeResource: font Symbol
/Symbol /ISOLatin1Encoding 192 FMSR

3376  193 mt 
(\242) s
3423  193 mt 
(\242) s
%%IncludeResource: font Helvetica
/Helvetica /ISOLatin1Encoding 240 FMSR

3470  313 mt 
(-  k) s
%%IncludeResource: font Helvetica
/Helvetica /ISOLatin1Encoding 192 FMSR

3863  193 mt 
(2) s
%%IncludeResource: font Helvetica
/Helvetica /ISOLatin1Encoding 240 FMSR

3969  313 mt 
( u = 1) s
2451 5129 mt 
(DOF per wave length) s
 307 3717 mt  -90 rotate
(rel. H) s
90 rotate
%%IncludeResource: font Helvetica
/Helvetica /ISOLatin1Encoding 192 FMSR

 187 3159 mt  -90 rotate
(1) s
90 rotate
%%IncludeResource: font Helvetica
/Helvetica /ISOLatin1Encoding 240 FMSR

 307 3053 mt  -90 rotate
( seminorm error) s
90 rotate
%%IncludeResource: font Helvetica
/Helvetica /ISOLatin1Encoding 120 FMSR

 882 4611 mt 
( ) s
6243  546 mt 
( ) s
SO
6 w
1 sg
0 897 1299 0 0 -897 4901 1461 4 MP
PP
-1299 0 0 897 1299 0 0 -897 4901 1461 5 MP stroke
4 w
DO
SO
6 w
0 sg
4901 1461 mt 6200 1461 L
4901  564 mt 6200  564 L
4901 1461 mt 4901  564 L
6200 1461 mt 6200  564 L
4901 1461 mt 6200 1461 L
4901 1461 mt 4901  564 L
4901 1461 mt 6200 1461 L
4901  564 mt 6200  564 L
4901 1461 mt 4901  564 L
6200 1461 mt 6200  564 L
%%IncludeResource: font Helvetica
/Helvetica /ISOLatin1Encoding 240 FMSR

5359  810 mt 
(k=10) s
gs 4901 564 1300 898 rc
36 w
c8
352 0 4971 724 2 MP stroke
gs 5037 614 221 221 rc
5111  724 mt 5183  724 L
5147  688 mt 5147  760 L
5122  699 mt 5172  749 L
5172  699 mt 5122  749 L
gr

gr

36 w
c8
0 sg
5359 1098 mt 
(k=100) s
gs 4901 564 1300 898 rc
DA
c9
352 0 4971 1012 2 MP stroke
SO
gs 5037 902 221 221 rc
5111 1012 mt 5183 1012 L
5147  976 mt 5147 1048 L
gr

gr

c9
0 sg
5359 1386 mt 
(k=1000) s
gs 4901 564 1300 898 rc
DD
c10
352 0 4971 1300 2 MP stroke
SO
gs 5037 1190 221 221 rc
  36   36 5147 1300 FO
gr

6 w
gr

6 w
c10

end %%Color Dict

eplot
%%EndObject

epage
end

showpage

%%Trailer
%%EOF
