%!PS-Adobe-3.0 EPSF-3.0
%%Creator: MATLAB, The Mathworks, Inc. Version 7.10.0.499 (R2010a). Operating System: Linux 2.6.32-25-generic #45-Ubuntu SMP Sat Oct 16 19:52:42 UTC 2010 x86_64.
%%Title: ./p2.eps
%%CreationDate: 11/23/2010  08:36:24
%%DocumentNeededFonts: Helvetica
%%DocumentProcessColors: Cyan Magenta Yellow Black
%%LanguageLevel: 2
%%Pages: 1
%%BoundingBox:    18   179   558   616
%%EndComments

%%BeginProlog
% MathWorks dictionary
/MathWorks 160 dict begin
% definition operators
/bdef {bind def} bind def
/ldef {load def} bind def
/xdef {exch def} bdef
/xstore {exch store} bdef
% operator abbreviations
/c  /clip ldef
/cc /concat ldef
/cp /closepath ldef
/gr /grestore ldef
/gs /gsave ldef
/mt /moveto ldef
/np /newpath ldef
/cm /currentmatrix ldef
/sm /setmatrix ldef
/rm /rmoveto ldef
/rl /rlineto ldef
/s {show newpath} bdef
/sc {setcmykcolor} bdef
/sr /setrgbcolor ldef
/sg /setgray ldef
/w /setlinewidth ldef
/j /setlinejoin ldef
/cap /setlinecap ldef
/rc {rectclip} bdef
/rf {rectfill} bdef
% page state control
/pgsv () def
/bpage {/pgsv save def} bdef
/epage {pgsv restore} bdef
/bplot /gsave ldef
/eplot {stroke grestore} bdef
% orientation switch
/portraitMode 0 def /landscapeMode 1 def /rotateMode 2 def
% coordinate system mappings
/dpi2point 0 def
% font control
/FontSize 0 def
/FMS {/FontSize xstore findfont [FontSize 0 0 FontSize neg 0 0]
  makefont setfont} bdef
/reencode {exch dup where {pop load} {pop StandardEncoding} ifelse
  exch dup 3 1 roll findfont dup length dict begin
  { 1 index /FID ne {def}{pop pop} ifelse } forall
  /Encoding exch def currentdict end definefont pop} bdef
/isroman {findfont /CharStrings get /Agrave known} bdef
/FMSR {3 1 roll 1 index dup isroman {reencode} {pop pop} ifelse
  exch FMS} bdef
/csm {1 dpi2point div -1 dpi2point div scale neg translate
 dup landscapeMode eq {pop -90 rotate}
  {rotateMode eq {90 rotate} if} ifelse} bdef
% line types: solid, dotted, dashed, dotdash
/SO { [] 0 setdash } bdef
/DO { [.5 dpi2point mul 4 dpi2point mul] 0 setdash } bdef
/DA { [6 dpi2point mul] 0 setdash } bdef
/DD { [.5 dpi2point mul 4 dpi2point mul 6 dpi2point mul 4
  dpi2point mul] 0 setdash } bdef
% macros for lines and objects
/L {lineto stroke} bdef
/MP {3 1 roll moveto 1 sub {rlineto} repeat} bdef
/AP {{rlineto} repeat} bdef
/PDlw -1 def
/W {/PDlw currentlinewidth def setlinewidth} def
/PP {closepath eofill} bdef
/DP {closepath stroke} bdef
/MR {4 -2 roll moveto dup  0 exch rlineto exch 0 rlineto
  neg 0 exch rlineto closepath} bdef
/FR {MR stroke} bdef
/PR {MR fill} bdef
/L1i {{currentfile picstr readhexstring pop} image} bdef
/tMatrix matrix def
/MakeOval {newpath tMatrix currentmatrix pop translate scale
0 0 1 0 360 arc tMatrix setmatrix} bdef
/FO {MakeOval stroke} bdef
/PO {MakeOval fill} bdef
/PD {currentlinewidth 2 div 0 360 arc fill
   PDlw -1 eq not {PDlw w /PDlw -1 def} if} def
/FA {newpath tMatrix currentmatrix pop translate scale
  0 0 1 5 -2 roll arc tMatrix setmatrix stroke} bdef
/PA {newpath tMatrix currentmatrix pop	translate 0 0 moveto scale
  0 0 1 5 -2 roll arc closepath tMatrix setmatrix fill} bdef
/FAn {newpath tMatrix currentmatrix pop translate scale
  0 0 1 5 -2 roll arcn tMatrix setmatrix stroke} bdef
/PAn {newpath tMatrix currentmatrix pop translate 0 0 moveto scale
  0 0 1 5 -2 roll arcn closepath tMatrix setmatrix fill} bdef
/vradius 0 def /hradius 0 def /lry 0 def
/lrx 0 def /uly 0 def /ulx 0 def /rad 0 def
/MRR {/vradius xdef /hradius xdef /lry xdef /lrx xdef /uly xdef
  /ulx xdef newpath tMatrix currentmatrix pop ulx hradius add uly
  vradius add translate hradius vradius scale 0 0 1 180 270 arc 
  tMatrix setmatrix lrx hradius sub uly vradius add translate
  hradius vradius scale 0 0 1 270 360 arc tMatrix setmatrix
  lrx hradius sub lry vradius sub translate hradius vradius scale
  0 0 1 0 90 arc tMatrix setmatrix ulx hradius add lry vradius sub
  translate hradius vradius scale 0 0 1 90 180 arc tMatrix setmatrix
  closepath} bdef
/FRR {MRR stroke } bdef
/PRR {MRR fill } bdef
/MlrRR {/lry xdef /lrx xdef /uly xdef /ulx xdef /rad lry uly sub 2 div def
  newpath tMatrix currentmatrix pop ulx rad add uly rad add translate
  rad rad scale 0 0 1 90 270 arc tMatrix setmatrix lrx rad sub lry rad
  sub translate rad rad scale 0 0 1 270 90 arc tMatrix setmatrix
  closepath} bdef
/FlrRR {MlrRR stroke } bdef
/PlrRR {MlrRR fill } bdef
/MtbRR {/lry xdef /lrx xdef /uly xdef /ulx xdef /rad lrx ulx sub 2 div def
  newpath tMatrix currentmatrix pop ulx rad add uly rad add translate
  rad rad scale 0 0 1 180 360 arc tMatrix setmatrix lrx rad sub lry rad
  sub translate rad rad scale 0 0 1 0 180 arc tMatrix setmatrix
  closepath} bdef
/FtbRR {MtbRR stroke } bdef
/PtbRR {MtbRR fill } bdef
/stri 6 array def /dtri 6 array def
/smat 6 array def /dmat 6 array def
/tmat1 6 array def /tmat2 6 array def /dif 3 array def
/asub {/ind2 exch def /ind1 exch def dup dup
  ind1 get exch ind2 get sub exch } bdef
/tri_to_matrix {
  2 0 asub 3 1 asub 4 0 asub 5 1 asub
  dup 0 get exch 1 get 7 -1 roll astore } bdef
/compute_transform {
  dmat dtri tri_to_matrix tmat1 invertmatrix 
  smat stri tri_to_matrix tmat2 concatmatrix } bdef
/ds {stri astore pop} bdef
/dt {dtri astore pop} bdef
/db {2 copy /cols xdef /rows xdef mul dup 3 mul string
  currentfile 
  3 index 0 eq {/ASCIIHexDecode filter}
  {/ASCII85Decode filter 3 index 2 eq {/RunLengthDecode filter} if }
  ifelse exch readstring pop
  dup 0 3 index getinterval /rbmap xdef
  dup 2 index dup getinterval /gbmap xdef
  1 index dup 2 mul exch getinterval /bbmap xdef pop pop}bdef
/it {gs np dtri aload pop moveto lineto lineto cp c
  cols rows 8 compute_transform 
  rbmap gbmap bbmap true 3 colorimage gr}bdef
/il {newpath moveto lineto stroke}bdef
currentdict end def
%%EndProlog

%%BeginSetup
MathWorks begin

0 cap

end
%%EndSetup

%%Page: 1 1
%%BeginPageSetup
%%PageBoundingBox:    18   179   558   616
MathWorks begin
bpage
%%EndPageSetup

%%BeginObject: obj1
bplot

/dpi2point 12 def
portraitMode 0216 7344 csm

    0   -48  6485  5233 rc
85 dict begin %Colortable dictionary
/c0 { 0.000000 0.000000 0.000000 sr} bdef
/c1 { 1.000000 1.000000 1.000000 sr} bdef
/c2 { 0.900000 0.000000 0.000000 sr} bdef
/c3 { 0.000000 0.820000 0.000000 sr} bdef
/c4 { 0.000000 0.000000 0.800000 sr} bdef
/c5 { 0.910000 0.820000 0.320000 sr} bdef
/c6 { 1.000000 0.260000 0.820000 sr} bdef
/c7 { 0.000000 0.820000 0.820000 sr} bdef
c0
1 j
1 sg
   0    0 6917 5186 rf
6 w
0 4065 5360 0 0 -4065 899 4568 4 MP
PP
-5360 0 0 4065 5360 0 0 -4065 899 4568 5 MP stroke
4 w
DO
SO
6 w
0 sg
 899 4568 mt 6259 4568 L
 899  503 mt 6259  503 L
 899 4568 mt  899  503 L
6259 4568 mt 6259  503 L
 899 4568 mt 6259 4568 L
 899 4568 mt  899  503 L
 899 4568 mt  899 4541 L
 899  504 mt  899  530 L
 899 4568 mt  899 4514 L
 899  504 mt  899  557 L
%%IncludeResource: font Helvetica
/Helvetica /ISOLatin1Encoding 240 FMSR

 722 4898 mt 
(10) s
%%IncludeResource: font Helvetica
/Helvetica /ISOLatin1Encoding 160 FMSR

 988 4750 mt 
(0) s
1705 4568 mt 1705 4541 L
1705  504 mt 1705  530 L
2177 4568 mt 2177 4541 L
2177  504 mt 2177  530 L
2512 4568 mt 2512 4541 L
2512  504 mt 2512  530 L
2772 4568 mt 2772 4541 L
2772  504 mt 2772  530 L
2984 4568 mt 2984 4541 L
2984  504 mt 2984  530 L
3163 4568 mt 3163 4541 L
3163  504 mt 3163  530 L
3319 4568 mt 3319 4541 L
3319  504 mt 3319  530 L
3456 4568 mt 3456 4541 L
3456  504 mt 3456  530 L
3579 4568 mt 3579 4541 L
3579  504 mt 3579  530 L
3579 4568 mt 3579 4514 L
3579  504 mt 3579  557 L
%%IncludeResource: font Helvetica
/Helvetica /ISOLatin1Encoding 240 FMSR

3402 4898 mt 
(10) s
%%IncludeResource: font Helvetica
/Helvetica /ISOLatin1Encoding 160 FMSR

3668 4750 mt 
(1) s
4385 4568 mt 4385 4541 L
4385  504 mt 4385  530 L
4857 4568 mt 4857 4541 L
4857  504 mt 4857  530 L
5192 4568 mt 5192 4541 L
5192  504 mt 5192  530 L
5452 4568 mt 5452 4541 L
5452  504 mt 5452  530 L
5664 4568 mt 5664 4541 L
5664  504 mt 5664  530 L
5843 4568 mt 5843 4541 L
5843  504 mt 5843  530 L
5999 4568 mt 5999 4541 L
5999  504 mt 5999  530 L
6136 4568 mt 6136 4541 L
6136  504 mt 6136  530 L
6259 4568 mt 6259 4541 L
6259  504 mt 6259  530 L
6259 4568 mt 6259 4514 L
6259  504 mt 6259  557 L
%%IncludeResource: font Helvetica
/Helvetica /ISOLatin1Encoding 240 FMSR

6082 4898 mt 
(10) s
%%IncludeResource: font Helvetica
/Helvetica /ISOLatin1Encoding 160 FMSR

6348 4750 mt 
(2) s
 899 4568 mt  925 4568 L
6259 4568 mt 6232 4568 L
 899 4568 mt  952 4568 L
6259 4568 mt 6205 4568 L
%%IncludeResource: font Helvetica
/Helvetica /ISOLatin1Encoding 240 FMSR

 416 4657 mt 
(10) s
%%IncludeResource: font Helvetica
/Helvetica /ISOLatin1Encoding 160 FMSR

 682 4509 mt 
(-4) s
 899 4323 mt  925 4323 L
6259 4323 mt 6232 4323 L
 899 4180 mt  925 4180 L
6259 4180 mt 6232 4180 L
 899 4078 mt  925 4078 L
6259 4078 mt 6232 4078 L
 899 3999 mt  925 3999 L
6259 3999 mt 6232 3999 L
 899 3935 mt  925 3935 L
6259 3935 mt 6232 3935 L
 899 3881 mt  925 3881 L
6259 3881 mt 6232 3881 L
 899 3833 mt  925 3833 L
6259 3833 mt 6232 3833 L
 899 3792 mt  925 3792 L
6259 3792 mt 6232 3792 L
 899 3755 mt  925 3755 L
6259 3755 mt 6232 3755 L
 899 3755 mt  952 3755 L
6259 3755 mt 6205 3755 L
%%IncludeResource: font Helvetica
/Helvetica /ISOLatin1Encoding 240 FMSR

 416 3844 mt 
(10) s
%%IncludeResource: font Helvetica
/Helvetica /ISOLatin1Encoding 160 FMSR

 682 3696 mt 
(-3) s
 899 3510 mt  925 3510 L
6259 3510 mt 6232 3510 L
 899 3367 mt  925 3367 L
6259 3367 mt 6232 3367 L
 899 3265 mt  925 3265 L
6259 3265 mt 6232 3265 L
 899 3187 mt  925 3187 L
6259 3187 mt 6232 3187 L
 899 3122 mt  925 3122 L
6259 3122 mt 6232 3122 L
 899 3068 mt  925 3068 L
6259 3068 mt 6232 3068 L
 899 3021 mt  925 3021 L
6259 3021 mt 6232 3021 L
 899 2979 mt  925 2979 L
6259 2979 mt 6232 2979 L
 899 2942 mt  925 2942 L
6259 2942 mt 6232 2942 L
 899 2942 mt  952 2942 L
6259 2942 mt 6205 2942 L
%%IncludeResource: font Helvetica
/Helvetica /ISOLatin1Encoding 240 FMSR

 416 3031 mt 
(10) s
%%IncludeResource: font Helvetica
/Helvetica /ISOLatin1Encoding 160 FMSR

 682 2883 mt 
(-2) s
 899 2697 mt  925 2697 L
6259 2697 mt 6232 2697 L
 899 2554 mt  925 2554 L
6259 2554 mt 6232 2554 L
 899 2453 mt  925 2453 L
6259 2453 mt 6232 2453 L
 899 2374 mt  925 2374 L
6259 2374 mt 6232 2374 L
 899 2309 mt  925 2309 L
6259 2309 mt 6232 2309 L
 899 2255 mt  925 2255 L
6259 2255 mt 6232 2255 L
 899 2208 mt  925 2208 L
6259 2208 mt 6232 2208 L
 899 2166 mt  925 2166 L
6259 2166 mt 6232 2166 L
 899 2129 mt  925 2129 L
6259 2129 mt 6232 2129 L
 899 2129 mt  952 2129 L
6259 2129 mt 6205 2129 L
%%IncludeResource: font Helvetica
/Helvetica /ISOLatin1Encoding 240 FMSR

 416 2218 mt 
(10) s
%%IncludeResource: font Helvetica
/Helvetica /ISOLatin1Encoding 160 FMSR

 682 2070 mt 
(-1) s
 899 1884 mt  925 1884 L
6259 1884 mt 6232 1884 L
 899 1741 mt  925 1741 L
6259 1741 mt 6232 1741 L
 899 1640 mt  925 1640 L
6259 1640 mt 6232 1640 L
 899 1561 mt  925 1561 L
6259 1561 mt 6232 1561 L
 899 1497 mt  925 1497 L
6259 1497 mt 6232 1497 L
 899 1442 mt  925 1442 L
6259 1442 mt 6232 1442 L
 899 1395 mt  925 1395 L
6259 1395 mt 6232 1395 L
 899 1353 mt  925 1353 L
6259 1353 mt 6232 1353 L
 899 1316 mt  925 1316 L
6259 1316 mt 6232 1316 L
 899 1316 mt  952 1316 L
6259 1316 mt 6205 1316 L
%%IncludeResource: font Helvetica
/Helvetica /ISOLatin1Encoding 240 FMSR

 416 1405 mt 
(10) s
%%IncludeResource: font Helvetica
/Helvetica /ISOLatin1Encoding 160 FMSR

 682 1257 mt 
(0) s
 899 1072 mt  925 1072 L
6259 1072 mt 6232 1072 L
 899  928 mt  925  928 L
6259  928 mt 6232  928 L
 899  827 mt  925  827 L
6259  827 mt 6232  827 L
 899  748 mt  925  748 L
6259  748 mt 6232  748 L
 899  684 mt  925  684 L
6259  684 mt 6232  684 L
 899  629 mt  925  629 L
6259  629 mt 6232  629 L
 899  582 mt  925  582 L
6259  582 mt 6232  582 L
 899  541 mt  925  541 L
6259  541 mt 6232  541 L
 899  504 mt  925  504 L
6259  504 mt 6232  504 L
 899 4568 mt 6259 4568 L
 899  503 mt 6259  503 L
 899 4568 mt  899  503 L
6259 4568 mt 6259  503 L
gs 899 504 5361 4065 rc
36 w
/c8 { 0.000000 0.000000 1.000000 sr} bdef
c8
246 150 798 489 789 489 772 494 740 564 684 465 2231 1287 7 MP stroke
gr

36 w
c8
gs 2121 1177 4250 2872 rc
2195 1287 mt 2267 1287 L
2231 1251 mt 2231 1323 L
2879 1752 mt 2951 1752 L
2915 1716 mt 2915 1788 L
3619 2316 mt 3691 2316 L
3655 2280 mt 3655 2352 L
4391 2810 mt 4463 2810 L
4427 2774 mt 4427 2846 L
5180 3299 mt 5252 3299 L
5216 3263 mt 5216 3335 L
5978 3788 mt 6050 3788 L
6014 3752 mt 6014 3824 L
2206 1262 mt 2256 1312 L
2256 1262 mt 2206 1312 L
2890 1727 mt 2940 1777 L
2940 1727 mt 2890 1777 L
3630 2291 mt 3680 2341 L
3680 2291 mt 3630 2341 L
4402 2785 mt 4452 2835 L
4452 2785 mt 4402 2835 L
5191 3274 mt 5241 3324 L
5241 3274 mt 5191 3324 L
5989 3763 mt 6039 3813 L
6039 3763 mt 5989 3813 L
gr

gs 899 504 5361 4065 rc
DA
/c9 { 0.000000 0.500000 0.000000 sr} bdef
c9
514 312 805 494 805 558 802 817 798 768 789 -261 772 -15 76 3 
899 1266 9 MP stroke
gr

c9
DA
gs 789 883 5582 3170 rc
SO
 939 1269 mt 1011 1269 L
 975 1233 mt  975 1305 L
1711 1254 mt 1783 1254 L
1747 1218 mt 1747 1290 L
2500  993 mt 2572  993 L
2536  957 mt 2536 1029 L
3298 1761 mt 3370 1761 L
3334 1725 mt 3334 1797 L
4100 2578 mt 4172 2578 L
4136 2542 mt 4136 2614 L
4905 3136 mt 4977 3136 L
4941 3100 mt 4941 3172 L
5710 3630 mt 5782 3630 L
5746 3594 mt 5746 3666 L
DA
gr

gs 899 504 5361 4065 rc
DD
/c10 { 1.000000 0.000000 0.000000 sr} bdef
c10
774 551 807 830 806 871 807 443 805 -40 805 -39 557 -10 899 1325 8 MP stroke
gr

c10
DD
gs 789 1126 5582 2916 rc
SO
  36   36 1456 1315 FO
  36   36 2261 1276 FO
  36   36 3066 1236 FO
  36   36 3873 1679 FO
  36   36 4679 2550 FO
  36   36 5486 3380 FO
DD
gr

gs 899 504 5361 4065 rc
gr

0 sg
%%IncludeResource: font Helvetica
/Helvetica /ISOLatin1Encoding 240 FMSR

2574  313 mt 
(p=2; -u) s
%%IncludeResource: font Symbol
/Symbol /ISOLatin1Encoding 192 FMSR

3376  193 mt 
(\242) s
3423  193 mt 
(\242) s
%%IncludeResource: font Helvetica
/Helvetica /ISOLatin1Encoding 240 FMSR

3470  313 mt 
(-  k) s
%%IncludeResource: font Helvetica
/Helvetica /ISOLatin1Encoding 192 FMSR

3863  193 mt 
(2) s
%%IncludeResource: font Helvetica
/Helvetica /ISOLatin1Encoding 240 FMSR

3969  313 mt 
( u = 1) s
2451 5129 mt 
(DOF per wave length) s
 307 3717 mt  -90 rotate
(rel. H) s
90 rotate
%%IncludeResource: font Helvetica
/Helvetica /ISOLatin1Encoding 192 FMSR

 187 3159 mt  -90 rotate
(1) s
90 rotate
%%IncludeResource: font Helvetica
/Helvetica /ISOLatin1Encoding 240 FMSR

 307 3053 mt  -90 rotate
( seminorm error) s
90 rotate
%%IncludeResource: font Helvetica
/Helvetica /ISOLatin1Encoding 120 FMSR

 882 4611 mt 
( ) s
6243  546 mt 
( ) s
SO
6 w
1 sg
0 897 1299 0 0 -897 4901 1461 4 MP
PP
-1299 0 0 897 1299 0 0 -897 4901 1461 5 MP stroke
4 w
DO
SO
6 w
0 sg
4901 1461 mt 6200 1461 L
4901  564 mt 6200  564 L
4901 1461 mt 4901  564 L
6200 1461 mt 6200  564 L
4901 1461 mt 6200 1461 L
4901 1461 mt 4901  564 L
4901 1461 mt 6200 1461 L
4901  564 mt 6200  564 L
4901 1461 mt 4901  564 L
6200 1461 mt 6200  564 L
%%IncludeResource: font Helvetica
/Helvetica /ISOLatin1Encoding 240 FMSR

5359  810 mt 
(k=10) s
gs 4901 564 1300 898 rc
36 w
c8
352 0 4971 724 2 MP stroke
gs 5037 614 221 221 rc
5111  724 mt 5183  724 L
5147  688 mt 5147  760 L
5122  699 mt 5172  749 L
5172  699 mt 5122  749 L
gr

gr

36 w
c8
0 sg
5359 1098 mt 
(k=100) s
gs 4901 564 1300 898 rc
DA
c9
352 0 4971 1012 2 MP stroke
SO
gs 5037 902 221 221 rc
5111 1012 mt 5183 1012 L
5147  976 mt 5147 1048 L
gr

gr

c9
0 sg
5359 1386 mt 
(k=1000) s
gs 4901 564 1300 898 rc
DD
c10
352 0 4971 1300 2 MP stroke
SO
gs 5037 1190 221 221 rc
  36   36 5147 1300 FO
gr

6 w
gr

6 w
c10

end %%Color Dict

eplot
%%EndObject

epage
end

showpage

%%Trailer
%%EOF
