%!PS-Adobe-3.0 EPSF-3.0
%%Creator: MATLAB, The Mathworks, Inc. Version 7.10.0.499 (R2010a). Operating System: Linux 2.6.32-25-generic #45-Ubuntu SMP Sat Oct 16 19:52:42 UTC 2010 x86_64.
%%Title: ./p3.eps
%%CreationDate: 11/23/2010  08:36:25
%%DocumentNeededFonts: Helvetica
%%DocumentProcessColors: Cyan Magenta Yellow Black
%%LanguageLevel: 2
%%Pages: 1
%%BoundingBox:    18   179   558   616
%%EndComments

%%BeginProlog
% MathWorks dictionary
/MathWorks 160 dict begin
% definition operators
/bdef {bind def} bind def
/ldef {load def} bind def
/xdef {exch def} bdef
/xstore {exch store} bdef
% operator abbreviations
/c  /clip ldef
/cc /concat ldef
/cp /closepath ldef
/gr /grestore ldef
/gs /gsave ldef
/mt /moveto ldef
/np /newpath ldef
/cm /currentmatrix ldef
/sm /setmatrix ldef
/rm /rmoveto ldef
/rl /rlineto ldef
/s {show newpath} bdef
/sc {setcmykcolor} bdef
/sr /setrgbcolor ldef
/sg /setgray ldef
/w /setlinewidth ldef
/j /setlinejoin ldef
/cap /setlinecap ldef
/rc {rectclip} bdef
/rf {rectfill} bdef
% page state control
/pgsv () def
/bpage {/pgsv save def} bdef
/epage {pgsv restore} bdef
/bplot /gsave ldef
/eplot {stroke grestore} bdef
% orientation switch
/portraitMode 0 def /landscapeMode 1 def /rotateMode 2 def
% coordinate system mappings
/dpi2point 0 def
% font control
/FontSize 0 def
/FMS {/FontSize xstore findfont [FontSize 0 0 FontSize neg 0 0]
  makefont setfont} bdef
/reencode {exch dup where {pop load} {pop StandardEncoding} ifelse
  exch dup 3 1 roll findfont dup length dict begin
  { 1 index /FID ne {def}{pop pop} ifelse } forall
  /Encoding exch def currentdict end definefont pop} bdef
/isroman {findfont /CharStrings get /Agrave known} bdef
/FMSR {3 1 roll 1 index dup isroman {reencode} {pop pop} ifelse
  exch FMS} bdef
/csm {1 dpi2point div -1 dpi2point div scale neg translate
 dup landscapeMode eq {pop -90 rotate}
  {rotateMode eq {90 rotate} if} ifelse} bdef
% line types: solid, dotted, dashed, dotdash
/SO { [] 0 setdash } bdef
/DO { [.5 dpi2point mul 4 dpi2point mul] 0 setdash } bdef
/DA { [6 dpi2point mul] 0 setdash } bdef
/DD { [.5 dpi2point mul 4 dpi2point mul 6 dpi2point mul 4
  dpi2point mul] 0 setdash } bdef
% macros for lines and objects
/L {lineto stroke} bdef
/MP {3 1 roll moveto 1 sub {rlineto} repeat} bdef
/AP {{rlineto} repeat} bdef
/PDlw -1 def
/W {/PDlw currentlinewidth def setlinewidth} def
/PP {closepath eofill} bdef
/DP {closepath stroke} bdef
/MR {4 -2 roll moveto dup  0 exch rlineto exch 0 rlineto
  neg 0 exch rlineto closepath} bdef
/FR {MR stroke} bdef
/PR {MR fill} bdef
/L1i {{currentfile picstr readhexstring pop} image} bdef
/tMatrix matrix def
/MakeOval {newpath tMatrix currentmatrix pop translate scale
0 0 1 0 360 arc tMatrix setmatrix} bdef
/FO {MakeOval stroke} bdef
/PO {MakeOval fill} bdef
/PD {currentlinewidth 2 div 0 360 arc fill
   PDlw -1 eq not {PDlw w /PDlw -1 def} if} def
/FA {newpath tMatrix currentmatrix pop translate scale
  0 0 1 5 -2 roll arc tMatrix setmatrix stroke} bdef
/PA {newpath tMatrix currentmatrix pop	translate 0 0 moveto scale
  0 0 1 5 -2 roll arc closepath tMatrix setmatrix fill} bdef
/FAn {newpath tMatrix currentmatrix pop translate scale
  0 0 1 5 -2 roll arcn tMatrix setmatrix stroke} bdef
/PAn {newpath tMatrix currentmatrix pop translate 0 0 moveto scale
  0 0 1 5 -2 roll arcn closepath tMatrix setmatrix fill} bdef
/vradius 0 def /hradius 0 def /lry 0 def
/lrx 0 def /uly 0 def /ulx 0 def /rad 0 def
/MRR {/vradius xdef /hradius xdef /lry xdef /lrx xdef /uly xdef
  /ulx xdef newpath tMatrix currentmatrix pop ulx hradius add uly
  vradius add translate hradius vradius scale 0 0 1 180 270 arc 
  tMatrix setmatrix lrx hradius sub uly vradius add translate
  hradius vradius scale 0 0 1 270 360 arc tMatrix setmatrix
  lrx hradius sub lry vradius sub translate hradius vradius scale
  0 0 1 0 90 arc tMatrix setmatrix ulx hradius add lry vradius sub
  translate hradius vradius scale 0 0 1 90 180 arc tMatrix setmatrix
  closepath} bdef
/FRR {MRR stroke } bdef
/PRR {MRR fill } bdef
/MlrRR {/lry xdef /lrx xdef /uly xdef /ulx xdef /rad lry uly sub 2 div def
  newpath tMatrix currentmatrix pop ulx rad add uly rad add translate
  rad rad scale 0 0 1 90 270 arc tMatrix setmatrix lrx rad sub lry rad
  sub translate rad rad scale 0 0 1 270 90 arc tMatrix setmatrix
  closepath} bdef
/FlrRR {MlrRR stroke } bdef
/PlrRR {MlrRR fill } bdef
/MtbRR {/lry xdef /lrx xdef /uly xdef /ulx xdef /rad lrx ulx sub 2 div def
  newpath tMatrix currentmatrix pop ulx rad add uly rad add translate
  rad rad scale 0 0 1 180 360 arc tMatrix setmatrix lrx rad sub lry rad
  sub translate rad rad scale 0 0 1 0 180 arc tMatrix setmatrix
  closepath} bdef
/FtbRR {MtbRR stroke } bdef
/PtbRR {MtbRR fill } bdef
/stri 6 array def /dtri 6 array def
/smat 6 array def /dmat 6 array def
/tmat1 6 array def /tmat2 6 array def /dif 3 array def
/asub {/ind2 exch def /ind1 exch def dup dup
  ind1 get exch ind2 get sub exch } bdef
/tri_to_matrix {
  2 0 asub 3 1 asub 4 0 asub 5 1 asub
  dup 0 get exch 1 get 7 -1 roll astore } bdef
/compute_transform {
  dmat dtri tri_to_matrix tmat1 invertmatrix 
  smat stri tri_to_matrix tmat2 concatmatrix } bdef
/ds {stri astore pop} bdef
/dt {dtri astore pop} bdef
/db {2 copy /cols xdef /rows xdef mul dup 3 mul string
  currentfile 
  3 index 0 eq {/ASCIIHexDecode filter}
  {/ASCII85Decode filter 3 index 2 eq {/RunLengthDecode filter} if }
  ifelse exch readstring pop
  dup 0 3 index getinterval /rbmap xdef
  dup 2 index dup getinterval /gbmap xdef
  1 index dup 2 mul exch getinterval /bbmap xdef pop pop}bdef
/it {gs np dtri aload pop moveto lineto lineto cp c
  cols rows 8 compute_transform 
  rbmap gbmap bbmap true 3 colorimage gr}bdef
/il {newpath moveto lineto stroke}bdef
currentdict end def
%%EndProlog

%%BeginSetup
MathWorks begin

0 cap

end
%%EndSetup

%%Page: 1 1
%%BeginPageSetup
%%PageBoundingBox:    18   179   558   616
MathWorks begin
bpage
%%EndPageSetup

%%BeginObject: obj1
bplot

/dpi2point 12 def
portraitMode 0216 7344 csm

    0   -48  6485  5233 rc
85 dict begin %Colortable dictionary
/c0 { 0.000000 0.000000 0.000000 sr} bdef
/c1 { 1.000000 1.000000 1.000000 sr} bdef
/c2 { 0.900000 0.000000 0.000000 sr} bdef
/c3 { 0.000000 0.820000 0.000000 sr} bdef
/c4 { 0.000000 0.000000 0.800000 sr} bdef
/c5 { 0.910000 0.820000 0.320000 sr} bdef
/c6 { 1.000000 0.260000 0.820000 sr} bdef
/c7 { 0.000000 0.820000 0.820000 sr} bdef
c0
1 j
1 sg
   0    0 6917 5186 rf
6 w
0 4065 5360 0 0 -4065 899 4568 4 MP
PP
-5360 0 0 4065 5360 0 0 -4065 899 4568 5 MP stroke
4 w
DO
SO
6 w
0 sg
 899 4568 mt 6259 4568 L
 899  503 mt 6259  503 L
 899 4568 mt  899  503 L
6259 4568 mt 6259  503 L
 899 4568 mt 6259 4568 L
 899 4568 mt  899  503 L
 899 4568 mt  899 4541 L
 899  504 mt  899  530 L
 899 4568 mt  899 4514 L
 899  504 mt  899  557 L
%%IncludeResource: font Helvetica
/Helvetica /ISOLatin1Encoding 240 FMSR

 722 4898 mt 
(10) s
%%IncludeResource: font Helvetica
/Helvetica /ISOLatin1Encoding 160 FMSR

 988 4750 mt 
(0) s
1705 4568 mt 1705 4541 L
1705  504 mt 1705  530 L
2177 4568 mt 2177 4541 L
2177  504 mt 2177  530 L
2512 4568 mt 2512 4541 L
2512  504 mt 2512  530 L
2772 4568 mt 2772 4541 L
2772  504 mt 2772  530 L
2984 4568 mt 2984 4541 L
2984  504 mt 2984  530 L
3163 4568 mt 3163 4541 L
3163  504 mt 3163  530 L
3319 4568 mt 3319 4541 L
3319  504 mt 3319  530 L
3456 4568 mt 3456 4541 L
3456  504 mt 3456  530 L
3579 4568 mt 3579 4541 L
3579  504 mt 3579  530 L
3579 4568 mt 3579 4514 L
3579  504 mt 3579  557 L
%%IncludeResource: font Helvetica
/Helvetica /ISOLatin1Encoding 240 FMSR

3402 4898 mt 
(10) s
%%IncludeResource: font Helvetica
/Helvetica /ISOLatin1Encoding 160 FMSR

3668 4750 mt 
(1) s
4385 4568 mt 4385 4541 L
4385  504 mt 4385  530 L
4857 4568 mt 4857 4541 L
4857  504 mt 4857  530 L
5192 4568 mt 5192 4541 L
5192  504 mt 5192  530 L
5452 4568 mt 5452 4541 L
5452  504 mt 5452  530 L
5664 4568 mt 5664 4541 L
5664  504 mt 5664  530 L
5843 4568 mt 5843 4541 L
5843  504 mt 5843  530 L
5999 4568 mt 5999 4541 L
5999  504 mt 5999  530 L
6136 4568 mt 6136 4541 L
6136  504 mt 6136  530 L
6259 4568 mt 6259 4541 L
6259  504 mt 6259  530 L
6259 4568 mt 6259 4514 L
6259  504 mt 6259  557 L
%%IncludeResource: font Helvetica
/Helvetica /ISOLatin1Encoding 240 FMSR

6082 4898 mt 
(10) s
%%IncludeResource: font Helvetica
/Helvetica /ISOLatin1Encoding 160 FMSR

6348 4750 mt 
(2) s
 899 4568 mt  925 4568 L
6259 4568 mt 6232 4568 L
 899 4568 mt  952 4568 L
6259 4568 mt 6205 4568 L
%%IncludeResource: font Helvetica
/Helvetica /ISOLatin1Encoding 240 FMSR

 416 4657 mt 
(10) s
%%IncludeResource: font Helvetica
/Helvetica /ISOLatin1Encoding 160 FMSR

 682 4509 mt 
(-4) s
 899 4323 mt  925 4323 L
6259 4323 mt 6232 4323 L
 899 4180 mt  925 4180 L
6259 4180 mt 6232 4180 L
 899 4078 mt  925 4078 L
6259 4078 mt 6232 4078 L
 899 3999 mt  925 3999 L
6259 3999 mt 6232 3999 L
 899 3935 mt  925 3935 L
6259 3935 mt 6232 3935 L
 899 3881 mt  925 3881 L
6259 3881 mt 6232 3881 L
 899 3833 mt  925 3833 L
6259 3833 mt 6232 3833 L
 899 3792 mt  925 3792 L
6259 3792 mt 6232 3792 L
 899 3755 mt  925 3755 L
6259 3755 mt 6232 3755 L
 899 3755 mt  952 3755 L
6259 3755 mt 6205 3755 L
%%IncludeResource: font Helvetica
/Helvetica /ISOLatin1Encoding 240 FMSR

 416 3844 mt 
(10) s
%%IncludeResource: font Helvetica
/Helvetica /ISOLatin1Encoding 160 FMSR

 682 3696 mt 
(-3) s
 899 3510 mt  925 3510 L
6259 3510 mt 6232 3510 L
 899 3367 mt  925 3367 L
6259 3367 mt 6232 3367 L
 899 3265 mt  925 3265 L
6259 3265 mt 6232 3265 L
 899 3187 mt  925 3187 L
6259 3187 mt 6232 3187 L
 899 3122 mt  925 3122 L
6259 3122 mt 6232 3122 L
 899 3068 mt  925 3068 L
6259 3068 mt 6232 3068 L
 899 3021 mt  925 3021 L
6259 3021 mt 6232 3021 L
 899 2979 mt  925 2979 L
6259 2979 mt 6232 2979 L
 899 2942 mt  925 2942 L
6259 2942 mt 6232 2942 L
 899 2942 mt  952 2942 L
6259 2942 mt 6205 2942 L
%%IncludeResource: font Helvetica
/Helvetica /ISOLatin1Encoding 240 FMSR

 416 3031 mt 
(10) s
%%IncludeResource: font Helvetica
/Helvetica /ISOLatin1Encoding 160 FMSR

 682 2883 mt 
(-2) s
 899 2697 mt  925 2697 L
6259 2697 mt 6232 2697 L
 899 2554 mt  925 2554 L
6259 2554 mt 6232 2554 L
 899 2453 mt  925 2453 L
6259 2453 mt 6232 2453 L
 899 2374 mt  925 2374 L
6259 2374 mt 6232 2374 L
 899 2309 mt  925 2309 L
6259 2309 mt 6232 2309 L
 899 2255 mt  925 2255 L
6259 2255 mt 6232 2255 L
 899 2208 mt  925 2208 L
6259 2208 mt 6232 2208 L
 899 2166 mt  925 2166 L
6259 2166 mt 6232 2166 L
 899 2129 mt  925 2129 L
6259 2129 mt 6232 2129 L
 899 2129 mt  952 2129 L
6259 2129 mt 6205 2129 L
%%IncludeResource: font Helvetica
/Helvetica /ISOLatin1Encoding 240 FMSR

 416 2218 mt 
(10) s
%%IncludeResource: font Helvetica
/Helvetica /ISOLatin1Encoding 160 FMSR

 682 2070 mt 
(-1) s
 899 1884 mt  925 1884 L
6259 1884 mt 6232 1884 L
 899 1741 mt  925 1741 L
6259 1741 mt 6232 1741 L
 899 1640 mt  925 1640 L
6259 1640 mt 6232 1640 L
 899 1561 mt  925 1561 L
6259 1561 mt 6232 1561 L
 899 1497 mt  925 1497 L
6259 1497 mt 6232 1497 L
 899 1442 mt  925 1442 L
6259 1442 mt 6232 1442 L
 899 1395 mt  925 1395 L
6259 1395 mt 6232 1395 L
 899 1353 mt  925 1353 L
6259 1353 mt 6232 1353 L
 899 1316 mt  925 1316 L
6259 1316 mt 6232 1316 L
 899 1316 mt  952 1316 L
6259 1316 mt 6205 1316 L
%%IncludeResource: font Helvetica
/Helvetica /ISOLatin1Encoding 240 FMSR

 416 1405 mt 
(10) s
%%IncludeResource: font Helvetica
/Helvetica /ISOLatin1Encoding 160 FMSR

 682 1257 mt 
(0) s
 899 1072 mt  925 1072 L
6259 1072 mt 6232 1072 L
 899  928 mt  925  928 L
6259  928 mt 6232  928 L
 899  827 mt  925  827 L
6259  827 mt 6232  827 L
 899  748 mt  925  748 L
6259  748 mt 6232  748 L
 899  684 mt  925  684 L
6259  684 mt 6232  684 L
 899  629 mt  925  629 L
6259  629 mt 6232  629 L
 899  582 mt  925  582 L
6259  582 mt 6232  582 L
 899  541 mt  925  541 L
6259  541 mt 6232  541 L
 899  504 mt  925  504 L
6259  504 mt 6232  504 L
 899 4568 mt 6259 4568 L
 899  503 mt 6259  503 L
 899 4568 mt  899  503 L
6259 4568 mt 6259  503 L
gs 899 504 5361 4065 rc
36 w
/c8 { 0.000000 0.000000 1.000000 sr} bdef
c8
768 708 783 728 761 702 721 798 2622 1633 5 MP stroke
gr

36 w
c8
gs 2512 1523 3254 3157 rc
2586 1633 mt 2658 1633 L
2622 1597 mt 2622 1669 L
3307 2431 mt 3379 2431 L
3343 2395 mt 3343 2467 L
4068 3133 mt 4140 3133 L
4104 3097 mt 4104 3169 L
4851 3861 mt 4923 3861 L
4887 3825 mt 4887 3897 L
2597 1608 mt 2647 1658 L
2647 1608 mt 2597 1658 L
3318 2406 mt 3368 2456 L
3368 2406 mt 3318 2456 L
4079 3108 mt 4129 3158 L
4129 3108 mt 4079 3158 L
4862 3836 mt 4912 3886 L
4912 3836 mt 4862 3886 L
gr

gs 899 504 5361 4065 rc
DA
/c9 { 0.000000 0.500000 0.000000 sr} bdef
c9
243 222 805 732 804 748 801 848 795 896 783 -333 525 44 899 1412 8 MP stroke
gr

c9
DA
gs 789 1013 4977 3667 rc
SO
1388 1456 mt 1460 1456 L
1424 1420 mt 1424 1492 L
2171 1123 mt 2243 1123 L
2207 1087 mt 2207 1159 L
2966 2019 mt 3038 2019 L
3002 1983 mt 3002 2055 L
3767 2867 mt 3839 2867 L
3803 2831 mt 3803 2903 L
4571 3615 mt 4643 3615 L
4607 3579 mt 4607 3651 L
5376 4347 mt 5448 4347 L
5412 4311 mt 5412 4383 L
1399 1431 mt 1449 1481 L
1449 1431 mt 1399 1481 L
2182 1098 mt 2232 1148 L
2232 1098 mt 2182 1148 L
2977 1994 mt 3027 2044 L
3027 1994 mt 2977 2044 L
3778 2842 mt 3828 2892 L
3828 2842 mt 3778 2892 L
4582 3590 mt 4632 3640 L
4632 3590 mt 4582 3640 L
5387 4322 mt 5437 4372 L
5437 4322 mt 5387 4372 L
DA
gr

gs 899 504 5361 4065 rc
SO
/c10 { 1.000000 0.000000 0.000000 sr} bdef
c10
506 463 807 864 806 1296 806 839 805 -57 804 -153 224 -1 899 1318 8 MP stroke
gr

c10
SO
gs 789 997 4979 3683 rc
  36   36 1123 1317 FO
  36   36 1927 1164 FO
  36   36 2732 1107 FO
  36   36 3538 1946 FO
  36   36 4344 3242 FO
  36   36 5151 4106 FO
gr

gs 899 504 5361 4065 rc
gr

0 sg
%%IncludeResource: font Helvetica
/Helvetica /ISOLatin1Encoding 240 FMSR

2574  313 mt 
(p=3; -u) s
%%IncludeResource: font Symbol
/Symbol /ISOLatin1Encoding 192 FMSR

3376  193 mt 
(\242) s
3423  193 mt 
(\242) s
%%IncludeResource: font Helvetica
/Helvetica /ISOLatin1Encoding 240 FMSR

3470  313 mt 
(-  k) s
%%IncludeResource: font Helvetica
/Helvetica /ISOLatin1Encoding 192 FMSR

3863  193 mt 
(2) s
%%IncludeResource: font Helvetica
/Helvetica /ISOLatin1Encoding 240 FMSR

3969  313 mt 
( u = 1) s
2451 5129 mt 
(DOF per wave length) s
 307 3717 mt  -90 rotate
(rel. H) s
90 rotate
%%IncludeResource: font Helvetica
/Helvetica /ISOLatin1Encoding 192 FMSR

 187 3159 mt  -90 rotate
(1) s
90 rotate
%%IncludeResource: font Helvetica
/Helvetica /ISOLatin1Encoding 240 FMSR

 307 3053 mt  -90 rotate
( seminorm error) s
90 rotate
%%IncludeResource: font Helvetica
/Helvetica /ISOLatin1Encoding 120 FMSR

 882 4611 mt 
( ) s
6243  546 mt 
( ) s
6 w
1 sg
0 897 1299 0 0 -897 4901 1461 4 MP
PP
-1299 0 0 897 1299 0 0 -897 4901 1461 5 MP stroke
4 w
DO
SO
6 w
0 sg
4901 1461 mt 6200 1461 L
4901  564 mt 6200  564 L
4901 1461 mt 4901  564 L
6200 1461 mt 6200  564 L
4901 1461 mt 6200 1461 L
4901 1461 mt 4901  564 L
4901 1461 mt 6200 1461 L
4901  564 mt 6200  564 L
4901 1461 mt 4901  564 L
6200 1461 mt 6200  564 L
%%IncludeResource: font Helvetica
/Helvetica /ISOLatin1Encoding 240 FMSR

5359  810 mt 
(k=10) s
gs 4901 564 1300 898 rc
36 w
c8
352 0 4971 724 2 MP stroke
gs 5037 614 221 221 rc
5111  724 mt 5183  724 L
5147  688 mt 5147  760 L
5122  699 mt 5172  749 L
5172  699 mt 5122  749 L
gr

gr

36 w
c8
0 sg
5359 1098 mt 
(k=100) s
gs 4901 564 1300 898 rc
DA
c9
352 0 4971 1012 2 MP stroke
SO
gs 5037 902 221 221 rc
5111 1012 mt 5183 1012 L
5147  976 mt 5147 1048 L
5122  987 mt 5172 1037 L
5172  987 mt 5122 1037 L
gr

gr

c9
0 sg
5359 1386 mt 
(k=1000) s
gs 4901 564 1300 898 rc
c10
352 0 4971 1300 2 MP stroke
gs 5037 1190 221 221 rc
  36   36 5147 1300 FO
gr

6 w
gr

6 w
c10

end %%Color Dict

eplot
%%EndObject

epage
end

showpage

%%Trailer
%%EOF
